packet, 4, 172, 0, 52.29, 3, 0.086016, False
packet, 9, 66, 0, 58.49, 3, 0.086016, False
packet, 8, 236, 0, 64.11, 3, 0.086016, False
packet, 11, 86, 0, 81.81, 3, 0.086016, False
packet, 14, 285, 0, 104.05, 3, 0.086016, False
packet, 24, 175, 0, 108.49, 3, 0.086016, False
packet, 23, 283, 0, 124.51, 3, 0.086016, False
packet, 26, 231, 0, 126.74, 3, 0.086016, False
packet, 12, 78, 0, 128.21, 3, 0.086016, False
packet, 25, 232, 0, 131.51, 3, 0.086016, False
packet, 28, 73, 0, 136.48, 3, 0.086016, False
packet, 19, 241, 0, 138.07, 3, 0.086016, False
packet, 22, 7, 0, 139.41, 3, 0.086016, False
packet, 30, 53, 0, 141.82, 3, 0.086016, False
packet, 40, 169, 0, 144.05, 3, 0.086016, False
packet, 18, 119, 0, 150.11, 3, 0.086016, False
packet, 17, 82, 0, 151.27, 3, 0.086016, False
packet, 27, 22, 0, 156.58, 3, 0.086016, False
packet, 10, 59, 0, 161.65, 3, 0.086016, False
packet, 5, 194, 0, 163.34, 3, 0.086016, False
packet, 37, 92, 0, 166.36, 3, 0.086016, False
packet, 44, 5, 0, 175.72, 3, 0.086016, False
packet, 7, 299, 0, 178.6, 3, 0.086016, False
packet, 59, 178, 0, 179.93, 3, 0.086016, False
packet, 29, 284, 0, 184.3, 3, 0.086016, False
packet, 2, 246, 0, 186.91, 3, 0.086016, False
packet, 38, 71, 0, 198.38, 3, 0.086016, False
packet, 45, 85, 0, 202.36, 3, 0.086016, False
packet, 47, 190, 0, 209.27, 3, 0.086016, False
packet, 36, 115, 0, 212.86, 3, 0.086016, False
packet, 35, 168, 0, 215.06, 5, 0.086016, False
packet, 55, 173, 0, 219.8, 3, 0.086016, False
packet, 31, 99, 0, 222.81, 3, 0.086016, False
packet, 56, 108, 0, 224.17, 3, 0.086016, False
packet, 41, 126, 0, 228.67, 3, 0.086016, False
packet, 13, 295, 0, 230.22, 5, 0.086016, False
packet, 16, 246, 0, 233.96, 3, 0.086016, False
packet, 3, 38, 0, 236.29, 4, 0.086016, False
packet, 53, 283, 0, 237.41, 3, 0.086016, False
packet, 51, 270, 0, 239.0, 3, 0.086016, False
packet, 62, 271, 0, 241.43, 3, 0.086016, False
packet, 42, 94, 0, 243.2, 3, 0.086016, False
packet, 54, 63, 0, 247.08, 3, 0.086016, False
packet, 61, 13, 0, 251.47, 3, 0.086016, False
packet, 57, 70, 0, 255.45, 3, 0.086016, False
packet, 33, 184, 0, 260.48, 3, 0.086016, False
packet, 63, 298, 0, 269.41, 3, 0.086016, False
packet, 67, 2, 0, 278.09, 3, 0.086016, False
packet, 1, 228, 0, 282.04, 5, 0.086016, False
packet, 20, 23, 0, 286.62, 5, 0.086016, False
packet, 64, 174, 0, 310.61, 3, 0.086016, False
packet, 78, 289, 0, 312.88, 3, 0.086016, False
packet, 60, 65, 0, 313.85, 4, 0.086016, False
packet, 77, 211, 0, 322.25, 3, 0.086016, False
packet, 75, 26, 0, 325.37, 3, 0.086016, False
packet, 82, 84, 0, 327.29, 3, 0.086016, False
packet, 48, 192, 0, 328.83, 3, 0.086016, False
packet, 81, 52, 0, 337.56, 3, 0.086016, False
packet, 32, 15, 0, 344.65, 5, 0.086016, False
packet, 43, 159, 0, 345.87, 3, 0.086016, False
packet, 96, 240, 0, 347.89, 3, 0.086016, False
packet, 89, 146, 0, 351.69, 3, 0.086016, False
packet, 68, 111, 0, 353.93, 3, 0.086016, False
packet, 76, 243, 0, 360.32, 3, 0.086016, False
packet, 50, 175, 0, 363.08, 4, 0.086016, False
packet, 39, 96, 0, 364.83, 4, 0.086016, False
packet, 49, 189, 0, 368.97, 4, 0.086016, False
packet, 86, 238, 0, 370.39, 3, 0.086016, False
packet, 90, 243, 0, 372.4, 3, 0.086016, False
packet, 79, 26, 0, 374.07, 3, 0.086016, False
packet, 97, 7, 0, 375.12, 3, 0.086016, False
packet, 84, 148, 0, 376.12, 4, 0.086016, False
packet, 70, 159, 0, 377.88, 3, 0.086016, False
packet, 85, 195, 0, 386.49, 3, 0.086016, False
packet, 95, 282, 0, 391.79, 3, 0.086016, False
packet, 69, 297, 0, 395.36, 3, 0.086016, False
packet, 87, 41, 0, 402.63, 3, 0.086016, False
packet, 122, 62, 0, 413.06, 3, 0.086016, True
packet, 65, 193, 0, 413.1, 5, 0.086016, True
packet, 116, 61, 0, 419.27, 3, 0.086016, False
packet, 103, 248, 0, 423.31, 3, 0.086016, False
packet, 93, 103, 0, 429.95, 4, 0.086016, False
packet, 100, 240, 0, 430.95, 3, 0.086016, False
packet, 108, 292, 0, 436.78, 3, 0.086016, False
packet, 136, 37, 0, 442.47, 3, 0.086016, False
packet, 119, 63, 0, 444.55, 3, 0.086016, False
packet, 101, 47, 0, 445.74, 4, 0.086016, False
packet, 133, 75, 0, 447.07, 3, 0.086016, False
packet, 52, 97, 0, 450.71, 6, 0.086016, False
packet, 15, 259, 0, 454.21, 5, 0.086016, False
packet, 123, 255, 0, 461.9, 3, 0.086016, False
packet, 113, 164, 0, 463.28, 3, 0.086016, False
packet, 130, 177, 0, 467.45, 3, 0.086016, False
packet, 126, 14, 0, 474.08, 3, 0.086016, False
packet, 131, 249, 0, 476.43, 3, 0.086016, False
packet, 118, 24, 0, 477.65, 3, 0.086016, False
packet, 98, 202, 0, 480.17, 5, 0.086016, False
packet, 34, 260, 0, 481.13, 4, 0.086016, False
packet, 132, 273, 0, 483.34, 3, 0.086016, False
packet, 134, 72, 0, 484.95, 3, 0.086016, False
packet, 142, 53, 0, 493.8, 3, 0.086016, False
packet, 111, 296, 0, 496.0, 3, 0.086016, False
packet, 114, 137, 0, 499.11, 4, 0.086016, False
packet, 144, 29, 0, 504.2, 3, 0.086016, False
packet, 138, 254, 0, 507.8, 3, 0.086016, False
packet, 146, 203, 0, 508.86, 3, 0.086016, False
packet, 145, 44, 0, 510.61, 3, 0.086016, False
packet, 156, 79, 0, 514.59, 3, 0.086016, False
packet, 128, 204, 0, 520.38, 3, 0.086016, False
packet, 153, 15, 0, 523.07, 3, 0.086016, False
packet, 58, 260, 0, 524.22, 3, 0.086016, True
packet, 154, 24, 0, 524.24, 3, 0.086016, True
packet, 162, 286, 0, 526.31, 3, 0.086016, False
packet, 92, 195, 0, 527.26, 4, 0.086016, False
packet, 88, 150, 0, 530.13, 4, 0.086016, False
packet, 139, 68, 0, 531.71, 3, 0.086016, False
packet, 168, 126, 0, 539.21, 3, 0.086016, False
packet, 158, 203, 0, 545.41, 3, 0.086016, True
packet, 124, 236, 0, 545.45, 3, 0.086016, True
packet, 157, 39, 0, 550.95, 3, 0.086016, False
packet, 141, 244, 0, 552.78, 5, 0.086016, False
packet, 164, 226, 0, 555.49, 3, 0.086016, False
packet, 46, 71, 0, 561.78, 5, 0.086016, False
packet, 149, 127, 0, 562.92, 3, 0.086016, False
packet, 110, 191, 0, 565.31, 5, 0.086016, False
packet, 166, 279, 0, 569.49, 3, 0.086016, False
packet, 109, 234, 0, 570.53, 4, 0.086016, False
packet, 115, 285, 0, 577.05, 4, 0.086016, False
packet, 99, 180, 0, 578.82, 5, 0.086016, False
packet, 171, 84, 0, 580.07, 3, 0.086016, False
packet, 155, 237, 0, 584.32, 5, 0.086016, False
packet, 169, 26, 0, 588.48, 3, 0.086016, False
packet, 183, 76, 0, 592.51, 3, 0.086016, False
packet, 159, 14, 0, 593.84, 3, 0.086016, False
packet, 177, 284, 0, 596.81, 3, 0.086016, False
packet, 176, 164, 0, 599.57, 3, 0.086016, False
packet, 180, 81, 0, 602.11, 3, 0.086016, False
packet, 80, 96, 0, 603.52, 5, 0.086016, False
packet, 173, 104, 0, 610.08, 3, 0.086016, False
packet, 160, 278, 0, 611.43, 3, 0.086016, False
packet, 187, 117, 0, 618.67, 3, 0.086016, False
packet, 151, 251, 0, 621.98, 4, 0.086016, False
packet, 190, 73, 0, 625.06, 3, 0.086016, False
packet, 182, 215, 0, 626.5, 3, 0.086016, False
packet, 175, 152, 0, 629.95, 3, 0.086016, False
packet, 191, 283, 0, 632.9, 3, 0.086016, False
packet, 163, 287, 0, 637.09, 3, 0.086016, False
packet, 194, 162, 0, 639.79, 3, 0.086016, False
packet, 112, 191, 0, 643.69, 3, 0.086016, False
packet, 129, 154, 0, 653.33, 5, 0.086016, False
packet, 150, 189, 0, 656.01, 3, 0.086016, False
packet, 203, 167, 0, 660.2, 3, 0.086016, False
packet, 205, 27, 0, 665.65, 3, 0.086016, False
packet, 174, 174, 0, 667.28, 4, 0.086016, False
packet, 208, 266, 0, 671.71, 3, 0.086016, False
packet, 117, 180, 0, 675.29, 3, 0.086016, False
packet, 135, 19, 0, 676.65, 4, 0.086016, False
packet, 213, 44, 0, 678.2, 3, 0.086016, False
packet, 165, 248, 0, 679.89, 4, 0.086016, False
packet, 204, 238, 0, 683.55, 3, 0.086016, False
packet, 181, 277, 0, 685.97, 4, 0.086016, False
packet, 94, 232, 0, 690.24, 5, 0.086016, False
packet, 223, 186, 0, 693.44, 3, 0.086016, False
packet, 227, 250, 0, 696.35, 3, 0.086016, False
packet, 210, 274, 0, 697.9, 3, 0.086016, False
packet, 222, 251, 0, 704.31, 3, 0.086016, False
packet, 200, 197, 0, 707.35, 3, 0.086016, False
packet, 225, 106, 0, 710.24, 3, 0.086016, False
packet, 206, 30, 0, 716.93, 3, 0.086016, False
packet, 224, 204, 0, 724.19, 3, 0.086016, False
packet, 214, 167, 0, 728.97, 3, 0.086016, False
packet, 239, 243, 0, 730.55, 3, 0.086016, False
packet, 228, 98, 0, 731.69, 3, 0.086016, False
packet, 186, 9, 0, 733.29, 5, 0.086016, False
packet, 229, 80, 0, 735.49, 3, 0.086016, False
packet, 226, 269, 0, 738.02, 3, 0.086016, False
packet, 232, 159, 0, 739.56, 3, 0.086016, False
packet, 74, 153, 0, 743.33, 6, 0.086016, False
packet, 246, 56, 0, 746.0, 3, 0.086016, False
packet, 217, 22, 0, 750.95, 3, 0.086016, False
packet, 121, 40, 0, 760.34, 5, 0.086016, False
packet, 105, 83, 0, 763.16, 7, 0.086016, False
packet, 249, 30, 0, 764.65, 3, 0.086016, False
packet, 237, 103, 0, 769.95, 3, 0.086016, False
packet, 172, 180, 0, 775.28, 3, 0.086016, False
packet, 254, 280, 0, 782.0, 3, 0.086016, False
packet, 250, 295, 0, 784.32, 3, 0.086016, False
packet, 242, 60, 0, 792.5, 3, 0.086016, False
packet, 263, 283, 0, 795.81, 3, 0.086016, False
packet, 102, 21, 0, 798.41, 6, 0.086016, False
packet, 252, 223, 0, 800.42, 3, 0.086016, False
packet, 266, 238, 0, 802.1, 3, 0.086016, False
packet, 235, 191, 0, 803.78, 4, 0.086016, False
packet, 271, 294, 0, 805.4, 3, 0.086016, False
packet, 125, 153, 0, 807.96, 3, 0.086016, False
packet, 248, 202, 0, 811.13, 3, 0.086016, False
packet, 270, 297, 0, 813.67, 3, 0.086016, False
packet, 261, 216, 0, 817.73, 3, 0.086016, False
packet, 184, 275, 0, 829.68, 5, 0.086016, False
packet, 251, 202, 0, 831.55, 3, 0.086016, False
packet, 198, 180, 0, 837.35, 3, 0.086016, False
packet, 256, 4, 0, 841.47, 3, 0.086016, False
packet, 245, 124, 0, 842.52, 3, 0.086016, False
packet, 255, 102, 0, 844.17, 3, 0.086016, False
packet, 283, 8, 0, 847.58, 3, 0.086016, False
packet, 221, 268, 0, 848.88, 5, 0.086016, False
packet, 207, 275, 0, 850.73, 3, 0.086016, False
packet, 238, 177, 0, 852.22, 5, 0.086016, False
packet, 161, 128, 0, 853.91, 7, 0.086016, False
packet, 277, 281, 0, 856.2, 3, 0.086016, False
packet, 216, 61, 0, 858.63, 3, 0.086016, False
packet, 267, 68, 0, 863.57, 3, 0.086016, False
packet, 257, 234, 0, 865.54, 3, 0.086016, False
packet, 247, 176, 0, 867.48, 3, 0.086016, False
packet, 148, 21, 0, 868.5, 3, 0.086016, False
packet, 290, 156, 0, 870.5, 3, 0.086016, False
packet, 301, 107, 0, 875.2, 3, 0.086016, False
packet, 274, 244, 0, 885.57, 3, 0.086016, False
packet, 253, 55, 0, 890.86, 3, 0.086016, False
packet, 312, 189, 0, 893.05, 3, 0.086016, False
packet, 189, 279, 0, 894.82, 4, 0.086016, False
packet, 298, 91, 0, 896.5, 3, 0.086016, False
packet, 302, 171, 0, 897.72, 3, 0.086016, False
packet, 296, 43, 0, 900.3, 3, 0.086016, False
packet, 143, 140, 0, 904.78, 6, 0.086016, False
packet, 212, 24, 0, 906.35, 4, 0.086016, False
packet, 127, 149, 0, 913.99, 5, 0.086016, False
packet, 285, 104, 0, 915.17, 3, 0.086016, False
packet, 313, 262, 0, 916.72, 3, 0.086016, False
packet, 286, 122, 0, 918.21, 3, 0.086016, False
packet, 152, 134, 0, 921.13, 5, 0.086016, False
packet, 291, 30, 0, 923.39, 3, 0.086016, False
packet, 309, 100, 0, 925.5, 3, 0.086016, False
packet, 295, 8, 0, 932.49, 3, 0.086016, False
packet, 106, 258, 0, 933.46, 6, 0.086016, False
packet, 275, 211, 0, 939.29, 5, 0.086016, False
packet, 218, 166, 0, 941.21, 5, 0.086016, False
packet, 281, 210, 0, 942.86, 3, 0.086016, False
packet, 314, 22, 0, 946.75, 3, 0.086016, False
packet, 320, 48, 0, 948.34, 3, 0.086016, False
packet, 326, 193, 0, 953.27, 3, 0.086016, False
packet, 71, 94, 0, 957.28, 6, 0.086016, False
packet, 188, 231, 0, 959.68, 6, 0.086016, False
packet, 308, 41, 0, 960.62, 3, 0.086016, False
packet, 333, 225, 0, 969.96, 3, 0.086016, False
packet, 288, 55, 0, 975.33, 3, 0.086016, False
packet, 353, 203, 0, 976.35, 3, 0.086016, False
packet, 236, 146, 0, 978.39, 5, 0.086016, False
packet, 352, 81, 0, 982.41, 3, 0.086016, False
packet, 334, 215, 0, 984.19, 3, 0.086016, False
packet, 331, 44, 0, 986.07, 3, 0.086016, False
packet, 341, 212, 0, 988.74, 3, 0.086016, False
packet, 243, 150, 0, 990.76, 5, 0.086016, False
packet, 307, 136, 0, 998.02, 3, 0.086016, False
packet, 269, 133, 0, 1001.37, 6, 0.086016, False
packet, 321, 157, 0, 1002.34, 4, 0.086016, False
packet, 258, 58, 0, 1005.91, 5, 0.086016, False
packet, 231, 29, 0, 1008.42, 7, 0.086016, False
packet, 338, 201, 0, 1009.83, 3, 0.086016, False
packet, 244, 128, 0, 1019.46, 5, 0.086016, False
packet, 349, 216, 0, 1021.23, 3, 0.086016, False
packet, 265, 283, 0, 1027.35, 5, 0.086016, False
packet, 299, 252, 0, 1031.63, 4, 0.086016, False
packet, 369, 210, 0, 1033.02, 3, 0.086016, False
packet, 292, 21, 0, 1034.65, 4, 0.086016, False
packet, 233, 153, 0, 1038.29, 6, 0.086016, False
packet, 219, 255, 0, 1041.44, 5, 0.086016, False
packet, 354, 143, 0, 1046.45, 3, 0.086016, False
packet, 279, 176, 0, 1048.34, 5, 0.086016, False
packet, 319, 25, 0, 1052.37, 5, 0.086016, False
packet, 347, 193, 0, 1054.08, 3, 0.086016, False
packet, 293, 207, 0, 1056.04, 5, 0.086016, False
packet, 367, 47, 0, 1058.01, 3, 0.086016, False
packet, 357, 40, 0, 1059.17, 3, 0.086016, False
packet, 330, 292, 0, 1061.53, 5, 0.086016, False
packet, 297, 177, 0, 1064.4, 5, 0.086016, False
packet, 351, 147, 0, 1065.42, 5, 0.086016, False
packet, 377, 219, 0, 1069.19, 3, 0.086016, False
packet, 220, 181, 0, 1072.41, 6, 0.086016, False
packet, 368, 85, 0, 1079.04, 3, 0.086016, False
packet, 66, 158, 0, 1080.77, 6, 0.086016, False
packet, 305, 23, 0, 1088.17, 4, 0.086016, False
packet, 325, 204, 0, 1089.44, 4, 0.086016, False
packet, 397, 97, 0, 1096.97, 3, 0.086016, False
packet, 345, 290, 0, 1098.28, 3, 0.086016, False
packet, 289, 130, 0, 1100.98, 5, 0.086016, False
packet, 322, 255, 0, 1103.41, 3, 0.086016, False
packet, 383, 44, 0, 1106.6, 3, 0.086016, False
packet, 350, 112, 0, 1107.95, 3, 0.086016, False
packet, 360, 235, 0, 1110.73, 3, 0.086016, False
packet, 391, 156, 0, 1111.73, 3, 0.086016, False
packet, 324, 260, 0, 1118.72, 3, 0.086016, False
packet, 399, 192, 0, 1128.42, 3, 0.086016, False
packet, 401, 232, 0, 1129.92, 3, 0.086016, False
packet, 387, 131, 0, 1130.87, 3, 0.086016, False
packet, 394, 280, 0, 1132.52, 3, 0.086016, False
packet, 304, 227, 0, 1133.95, 5, 0.086016, False
packet, 192, 279, 0, 1135.41, 5, 0.086016, False
packet, 372, 76, 0, 1139.39, 5, 0.086016, False
packet, 284, 198, 0, 1141.13, 4, 0.086016, False
packet, 262, 181, 0, 1142.25, 3, 0.086016, False
packet, 202, 148, 0, 1145.31, 7, 0.086016, False
packet, 393, 258, 0, 1147.71, 3, 0.086016, False
packet, 193, 195, 0, 1152.24, 7, 0.086016, False
packet, 329, 165, 0, 1154.04, 5, 0.086016, False
packet, 339, 36, 0, 1156.23, 5, 0.086016, False
packet, 273, 0, 0, 1159.66, 5, 0.086016, False
packet, 328, 278, 0, 1162.47, 5, 0.086016, False
packet, 342, 177, 0, 1167.03, 3, 0.086016, False
packet, 416, 112, 0, 1169.03, 3, 0.086016, False
packet, 415, 126, 0, 1171.05, 3, 0.086016, False
packet, 402, 172, 0, 1174.59, 3, 0.086016, False
packet, 405, 245, 0, 1176.44, 3, 0.086016, False
packet, 335, 252, 0, 1178.75, 4, 0.086016, True
packet, 409, 251, 0, 1178.79, 3, 0.086016, True
packet, 408, 186, 0, 1183.16, 3, 0.086016, False
packet, 195, 214, 0, 1184.23, 5, 0.086016, False
packet, 371, 250, 0, 1190.75, 4, 0.086016, False
packet, 386, 293, 0, 1193.1, 4, 0.086016, False
packet, 417, 205, 0, 1197.14, 3, 0.086016, False
packet, 359, 204, 0, 1198.35, 3, 0.086016, False
packet, 439, 199, 0, 1199.47, 3, 0.086016, False
packet, 197, 92, 0, 1200.98, 6, 0.086016, False
packet, 403, 237, 0, 1205.56, 5, 0.086016, False
packet, 348, 133, 0, 1206.92, 5, 0.086016, False
packet, 389, 269, 0, 1211.05, 3, 0.086016, False
packet, 428, 275, 0, 1212.6, 3, 0.086016, False
packet, 199, 240, 0, 1213.98, 6, 0.086016, False
packet, 395, 257, 0, 1215.05, 5, 0.086016, False
packet, 378, 70, 0, 1216.91, 3, 0.086016, False
packet, 287, 224, 0, 1231.47, 8, 0.086016, False
packet, 435, 239, 0, 1233.71, 3, 0.086016, False
packet, 433, 53, 0, 1236.6, 3, 0.086016, False
packet, 421, 34, 0, 1237.5, 3, 0.086016, False
packet, 300, 274, 0, 1242.5, 7, 0.086016, False
packet, 400, 267, 0, 1251.63, 5, 0.086016, False
packet, 73, 190, 0, 1255.54, 8, 0.086016, False
packet, 425, 149, 0, 1259.97, 3, 0.086016, False
packet, 455, 177, 0, 1261.14, 3, 0.086016, False
packet, 407, 237, 0, 1262.21, 3, 0.086016, False
packet, 276, 92, 0, 1264.9, 3, 0.086016, False
packet, 337, 153, 0, 1266.61, 5, 0.086016, False
packet, 315, 249, 0, 1269.97, 7, 0.086016, False
packet, 310, 113, 0, 1279.81, 4, 0.086016, False
packet, 457, 170, 0, 1283.05, 3, 0.086016, False
packet, 278, 58, 0, 1284.25, 5, 0.086016, False
packet, 303, 3, 0, 1286.4, 6, 0.086016, False
packet, 382, 67, 0, 1287.45, 4, 0.086016, False
packet, 445, 34, 0, 1288.83, 3, 0.086016, False
packet, 467, 244, 0, 1289.75, 4, 0.086016, False
packet, 431, 50, 0, 1291.43, 4, 0.086016, False
packet, 451, 228, 0, 1292.73, 3, 0.086016, False
packet, 365, 133, 0, 1294.3, 4, 0.086016, False
packet, 418, 237, 0, 1296.75, 3, 0.086016, False
packet, 344, 218, 0, 1299.7, 6, 0.086016, False
packet, 442, 110, 0, 1302.01, 3, 0.086016, False
packet, 185, 134, 0, 1303.0, 6, 0.086016, False
packet, 460, 68, 0, 1304.13, 3, 0.086016, False
packet, 317, 87, 0, 1305.07, 4, 0.086016, False
packet, 470, 243, 0, 1306.43, 3, 0.086016, False
packet, 437, 88, 0, 1307.82, 3, 0.086016, False
packet, 343, 207, 0, 1309.47, 4, 0.086016, False
packet, 466, 19, 0, 1314.17, 3, 0.086016, False
packet, 264, 234, 0, 1319.7, 7, 0.086016, False
packet, 447, 274, 0, 1322.48, 3, 0.086016, False
packet, 422, 4, 0, 1327.21, 3, 0.086016, False
packet, 486, 216, 0, 1331.61, 3, 0.086016, False
packet, 475, 11, 0, 1334.48, 3, 0.086016, False
packet, 332, 174, 0, 1339.07, 4, 0.086016, False
packet, 374, 30, 0, 1341.41, 4, 0.086016, False
packet, 373, 55, 0, 1344.05, 6, 0.086016, False
packet, 396, 3, 0, 1345.61, 3, 0.086016, False
packet, 472, 23, 0, 1346.74, 5, 0.086016, False
packet, 384, 212, 0, 1348.07, 6, 0.086016, False
packet, 355, 99, 0, 1351.09, 5, 0.086016, False
packet, 327, 234, 0, 1353.18, 3, 0.086016, False
packet, 370, 133, 0, 1357.74, 3, 0.086016, False
packet, 483, 90, 0, 1360.09, 3, 0.086016, False
packet, 268, 185, 0, 1363.41, 7, 0.086016, False
packet, 234, 134, 0, 1373.96, 3, 0.086016, False
packet, 390, 160, 0, 1375.7, 6, 0.086016, False
packet, 492, 112, 0, 1379.15, 3, 0.086016, False
packet, 426, 87, 0, 1381.92, 3, 0.086016, False
packet, 488, 52, 0, 1383.34, 3, 0.086016, False
packet, 452, 253, 0, 1384.81, 5, 0.086016, False
packet, 361, 288, 0, 1386.47, 5, 0.086016, False
packet, 508, 261, 0, 1388.17, 3, 0.086016, False
packet, 459, 147, 0, 1390.81, 4, 0.086016, False
packet, 507, 71, 0, 1393.77, 3, 0.086016, False
packet, 454, 213, 0, 1398.17, 5, 0.086016, False
packet, 364, 81, 0, 1401.81, 5, 0.086016, False
packet, 178, 190, 0, 1403.35, 5, 0.086016, False
packet, 518, 293, 0, 1405.36, 3, 0.086016, False
packet, 502, 286, 0, 1407.06, 3, 0.086016, True
packet, 487, 248, 0, 1407.07, 3, 0.086016, True
packet, 458, 7, 0, 1410.1, 3, 0.086016, False
packet, 500, 205, 0, 1416.24, 3, 0.086016, False
packet, 429, 4, 0, 1417.6, 3, 0.086016, False
packet, 230, 63, 0, 1418.65, 5, 0.086016, False
packet, 493, 6, 0, 1422.66, 3, 0.086016, False
packet, 489, 165, 0, 1424.5, 5, 0.086016, False
packet, 358, 197, 0, 1425.64, 7, 0.086016, False
packet, 515, 245, 0, 1427.41, 3, 0.086016, False
packet, 468, 275, 0, 1429.02, 4, 0.086016, False
packet, 420, 203, 0, 1431.29, 5, 0.086016, False
packet, 480, 206, 0, 1433.88, 5, 0.086016, False
packet, 449, 269, 0, 1435.51, 5, 0.086016, False
packet, 511, 147, 0, 1441.26, 3, 0.086016, False
packet, 517, 33, 0, 1447.4, 3, 0.086016, False
packet, 510, 28, 0, 1450.13, 3, 0.086016, False
packet, 478, 92, 0, 1451.14, 4, 0.086016, False
packet, 385, 168, 0, 1455.18, 5, 0.086016, False
packet, 474, 152, 0, 1458.32, 4, 0.086016, False
packet, 481, 201, 0, 1463.75, 4, 0.086016, False
packet, 411, 264, 0, 1471.39, 6, 0.086016, False
packet, 340, 150, 0, 1476.83, 6, 0.086016, False
packet, 388, 42, 0, 1480.64, 6, 0.086016, False
packet, 509, 126, 0, 1481.73, 3, 0.086016, False
packet, 167, 254, 0, 1484.21, 8, 0.086016, False
packet, 545, 45, 0, 1485.61, 3, 0.086016, False
packet, 464, 20, 0, 1493.89, 5, 0.086016, False
packet, 280, 148, 0, 1495.17, 5, 0.086016, False
packet, 521, 128, 0, 1496.43, 3, 0.086016, False
packet, 375, 190, 0, 1499.03, 3, 0.086016, False
packet, 543, 276, 0, 1504.66, 3, 0.086016, False
packet, 535, 256, 0, 1505.64, 3, 0.086016, False
packet, 497, 83, 0, 1506.63, 4, 0.086016, False
packet, 526, 194, 0, 1509.93, 3, 0.086016, False
packet, 506, 203, 0, 1512.25, 3, 0.086016, False
packet, 495, 139, 0, 1513.49, 5, 0.086016, False
packet, 381, 118, 0, 1516.22, 8, 0.086016, False
packet, 410, 197, 0, 1519.33, 3, 0.086016, False
packet, 534, 133, 0, 1520.43, 3, 0.086016, False
packet, 392, 42, 0, 1525.48, 3, 0.086016, False
packet, 532, 264, 0, 1528.88, 3, 0.086016, False
packet, 565, 45, 0, 1532.47, 3, 0.086016, False
packet, 529, 128, 0, 1536.32, 3, 0.086016, False
packet, 346, 39, 0, 1541.86, 6, 0.086016, False
packet, 555, 41, 0, 1546.3, 3, 0.086016, False
packet, 554, 127, 0, 1553.09, 3, 0.086016, False
packet, 469, 72, 0, 1555.06, 6, 0.086016, False
packet, 306, 254, 0, 1556.73, 3, 0.086016, False
packet, 137, 1, 0, 1559.77, 10, 0.086016, False
packet, 547, 12, 0, 1564.31, 3, 0.086016, False
packet, 501, 291, 0, 1571.0, 4, 0.086016, False
packet, 562, 124, 0, 1573.92, 3, 0.086016, False
packet, 376, 234, 0, 1577.62, 5, 0.086016, False
packet, 259, 209, 0, 1580.22, 7, 0.086016, False
packet, 536, 159, 0, 1581.29, 3, 0.086016, False
packet, 559, 13, 0, 1583.28, 3, 0.086016, False
packet, 578, 131, 0, 1586.82, 3, 0.086016, False
packet, 512, 246, 0, 1590.58, 5, 0.086016, False
packet, 406, 114, 0, 1595.15, 6, 0.086016, False
packet, 485, 254, 0, 1596.33, 3, 0.086016, False
packet, 477, 150, 0, 1600.2, 4, 0.086016, False
packet, 550, 83, 0, 1606.29, 3, 0.086016, False
packet, 538, 128, 0, 1620.76, 3, 0.086016, False
packet, 577, 51, 0, 1626.63, 3, 0.086016, False
packet, 574, 115, 0, 1627.65, 3, 0.086016, False
packet, 318, 116, 0, 1631.87, 7, 0.086016, False
packet, 593, 7, 0, 1633.61, 3, 0.086016, False
packet, 583, 283, 0, 1638.48, 3, 0.086016, False
packet, 260, 135, 0, 1641.53, 7, 0.086016, False
packet, 569, 286, 0, 1646.24, 3, 0.086016, False
packet, 548, 226, 0, 1653.51, 4, 0.086016, False
packet, 531, 77, 0, 1655.39, 4, 0.086016, False
packet, 491, 178, 0, 1663.26, 5, 0.086016, False
packet, 272, 56, 0, 1669.58, 7, 0.086016, False
packet, 404, 81, 0, 1676.99, 4, 0.086016, False
packet, 576, 279, 0, 1680.66, 3, 0.086016, False
packet, 615, 37, 0, 1682.32, 3, 0.086016, False
packet, 588, 64, 0, 1683.41, 3, 0.086016, False
packet, 551, 207, 0, 1687.25, 3, 0.086016, False
packet, 600, 159, 0, 1688.9, 3, 0.086016, False
packet, 608, 211, 0, 1690.14, 3, 0.086016, False
packet, 602, 278, 0, 1693.41, 3, 0.086016, False
packet, 591, 60, 0, 1696.82, 3, 0.086016, False
packet, 505, 180, 0, 1704.93, 4, 0.086016, False
packet, 584, 94, 0, 1707.41, 4, 0.086016, False
packet, 519, 243, 0, 1711.18, 5, 0.086016, False
packet, 561, 100, 0, 1712.46, 5, 0.086016, False
packet, 596, 258, 0, 1713.87, 4, 0.086016, False
packet, 604, 115, 0, 1715.19, 3, 0.086016, False
packet, 586, 106, 0, 1716.42, 4, 0.086016, False
packet, 618, 220, 0, 1721.46, 3, 0.086016, False
packet, 610, 139, 0, 1724.63, 3, 0.086016, False
packet, 599, 79, 0, 1725.72, 3, 0.086016, False
packet, 606, 146, 0, 1729.09, 3, 0.086016, False
packet, 621, 191, 0, 1733.35, 3, 0.086016, False
packet, 607, 88, 0, 1734.62, 3, 0.086016, False
packet, 527, 76, 0, 1736.05, 7, 0.086016, False
packet, 619, 178, 0, 1737.32, 3, 0.086016, False
packet, 427, 21, 0, 1738.46, 6, 0.086016, False
packet, 72, 82, 0, 1740.03, 10, 0.086016, False
packet, 567, 100, 0, 1742.91, 3, 0.086016, False
packet, 484, 9, 0, 1747.27, 5, 0.086016, False
packet, 587, 215, 0, 1756.05, 3, 0.086016, False
packet, 585, 254, 0, 1759.7, 5, 0.086016, False
packet, 625, 115, 0, 1763.58, 3, 0.086016, False
packet, 573, 118, 0, 1767.08, 3, 0.086016, False
packet, 456, 237, 0, 1768.81, 5, 0.086016, False
packet, 514, 137, 0, 1770.2, 6, 0.086016, False
packet, 461, 50, 0, 1771.82, 7, 0.086016, False
packet, 597, 231, 0, 1774.44, 4, 0.086016, False
packet, 630, 238, 0, 1776.29, 3, 0.086016, False
packet, 616, 106, 0, 1778.13, 3, 0.086016, False
packet, 571, 226, 0, 1780.49, 5, 0.086016, False
packet, 626, 157, 0, 1786.25, 3, 0.086016, False
packet, 546, 264, 0, 1791.06, 5, 0.086016, False
packet, 623, 101, 0, 1794.79, 3, 0.086016, False
packet, 556, 63, 0, 1796.74, 4, 0.086016, False
packet, 598, 264, 0, 1798.88, 3, 0.086016, False
packet, 631, 207, 0, 1804.5, 3, 0.086016, False
packet, 412, 234, 0, 1807.72, 5, 0.086016, False
packet, 533, 243, 0, 1813.03, 3, 0.086016, False
packet, 613, 60, 0, 1815.36, 4, 0.086016, False
packet, 419, 183, 0, 1818.67, 7, 0.086016, False
packet, 540, 225, 0, 1821.57, 6, 0.086016, False
packet, 648, 203, 0, 1824.58, 3, 0.086016, False
packet, 566, 137, 0, 1827.87, 3, 0.086016, False
packet, 647, 37, 0, 1838.39, 3, 0.086016, False
packet, 530, 261, 0, 1839.41, 5, 0.086016, False
packet, 653, 280, 0, 1840.59, 3, 0.086016, False
packet, 660, 161, 0, 1842.43, 3, 0.086016, False
packet, 444, 84, 0, 1843.84, 6, 0.086016, False
packet, 627, 117, 0, 1844.87, 4, 0.086016, False
packet, 637, 261, 0, 1845.89, 3, 0.086016, False
packet, 652, 292, 0, 1850.83, 3, 0.086016, False
packet, 629, 157, 0, 1852.23, 3, 0.086016, False
packet, 620, 271, 0, 1854.32, 5, 0.086016, False
packet, 659, 269, 0, 1855.53, 3, 0.086016, False
packet, 414, 14, 0, 1857.59, 6, 0.086016, False
packet, 362, 148, 0, 1859.41, 5, 0.086016, False
packet, 462, 50, 0, 1872.98, 3, 0.086016, False
packet, 644, 30, 0, 1875.19, 3, 0.086016, True
packet, 605, 54, 0, 1875.23, 3, 0.086016, True
packet, 633, 107, 0, 1877.21, 5, 0.086016, False
packet, 645, 254, 0, 1878.63, 3, 0.086016, False
packet, 499, 114, 0, 1884.65, 6, 0.086016, False
packet, 557, 225, 0, 1886.15, 3, 0.086016, False
packet, 558, 183, 0, 1888.97, 3, 0.086016, False
packet, 430, 55, 0, 1890.61, 8, 0.086016, False
packet, 638, 189, 0, 1893.3, 5, 0.086016, False
packet, 622, 192, 0, 1896.6, 5, 0.086016, False
packet, 670, 251, 0, 1897.73, 3, 0.086016, False
packet, 665, 186, 0, 1899.05, 3, 0.086016, False
packet, 640, 261, 0, 1900.27, 3, 0.086016, False
packet, 662, 142, 0, 1902.82, 3, 0.086016, False
packet, 661, 271, 0, 1906.25, 3, 0.086016, False
packet, 673, 23, 0, 1908.99, 3, 0.086016, False
packet, 634, 187, 0, 1911.88, 3, 0.086016, False
packet, 524, 55, 0, 1918.39, 3, 0.086016, False
packet, 663, 94, 0, 1921.73, 3, 0.086016, False
packet, 646, 3, 0, 1922.87, 4, 0.086016, False
packet, 681, 13, 0, 1925.75, 3, 0.086016, False
packet, 632, 78, 0, 1929.56, 4, 0.086016, False
packet, 568, 15, 0, 1933.89, 6, 0.086016, False
packet, 669, 228, 0, 1935.64, 3, 0.086016, False
packet, 671, 54, 0, 1937.07, 3, 0.086016, True
packet, 589, 295, 0, 1937.07, 5, 0.086016, True
packet, 614, 299, 0, 1947.74, 4, 0.086016, False
packet, 651, 279, 0, 1955.45, 5, 0.086016, False
packet, 503, 50, 0, 1959.92, 3, 0.086016, False
packet, 544, 114, 0, 1960.96, 3, 0.086016, False
packet, 446, 259, 0, 1962.63, 7, 0.086016, False
packet, 104, 82, 0, 1965.93, 4, 0.086016, False
packet, 680, 112, 0, 1967.1, 3, 0.086016, False
packet, 336, 102, 0, 1968.65, 8, 0.086016, False
packet, 682, 153, 0, 1972.32, 4, 0.086016, False
packet, 691, 203, 0, 1973.32, 3, 0.086016, False
packet, 696, 101, 0, 1979.2, 3, 0.086016, False
packet, 685, 149, 0, 1981.38, 3, 0.086016, False
packet, 563, 291, 0, 1983.32, 5, 0.086016, False
packet, 706, 89, 0, 1985.25, 3, 0.086016, False
packet, 675, 78, 0, 1992.06, 3, 0.086016, False
packet, 684, 42, 0, 1993.88, 5, 0.086016, False
packet, 668, 184, 0, 1995.76, 3, 0.086016, False
packet, 658, 243, 0, 1999.12, 5, 0.086016, False
packet, 542, 21, 0, 2005.43, 5, 0.086016, False
packet, 683, 68, 0, 2007.51, 3, 0.086016, False
packet, 702, 118, 0, 2010.02, 3, 0.086016, False
packet, 434, 46, 0, 2011.86, 7, 0.086016, False
packet, 677, 69, 0, 2013.64, 4, 0.086016, False
packet, 611, 245, 0, 2015.93, 6, 0.086016, False
packet, 708, 11, 0, 2024.16, 3, 0.086016, False
packet, 700, 186, 0, 2025.53, 4, 0.086016, False
packet, 713, 224, 0, 2026.92, 3, 0.086016, False
packet, 695, 217, 0, 2029.93, 3, 0.086016, False
packet, 642, 10, 0, 2035.34, 5, 0.086016, False
packet, 639, 48, 0, 2037.66, 5, 0.086016, False
packet, 595, 50, 0, 2040.5, 3, 0.086016, False
packet, 679, 83, 0, 2044.39, 5, 0.086016, False
packet, 612, 98, 0, 2046.68, 5, 0.086016, False
packet, 697, 54, 0, 2049.58, 3, 0.086016, False
packet, 718, 11, 0, 2054.84, 3, 0.086016, False
packet, 440, 46, 0, 2058.2, 3, 0.086016, False
packet, 443, 249, 0, 2069.87, 7, 0.086016, False
packet, 724, 275, 0, 2080.69, 3, 0.086016, False
packet, 656, 21, 0, 2091.58, 3, 0.086016, False
packet, 727, 242, 0, 2092.86, 3, 0.086016, False
packet, 720, 290, 0, 2096.39, 3, 0.086016, False
packet, 628, 98, 0, 2098.75, 3, 0.086016, False
packet, 726, 90, 0, 2106.1, 3, 0.086016, False
packet, 734, 281, 0, 2109.54, 3, 0.086016, False
packet, 728, 122, 0, 2110.62, 3, 0.086016, False
packet, 448, 249, 0, 2112.99, 3, 0.086016, False
packet, 678, 295, 0, 2114.25, 4, 0.086016, False
packet, 522, 35, 0, 2118.59, 5, 0.086016, False
packet, 732, 266, 0, 2119.94, 3, 0.086016, False
packet, 432, 87, 0, 2123.14, 7, 0.086016, False
packet, 741, 85, 0, 2124.48, 3, 0.086016, False
packet, 424, 49, 0, 2126.85, 6, 0.086016, False
packet, 692, 204, 0, 2132.3, 5, 0.086016, False
packet, 564, 63, 0, 2134.43, 6, 0.086016, False
packet, 83, 222, 0, 2136.86, 12, 0.086016, False
packet, 750, 23, 0, 2138.34, 3, 0.086016, False
packet, 541, 46, 0, 2143.0, 3, 0.086016, True
packet, 731, 25, 0, 2143.02, 3, 0.086016, True
packet, 746, 9, 0, 2144.33, 3, 0.086016, False
packet, 752, 111, 0, 2145.87, 3, 0.086016, False
packet, 654, 38, 0, 2147.27, 5, 0.086016, False
packet, 712, 95, 0, 2149.65, 3, 0.086016, False
packet, 572, 52, 0, 2152.05, 6, 0.086016, False
packet, 730, 60, 0, 2159.69, 3, 0.086016, False
packet, 667, 21, 0, 2161.61, 3, 0.086016, False
packet, 463, 190, 0, 2163.35, 6, 0.086016, False
packet, 709, 20, 0, 2174.33, 4, 0.086016, False
packet, 755, 18, 0, 2176.01, 3, 0.086016, False
packet, 690, 295, 0, 2179.4, 3, 0.086016, False
packet, 516, 148, 0, 2180.51, 7, 0.086016, False
packet, 751, 254, 0, 2183.51, 3, 0.086016, False
packet, 91, 222, 0, 2188.36, 3, 0.086016, False
packet, 520, 8, 0, 2191.19, 6, 0.086016, False
packet, 729, 116, 0, 2192.2, 4, 0.086016, False
packet, 398, 135, 0, 2194.61, 6, 0.086016, False
packet, 711, 295, 0, 2198.86, 3, 0.086016, False
packet, 423, 32, 0, 2204.99, 8, 0.086016, False
packet, 733, 35, 0, 2208.44, 3, 0.086016, False
packet, 777, 284, 0, 2210.0, 3, 0.086016, False
packet, 762, 22, 0, 2212.34, 3, 0.086016, False
packet, 749, 206, 0, 2217.09, 3, 0.086016, False
packet, 776, 11, 0, 2219.02, 3, 0.086016, False
packet, 366, 56, 0, 2223.28, 7, 0.086016, False
packet, 689, 8, 0, 2225.9, 3, 0.086016, False
packet, 772, 107, 0, 2226.99, 3, 0.086016, False
packet, 737, 106, 0, 2231.31, 4, 0.086016, False
packet, 636, 110, 0, 2232.33, 7, 0.086016, False
packet, 624, 80, 0, 2233.57, 7, 0.086016, True
packet, 771, 290, 0, 2233.58, 3, 0.086016, True
packet, 754, 182, 0, 2235.87, 5, 0.086016, False
packet, 775, 5, 0, 2237.91, 3, 0.086016, False
packet, 764, 21, 0, 2239.98, 3, 0.086016, False
packet, 778, 199, 0, 2242.91, 3, 0.086016, False
packet, 723, 184, 0, 2244.0, 5, 0.086016, False
packet, 570, 298, 0, 2250.6, 9, 0.086016, False
packet, 740, 215, 0, 2252.25, 4, 0.086016, False
packet, 773, 126, 0, 2258.97, 3, 0.086016, False
packet, 779, 254, 0, 2260.15, 3, 0.086016, False
packet, 693, 103, 0, 2268.58, 5, 0.086016, False
packet, 765, 121, 0, 2274.65, 5, 0.086016, False
packet, 799, 93, 0, 2281.36, 3, 0.086016, False
packet, 787, 142, 0, 2289.12, 3, 0.086016, False
packet, 757, 267, 0, 2290.97, 3, 0.086016, False
packet, 786, 246, 0, 2294.69, 3, 0.086016, False
packet, 788, 83, 0, 2298.85, 3, 0.086016, False
packet, 609, 195, 0, 2306.41, 8, 0.086016, False
packet, 802, 144, 0, 2308.17, 3, 0.086016, False
packet, 641, 100, 0, 2311.31, 7, 0.086016, False
packet, 686, 49, 0, 2312.4, 5, 0.086016, False
packet, 783, 254, 0, 2318.88, 3, 0.086016, False
packet, 450, 56, 0, 2322.4, 3, 0.086016, False
packet, 790, 203, 0, 2325.74, 3, 0.086016, False
packet, 743, 228, 0, 2330.23, 6, 0.086016, False
packet, 796, 21, 0, 2331.58, 3, 0.086016, False
packet, 810, 238, 0, 2333.41, 3, 0.086016, False
packet, 747, 80, 0, 2336.17, 3, 0.086016, False
packet, 745, 185, 0, 2337.32, 5, 0.086016, False
packet, 549, 148, 0, 2338.7, 6, 0.086016, False
packet, 792, 15, 0, 2339.74, 3, 0.086016, False
packet, 836, 95, 0, 2343.37, 3, 0.086016, False
packet, 814, 194, 0, 2346.41, 3, 0.086016, False
packet, 807, 267, 0, 2348.34, 3, 0.086016, False
packet, 818, 138, 0, 2354.5, 3, 0.086016, False
packet, 782, 26, 0, 2355.9, 3, 0.086016, False
packet, 179, 145, 0, 2358.54, 10, 0.086016, False
packet, 650, 100, 0, 2362.28, 3, 0.086016, False
packet, 768, 101, 0, 2364.05, 4, 0.086016, False
packet, 504, 32, 0, 2370.73, 4, 0.086016, False
packet, 789, 270, 0, 2372.14, 3, 0.086016, False
packet, 147, 123, 0, 2377.2, 10, 0.086016, False
packet, 761, 186, 0, 2381.83, 6, 0.086016, False
packet, 784, 66, 0, 2382.94, 5, 0.086016, False
packet, 803, 181, 0, 2384.85, 3, 0.086016, False
packet, 719, 216, 0, 2388.5, 7, 0.086016, False
packet, 816, 35, 0, 2389.62, 3, 0.086016, False
packet, 827, 152, 0, 2391.8, 3, 0.086016, False
packet, 798, 289, 0, 2395.39, 5, 0.086016, False
packet, 767, 123, 0, 2404.24, 3, 0.086016, False
packet, 831, 55, 0, 2405.3, 3, 0.086016, False
packet, 852, 13, 0, 2406.42, 3, 0.086016, False
packet, 851, 18, 0, 2408.98, 3, 0.086016, False
packet, 838, 47, 0, 2417.79, 3, 0.086016, False
packet, 666, 188, 0, 2419.45, 7, 0.086016, False
packet, 820, 119, 0, 2421.37, 4, 0.086016, False
packet, 579, 40, 0, 2423.08, 6, 0.086016, False
packet, 781, 256, 0, 2428.12, 5, 0.086016, False
packet, 832, 143, 0, 2429.37, 3, 0.086016, False
packet, 856, 92, 0, 2435.99, 3, 0.086016, False
packet, 861, 77, 0, 2446.22, 3, 0.086016, False
packet, 826, 262, 0, 2449.31, 4, 0.086016, False
packet, 830, 216, 0, 2451.37, 3, 0.086016, False
packet, 847, 299, 0, 2452.74, 3, 0.086016, False
packet, 855, 104, 0, 2454.94, 3, 0.086016, False
packet, 240, 145, 0, 2456.05, 3, 0.086016, False
packet, 811, 254, 0, 2457.4, 4, 0.086016, False
packet, 829, 241, 0, 2460.56, 3, 0.086016, False
packet, 672, 134, 0, 2462.42, 5, 0.086016, False
packet, 834, 28, 0, 2465.46, 3, 0.086016, False
packet, 655, 72, 0, 2467.39, 8, 0.086016, False
packet, 819, 10, 0, 2469.17, 3, 0.086016, False
packet, 824, 131, 0, 2471.02, 4, 0.086016, False
packet, 800, 219, 0, 2472.9, 5, 0.086016, False
packet, 748, 281, 0, 2474.57, 7, 0.086016, False
packet, 795, 91, 0, 2476.16, 5, 0.086016, False
packet, 869, 95, 0, 2477.13, 3, 0.086016, False
packet, 880, 169, 0, 2483.67, 3, 0.086016, False
packet, 822, 7, 0, 2485.69, 3, 0.086016, False
packet, 739, 188, 0, 2486.86, 3, 0.086016, False
packet, 356, 145, 0, 2490.95, 3, 0.086016, False
packet, 744, 72, 0, 2493.74, 3, 0.086016, False
packet, 859, 110, 0, 2496.81, 3, 0.086016, False
packet, 770, 54, 0, 2498.07, 5, 0.086016, False
packet, 874, 174, 0, 2505.77, 3, 0.086016, False
packet, 643, 249, 0, 2507.14, 6, 0.086016, False
packet, 465, 197, 0, 2510.22, 9, 0.086016, False
packet, 846, 115, 0, 2513.13, 4, 0.086016, False
packet, 674, 100, 0, 2516.82, 4, 0.086016, False
packet, 878, 258, 0, 2519.43, 3, 0.086016, False
packet, 201, 141, 0, 2523.13, 10, 0.086016, False
packet, 801, 232, 0, 2527.52, 5, 0.086016, False
packet, 774, 192, 0, 2532.95, 6, 0.086016, False
packet, 843, 51, 0, 2534.81, 4, 0.086016, False
packet, 896, 78, 0, 2535.8, 3, 0.086016, False
packet, 844, 235, 0, 2537.44, 3, 0.086016, False
packet, 897, 263, 0, 2540.27, 3, 0.086016, False
packet, 842, 179, 0, 2542.92, 5, 0.086016, False
packet, 582, 260, 0, 2555.76, 6, 0.086016, False
packet, 849, 248, 0, 2558.41, 3, 0.086016, False
packet, 537, 221, 0, 2563.56, 8, 0.086016, False
packet, 841, 15, 0, 2567.84, 6, 0.086016, False
packet, 898, 295, 0, 2571.37, 3, 0.086016, False
packet, 759, 237, 0, 2572.81, 5, 0.086016, False
packet, 676, 100, 0, 2578.95, 3, 0.086016, False
packet, 473, 56, 0, 2580.71, 6, 0.086016, False
packet, 866, 22, 0, 2585.42, 3, 0.086016, False
packet, 553, 12, 0, 2586.8, 8, 0.086016, False
packet, 867, 156, 0, 2591.24, 5, 0.086016, False
packet, 815, 236, 0, 2593.53, 5, 0.086016, False
packet, 910, 295, 0, 2595.73, 3, 0.086016, False
packet, 701, 62, 0, 2596.78, 5, 0.086016, False
packet, 471, 145, 0, 2598.83, 5, 0.086016, False
packet, 241, 140, 0, 2600.03, 8, 0.086016, False
packet, 888, 117, 0, 2602.77, 3, 0.086016, False
packet, 908, 215, 0, 2605.13, 3, 0.086016, False
packet, 853, 108, 0, 2607.25, 5, 0.086016, False
packet, 886, 99, 0, 2609.99, 3, 0.086016, False
packet, 889, 110, 0, 2610.89, 4, 0.086016, False
packet, 742, 150, 0, 2616.51, 6, 0.086016, False
packet, 925, 255, 0, 2622.58, 3, 0.086016, False
packet, 809, 192, 0, 2625.55, 3, 0.086016, False
packet, 919, 203, 0, 2627.19, 3, 0.086016, False
packet, 905, 51, 0, 2629.44, 3, 0.086016, False
packet, 914, 124, 0, 2630.59, 3, 0.086016, False
packet, 872, 195, 0, 2634.42, 4, 0.086016, False
packet, 904, 119, 0, 2635.63, 3, 0.086016, False
packet, 211, 16, 0, 2636.67, 10, 0.086016, False
packet, 917, 107, 0, 2642.2, 4, 0.086016, False
packet, 892, 210, 0, 2644.91, 4, 0.086016, False
packet, 857, 279, 0, 2646.11, 4, 0.086016, False
packet, 311, 61, 0, 2647.22, 12, 0.086016, False
packet, 864, 159, 0, 2653.41, 5, 0.086016, False
packet, 894, 232, 0, 2654.93, 4, 0.086016, False
packet, 525, 250, 0, 2655.9, 7, 0.086016, False
packet, 911, 172, 0, 2657.36, 3, 0.086016, False
packet, 918, 26, 0, 2658.64, 3, 0.086016, False
packet, 883, 36, 0, 2659.61, 4, 0.086016, False
packet, 850, 111, 0, 2662.52, 4, 0.086016, False
packet, 940, 112, 0, 2664.33, 3, 0.086016, False
packet, 862, 34, 0, 2668.65, 5, 0.086016, False
packet, 929, 241, 0, 2670.57, 3, 0.086016, False
packet, 316, 61, 0, 2673.33, 3, 0.086016, False
packet, 873, 25, 0, 2674.75, 5, 0.086016, False
packet, 758, 56, 0, 2677.22, 3, 0.086016, False
packet, 170, 296, 0, 2679.47, 12, 0.086016, False
packet, 791, 190, 0, 2682.58, 6, 0.086016, False
packet, 881, 212, 0, 2685.13, 4, 0.086016, False
packet, 875, 145, 0, 2687.87, 3, 0.086016, False
packet, 926, 219, 0, 2695.38, 3, 0.086016, False
packet, 804, 280, 0, 2703.85, 6, 0.086016, False
packet, 865, 251, 0, 2705.06, 4, 0.086016, False
packet, 380, 141, 0, 2710.71, 4, 0.086016, False
packet, 438, 167, 0, 2712.83, 9, 0.086016, False
packet, 912, 295, 0, 2716.09, 4, 0.086016, False
packet, 923, 268, 0, 2718.52, 3, 0.086016, False
packet, 933, 13, 0, 2720.82, 3, 0.086016, False
packet, 845, 61, 0, 2722.52, 3, 0.086016, False
packet, 922, 136, 0, 2727.08, 4, 0.086016, False
packet, 813, 127, 0, 2731.81, 6, 0.086016, False
packet, 931, 299, 0, 2733.94, 3, 0.086016, False
packet, 694, 100, 0, 2738.22, 4, 0.086016, False
packet, 948, 95, 0, 2744.9, 4, 0.086016, False
packet, 958, 170, 0, 2746.28, 3, 0.086016, False
packet, 870, 284, 0, 2748.13, 6, 0.086016, False
packet, 935, 71, 0, 2750.83, 3, 0.086016, False
packet, 968, 270, 0, 2752.2, 3, 0.086016, False
packet, 954, 126, 0, 2754.36, 3, 0.086016, False
packet, 858, 89, 0, 2755.71, 6, 0.086016, False
packet, 971, 26, 0, 2756.93, 3, 0.086016, False
packet, 835, 90, 0, 2761.71, 7, 0.086016, False
packet, 722, 88, 0, 2764.25, 5, 0.086016, False
packet, 876, 145, 0, 2765.7, 3, 0.086016, False
packet, 821, 278, 0, 2768.19, 6, 0.086016, False
packet, 950, 36, 0, 2770.29, 3, 0.086016, False
packet, 927, 179, 0, 2773.21, 6, 0.086016, False
packet, 721, 94, 0, 2777.07, 8, 0.086016, False
packet, 893, 156, 0, 2785.79, 5, 0.086016, False
packet, 928, 210, 0, 2788.58, 4, 0.086016, False
packet, 913, 48, 0, 2789.82, 4, 0.086016, False
packet, 899, 262, 0, 2791.61, 5, 0.086016, False
packet, 947, 282, 0, 2795.36, 5, 0.086016, False
packet, 909, 199, 0, 2796.92, 4, 0.086016, False
packet, 973, 2, 0, 2798.79, 3, 0.086016, False
packet, 972, 298, 0, 2802.52, 3, 0.086016, False
packet, 938, 165, 0, 2803.75, 5, 0.086016, False
packet, 941, 97, 0, 2805.46, 5, 0.086016, False
packet, 920, 180, 0, 2808.39, 4, 0.086016, False
packet, 965, 108, 0, 2809.74, 3, 0.086016, False
packet, 441, 141, 0, 2811.2, 3, 0.086016, False
packet, 956, 127, 0, 2812.97, 3, 0.086016, False
packet, 601, 40, 0, 2825.7, 6, 0.086016, False
packet, 882, 190, 0, 2833.12, 4, 0.086016, False
packet, 937, 18, 0, 2834.32, 4, 0.086016, False
packet, 877, 185, 0, 2836.2, 6, 0.086016, False
packet, 921, 290, 0, 2840.51, 5, 0.086016, False
packet, 962, 28, 0, 2842.53, 4, 0.086016, False
packet, 756, 157, 0, 2845.38, 5, 0.086016, False
packet, 735, 88, 0, 2848.18, 3, 0.086016, True
packet, 854, 133, 0, 2848.22, 7, 0.086016, True
packet, 970, 126, 0, 2849.66, 3, 0.086016, False
packet, 977, 145, 0, 2851.49, 3, 0.086016, False
packet, 991, 135, 0, 2858.37, 3, 0.086016, False
packet, 839, 231, 0, 2860.91, 6, 0.086016, False
packet, 785, 17, 0, 2866.73, 7, 0.086016, False
packet, 989, 254, 0, 2867.86, 3, 0.086016, False
packet, 1008, 9, 0, 2872.13, 3, 0.086016, False
packet, 944, 262, 0, 2873.63, 3, 0.086016, False
packet, 902, 34, 0, 2877.56, 5, 0.086016, False
packet, 930, 157, 0, 2880.37, 3, 0.086016, False
packet, 1002, 55, 0, 2884.16, 3, 0.086016, False
packet, 945, 124, 0, 2885.72, 5, 0.086016, False
packet, 1000, 272, 0, 2888.54, 3, 0.086016, False
packet, 960, 277, 0, 2892.31, 4, 0.086016, False
packet, 984, 89, 0, 2894.06, 5, 0.086016, False
packet, 990, 62, 0, 2895.02, 3, 0.086016, False
packet, 1012, 90, 0, 2896.4, 3, 0.086016, False
packet, 978, 45, 0, 2898.33, 3, 0.086016, False
packet, 887, 17, 0, 2900.67, 3, 0.086016, False
packet, 993, 174, 0, 2904.21, 3, 0.086016, False
packet, 794, 230, 0, 2908.26, 6, 0.086016, False
packet, 982, 205, 0, 2909.31, 4, 0.086016, False
packet, 906, 274, 0, 2913.6, 4, 0.086016, False
packet, 812, 168, 0, 2914.91, 7, 0.086016, False
packet, 963, 122, 0, 2919.08, 5, 0.086016, False
packet, 979, 152, 0, 2921.44, 3, 0.086016, False
packet, 1017, 216, 0, 2936.28, 3, 0.086016, False
packet, 1006, 47, 0, 2939.54, 5, 0.086016, False
packet, 1009, 262, 0, 2942.7, 4, 0.086016, False
packet, 1015, 90, 0, 2947.06, 3, 0.086016, False
packet, 1036, 244, 0, 2954.44, 3, 0.086016, False
packet, 1003, 130, 0, 2958.05, 5, 0.086016, False
packet, 953, 241, 0, 2959.17, 5, 0.086016, False
packet, 1023, 177, 0, 2962.35, 3, 0.086016, False
packet, 1031, 83, 0, 2963.73, 3, 0.086016, False
packet, 915, 99, 0, 2966.33, 6, 0.086016, False
packet, 995, 278, 0, 2969.84, 4, 0.086016, False
packet, 994, 25, 0, 2974.16, 4, 0.086016, False
packet, 996, 145, 0, 2975.99, 4, 0.086016, False
packet, 999, 129, 0, 2986.21, 4, 0.086016, False
packet, 895, 167, 0, 2987.11, 5, 0.086016, False
packet, 1026, 224, 0, 2992.52, 3, 0.086016, False
packet, 1028, 245, 0, 2995.46, 3, 0.086016, False
packet, 1034, 39, 0, 2996.86, 3, 0.086016, False
packet, 916, 66, 0, 2998.4, 4, 0.086016, False
packet, 976, 116, 0, 2999.52, 5, 0.086016, False
packet, 635, 98, 0, 3000.5, 9, 0.086016, False
packet, 1033, 282, 0, 3006.23, 3, 0.086016, False
packet, 860, 168, 0, 3008.3, 3, 0.086016, False
packet, 1007, 210, 0, 3013.61, 5, 0.086016, False
packet, 808, 40, 0, 3024.2, 4, 0.086016, True
packet, 1064, 46, 0, 3024.22, 3, 0.086016, True
packet, 1053, 167, 0, 3025.13, 3, 0.086016, False
packet, 1032, 261, 0, 3029.68, 3, 0.086016, False
packet, 986, 122, 0, 3033.88, 3, 0.086016, False
packet, 998, 99, 0, 3038.45, 3, 0.086016, False
packet, 961, 241, 0, 3039.85, 3, 0.086016, False
packet, 1059, 7, 0, 3042.76, 3, 0.086016, False
packet, 1049, 194, 0, 3044.99, 3, 0.086016, False
packet, 1060, 186, 0, 3046.89, 3, 0.086016, False
packet, 997, 71, 0, 3047.8, 4, 0.086016, False
packet, 1037, 246, 0, 3050.33, 5, 0.086016, False
packet, 980, 102, 0, 3051.31, 5, 0.086016, False
packet, 1030, 43, 0, 3052.76, 4, 0.086016, False
packet, 1063, 231, 0, 3053.85, 3, 0.086016, False
packet, 1075, 161, 0, 3055.82, 3, 0.086016, False
packet, 1045, 262, 0, 3060.68, 3, 0.086016, False
packet, 1074, 251, 0, 3063.5, 3, 0.086016, False
packet, 736, 29, 0, 3068.02, 8, 0.086016, False
packet, 959, 131, 0, 3070.82, 6, 0.086016, False
packet, 699, 52, 0, 3072.21, 7, 0.086016, False
packet, 1018, 221, 0, 3073.42, 5, 0.086016, False
packet, 1073, 253, 0, 3078.25, 3, 0.086016, False
packet, 1052, 162, 0, 3083.06, 3, 0.086016, False
packet, 1016, 197, 0, 3084.51, 4, 0.086016, False
packet, 987, 277, 0, 3086.97, 4, 0.086016, False
packet, 890, 81, 0, 3090.02, 8, 0.086016, False
packet, 932, 236, 0, 3091.69, 5, 0.086016, True
packet, 1071, 171, 0, 3091.71, 3, 0.086016, True
packet, 1058, 204, 0, 3092.67, 3, 0.086016, False
packet, 901, 133, 0, 3094.23, 5, 0.086016, False
packet, 943, 66, 0, 3095.28, 3, 0.086016, False
packet, 1082, 124, 0, 3096.55, 3, 0.086016, False
packet, 1083, 158, 0, 3102.77, 3, 0.086016, False
packet, 1086, 275, 0, 3105.11, 3, 0.086016, False
packet, 1044, 99, 0, 3110.84, 3, 0.086016, False
packet, 967, 133, 0, 3113.8, 3, 0.086016, False
packet, 1092, 117, 0, 3114.78, 3, 0.086016, False
packet, 580, 154, 0, 3116.84, 8, 0.086016, False
packet, 1093, 5, 0, 3119.71, 3, 0.086016, False
packet, 1062, 286, 0, 3121.61, 5, 0.086016, False
packet, 833, 192, 0, 3123.86, 6, 0.086016, False
packet, 1081, 110, 0, 3126.67, 3, 0.086016, False
packet, 1072, 272, 0, 3132.0, 3, 0.086016, False
packet, 1022, 72, 0, 3135.05, 4, 0.086016, False
packet, 1076, 299, 0, 3136.95, 3, 0.086016, False
packet, 848, 230, 0, 3142.18, 5, 0.086016, False
packet, 1090, 33, 0, 3143.44, 3, 0.086016, False
packet, 1066, 217, 0, 3147.4, 3, 0.086016, False
packet, 1104, 16, 0, 3149.71, 3, 0.086016, False
packet, 1038, 221, 0, 3153.13, 3, 0.086016, False
packet, 1102, 170, 0, 3154.23, 3, 0.086016, False
packet, 1004, 290, 0, 3157.98, 6, 0.086016, False
packet, 1069, 40, 0, 3163.86, 5, 0.086016, False
packet, 1056, 99, 0, 3165.64, 3, 0.086016, False
packet, 952, 66, 0, 3167.21, 3, 0.086016, False
packet, 714, 141, 0, 3170.64, 6, 0.086016, False
packet, 992, 277, 0, 3173.52, 3, 0.086016, False
packet, 1116, 173, 0, 3174.42, 3, 0.086016, False
packet, 1091, 20, 0, 3175.59, 3, 0.086016, True
packet, 1078, 101, 0, 3175.6, 3, 0.086016, True
packet, 1048, 145, 0, 3177.32, 5, 0.086016, False
packet, 1097, 5, 0, 3179.84, 3, 0.086016, False
packet, 1067, 260, 0, 3181.21, 5, 0.086016, False
packet, 1025, 192, 0, 3184.2, 3, 0.086016, False
packet, 1106, 268, 0, 3186.56, 3, 0.086016, False
packet, 1126, 292, 0, 3190.11, 3, 0.086016, False
packet, 1040, 79, 0, 3193.52, 5, 0.086016, False
packet, 1105, 167, 0, 3195.67, 3, 0.086016, False
packet, 1050, 111, 0, 3200.95, 4, 0.086016, False
packet, 797, 139, 0, 3208.91, 9, 0.086016, False
packet, 1095, 69, 0, 3213.78, 4, 0.086016, False
packet, 1094, 188, 0, 3215.3, 4, 0.086016, False
packet, 1070, 111, 0, 3220.77, 3, 0.086016, False
packet, 975, 38, 0, 3222.39, 6, 0.086016, False
packet, 939, 181, 0, 3231.35, 5, 0.086016, False
packet, 1133, 252, 0, 3232.95, 3, 0.086016, False
packet, 1125, 128, 0, 3235.84, 3, 0.086016, False
packet, 1021, 91, 0, 3238.0, 6, 0.086016, False
packet, 1113, 260, 0, 3239.69, 3, 0.086016, False
packet, 981, 294, 0, 3241.55, 6, 0.086016, False
packet, 1119, 268, 0, 3242.66, 3, 0.086016, False
packet, 1042, 210, 0, 3246.72, 4, 0.086016, False
packet, 1121, 68, 0, 3248.69, 3, 0.086016, False
packet, 453, 198, 0, 3249.99, 10, 0.086016, False
packet, 1088, 227, 0, 3251.7, 5, 0.086016, False
packet, 496, 222, 0, 3253.79, 8, 0.086016, False
packet, 1132, 230, 0, 3255.64, 3, 0.086016, False
packet, 1108, 293, 0, 3256.66, 4, 0.086016, False
packet, 1041, 102, 0, 3259.02, 4, 0.086016, False
packet, 1111, 116, 0, 3272.57, 4, 0.086016, False
packet, 1144, 241, 0, 3273.67, 3, 0.086016, False
packet, 1101, 160, 0, 3276.23, 4, 0.086016, False
packet, 863, 139, 0, 3280.51, 3, 0.086016, False
packet, 1098, 186, 0, 3282.43, 4, 0.086016, False
packet, 1109, 138, 0, 3283.91, 4, 0.086016, False
packet, 1087, 239, 0, 3287.79, 5, 0.086016, False
packet, 494, 198, 0, 3289.72, 3, 0.086016, False
packet, 1020, 135, 0, 3290.8, 7, 0.086016, False
packet, 1085, 280, 0, 3291.78, 4, 0.086016, False
packet, 1145, 236, 0, 3302.43, 3, 0.086016, False
packet, 769, 52, 0, 3303.38, 6, 0.086016, False
packet, 1118, 22, 0, 3304.51, 3, 0.086016, False
packet, 196, 57, 0, 3307.7, 9, 0.086016, False
packet, 1011, 189, 0, 3313.16, 4, 0.086016, False
packet, 1158, 122, 0, 3315.54, 3, 0.086016, False
packet, 1107, 148, 0, 3317.73, 5, 0.086016, False
packet, 590, 41, 0, 3319.47, 9, 0.086016, False
packet, 1146, 130, 0, 3327.29, 3, 0.086016, False
packet, 1103, 186, 0, 3331.38, 3, 0.086016, False
packet, 1114, 45, 0, 3334.44, 5, 0.086016, False
packet, 1153, 88, 0, 3335.42, 3, 0.086016, False
packet, 1166, 281, 0, 3337.25, 3, 0.086016, False
packet, 1029, 287, 0, 3341.18, 5, 0.086016, False
packet, 891, 81, 0, 3343.88, 5, 0.086016, False
packet, 1180, 170, 0, 3347.17, 3, 0.086016, False
packet, 1134, 148, 0, 3349.0, 3, 0.086016, False
packet, 1177, 281, 0, 3352.99, 3, 0.086016, False
packet, 1019, 189, 0, 3358.79, 3, 0.086016, False
packet, 1157, 105, 0, 3362.14, 3, 0.086016, False
packet, 1181, 286, 0, 3365.58, 3, 0.086016, False
packet, 1152, 284, 0, 3370.24, 3, 0.086016, False
packet, 885, 77, 0, 3374.47, 8, 0.086016, False
packet, 1124, 239, 0, 3379.45, 4, 0.086016, False
packet, 1188, 89, 0, 3382.06, 3, 0.086016, False
packet, 1127, 229, 0, 3383.21, 5, 0.086016, False
packet, 1061, 189, 0, 3384.55, 3, 0.086016, False
packet, 688, 146, 0, 3386.94, 9, 0.086016, False
packet, 1128, 160, 0, 3388.26, 4, 0.086016, False
packet, 1117, 46, 0, 3389.98, 4, 0.086016, False
packet, 1163, 200, 0, 3395.54, 3, 0.086016, False
packet, 805, 41, 0, 3397.28, 3, 0.086016, False
packet, 1178, 184, 0, 3400.67, 3, 0.086016, False
packet, 1200, 190, 0, 3403.96, 3, 0.086016, False
packet, 1192, 235, 0, 3404.98, 3, 0.086016, False
packet, 1172, 167, 0, 3408.96, 3, 0.086016, False
packet, 1129, 48, 0, 3412.28, 3, 0.086016, False
packet, 560, 222, 0, 3414.95, 4, 0.086016, False
packet, 1130, 45, 0, 3418.91, 3, 0.086016, False
packet, 924, 168, 0, 3420.99, 7, 0.086016, False
packet, 1174, 33, 0, 3426.54, 3, 0.086016, False
packet, 1205, 215, 0, 3430.22, 3, 0.086016, False
packet, 1142, 169, 0, 3435.75, 4, 0.086016, False
packet, 946, 77, 0, 3437.94, 3, 0.086016, False
packet, 1096, 290, 0, 3439.21, 7, 0.086016, False
packet, 1054, 181, 0, 3441.83, 5, 0.086016, False
packet, 1190, 96, 0, 3444.74, 3, 0.086016, False
packet, 1140, 245, 0, 3446.0, 4, 0.086016, False
packet, 1164, 298, 0, 3450.56, 4, 0.086016, False
packet, 1013, 38, 0, 3453.16, 4, 0.086016, False
packet, 1215, 172, 0, 3456.2, 3, 0.086016, False
packet, 1138, 2, 0, 3458.47, 5, 0.086016, False
packet, 1184, 149, 0, 3461.96, 4, 0.086016, False
packet, 1202, 107, 0, 3469.05, 3, 0.086016, False
packet, 1046, 137, 0, 3473.41, 6, 0.086016, False
packet, 1209, 38, 0, 3476.84, 3, 0.086016, False
packet, 1195, 16, 0, 3479.1, 3, 0.086016, False
packet, 1137, 222, 0, 3480.65, 3, 0.086016, False
packet, 1196, 26, 0, 3482.06, 3, 0.086016, False
packet, 1208, 216, 0, 3487.73, 3, 0.086016, False
packet, 1171, 87, 0, 3491.41, 4, 0.086016, False
packet, 1232, 270, 0, 3492.72, 3, 0.086016, False
packet, 1213, 111, 0, 3493.72, 3, 0.086016, False
packet, 1176, 229, 0, 3495.38, 5, 0.086016, False
packet, 1222, 275, 0, 3499.41, 3, 0.086016, False
packet, 1156, 290, 0, 3501.73, 3, 0.086016, False
packet, 1204, 124, 0, 3506.95, 3, 0.086016, False
packet, 1218, 130, 0, 3511.17, 3, 0.086016, False
packet, 969, 208, 0, 3513.14, 6, 0.086016, False
packet, 1189, 260, 0, 3516.68, 5, 0.086016, True
packet, 1214, 107, 0, 3516.69, 3, 0.086016, True
packet, 1165, 261, 0, 3520.51, 4, 0.086016, False
packet, 1123, 218, 0, 3521.48, 5, 0.086016, False
packet, 934, 119, 0, 3522.84, 7, 0.086016, False
packet, 1084, 137, 0, 3524.97, 3, 0.086016, False
packet, 1228, 287, 0, 3530.12, 3, 0.086016, False
packet, 1229, 17, 0, 3533.88, 3, 0.086016, False
packet, 294, 57, 0, 3538.57, 6, 0.086016, False
packet, 1199, 23, 0, 3541.56, 4, 0.086016, False
packet, 1230, 239, 0, 3545.09, 3, 0.086016, False
packet, 1220, 50, 0, 3546.75, 3, 0.086016, False
packet, 1147, 46, 0, 3550.99, 5, 0.086016, False
packet, 942, 100, 0, 3552.26, 9, 0.086016, False
packet, 1231, 151, 0, 3554.26, 3, 0.086016, False
packet, 1223, 199, 0, 3556.79, 3, 0.086016, False
packet, 523, 175, 0, 3557.95, 8, 0.086016, False
packet, 868, 56, 0, 3565.65, 7, 0.086016, False
packet, 1227, 114, 0, 3570.8, 3, 0.086016, False
packet, 1210, 205, 0, 3574.31, 3, 0.086016, False
packet, 687, 98, 0, 3575.94, 7, 0.086016, False
packet, 1243, 183, 0, 3578.52, 3, 0.086016, False
packet, 603, 175, 0, 3580.1, 3, 0.086016, False
packet, 1211, 26, 0, 3581.27, 3, 0.086016, False
packet, 1254, 194, 0, 3584.51, 3, 0.086016, False
packet, 1161, 117, 0, 3585.7, 4, 0.086016, False
packet, 1169, 160, 0, 3589.29, 5, 0.086016, False
packet, 1175, 267, 0, 3591.35, 5, 0.086016, False
packet, 1100, 273, 0, 3595.04, 4, 0.086016, False
c_packet, 1096, 4370, 28, 97.445%

sensor, 0, 1, 0, 1, 0, 0, 0, 0, 0
sensor, 1, 1, 0, 1, 0, 0, 0, 0, 0
sensor, 2, 3, 0, 3, 0, 0, 0, 0, 0
sensor, 3, 3, 0, 3, 0, 0, 0, 0, 0
sensor, 4, 3, 0, 3, 0, 0, 0, 0, 0
sensor, 5, 4, 0, 4, 0, 0, 0, 0, 0
sensor, 6, 3, 2, 1, 0, 0, 0, 0, 0
sensor, 7, 6, 0, 6, 0, 0, 0, 0, 0
sensor, 8, 4, 0, 4, 0, 0, 0, 0, 0
sensor, 9, 4, 0, 4, 0, 0, 0, 0, 0
sensor, 10, 2, 0, 2, 0, 0, 0, 0, 0
sensor, 11, 4, 0, 4, 0, 0, 0, 0, 0
sensor, 12, 2, 0, 2, 0, 0, 0, 0, 0
sensor, 13, 5, 0, 5, 0, 0, 0, 0, 0
sensor, 14, 3, 0, 3, 0, 0, 0, 0, 0
sensor, 15, 6, 1, 5, 0, 0, 0, 0, 0
sensor, 16, 3, 0, 3, 0, 0, 0, 0, 0
sensor, 17, 3, 0, 3, 0, 0, 0, 0, 0
sensor, 18, 3, 0, 3, 0, 0, 0, 0, 0
sensor, 19, 2, 0, 2, 0, 0, 0, 0, 0
sensor, 20, 3, 0, 3, 0, 0, 0, 0, 0
sensor, 21, 9, 0, 9, 0, 0, 0, 0, 0
sensor, 22, 7, 1, 6, 0, 0, 0, 0, 0
sensor, 23, 6, 0, 6, 0, 0, 0, 0, 0
sensor, 24, 3, 0, 3, 0, 0, 0, 0, 0
sensor, 25, 4, 0, 4, 0, 0, 0, 0, 0
sensor, 26, 8, 0, 8, 0, 0, 0, 0, 0
sensor, 27, 1, 0, 1, 0, 0, 0, 0, 0
sensor, 28, 3, 0, 3, 0, 0, 0, 0, 0
sensor, 29, 5, 2, 3, 0, 0, 0, 0, 0
sensor, 30, 8, 3, 5, 0, 0, 0, 0, 0
sensor, 31, 3, 3, 0, 0, 0, 0, 0, 0
sensor, 32, 4, 2, 2, 0, 0, 0, 0, 0
sensor, 33, 3, 0, 3, 0, 0, 0, 0, 0
sensor, 34, 4, 0, 4, 0, 0, 0, 0, 0
sensor, 35, 3, 0, 3, 0, 0, 0, 0, 0
sensor, 36, 3, 0, 3, 0, 0, 0, 0, 0
sensor, 37, 3, 0, 3, 0, 0, 0, 0, 0
sensor, 38, 5, 0, 5, 0, 0, 0, 0, 0
sensor, 39, 3, 0, 3, 0, 0, 0, 0, 0
sensor, 40, 6, 0, 6, 0, 0, 0, 0, 0
sensor, 41, 7, 2, 5, 0, 0, 0, 0, 0
sensor, 42, 3, 0, 3, 0, 0, 0, 0, 0
sensor, 43, 2, 0, 2, 0, 0, 0, 0, 0
sensor, 44, 4, 0, 4, 0, 0, 0, 0, 0
sensor, 45, 5, 0, 5, 0, 0, 0, 0, 0
sensor, 46, 6, 0, 6, 0, 0, 0, 0, 0
sensor, 47, 5, 1, 4, 0, 0, 0, 0, 0
sensor, 48, 4, 0, 4, 0, 0, 0, 0, 0
sensor, 49, 3, 1, 2, 0, 0, 0, 0, 0
sensor, 50, 6, 0, 6, 0, 0, 0, 0, 0
sensor, 51, 3, 0, 3, 0, 0, 0, 0, 0
sensor, 52, 5, 0, 5, 0, 0, 0, 0, 0
sensor, 53, 3, 0, 3, 0, 0, 0, 0, 0
sensor, 54, 5, 1, 4, 0, 0, 0, 0, 0
sensor, 55, 7, 0, 7, 0, 0, 0, 0, 0
sensor, 56, 9, 2, 7, 0, 0, 0, 0, 0
sensor, 57, 5, 3, 2, 0, 0, 0, 0, 0
sensor, 58, 2, 0, 2, 0, 0, 0, 0, 0
sensor, 59, 2, 1, 1, 0, 0, 0, 0, 0
sensor, 60, 5, 1, 4, 0, 0, 0, 0, 0
sensor, 61, 5, 0, 5, 0, 0, 0, 0, 0
sensor, 62, 4, 1, 3, 0, 0, 0, 0, 0
sensor, 63, 5, 0, 5, 0, 0, 0, 0, 0
sensor, 64, 3, 2, 1, 0, 0, 0, 0, 0
sensor, 65, 9, 8, 1, 0, 0, 0, 0, 0
sensor, 66, 6, 1, 5, 0, 0, 0, 0, 0
sensor, 67, 2, 1, 1, 0, 0, 0, 0, 0
sensor, 68, 6, 1, 5, 0, 0, 0, 0, 0
sensor, 69, 2, 0, 2, 0, 0, 0, 0, 0
sensor, 70, 2, 0, 2, 0, 0, 0, 0, 0
sensor, 71, 5, 0, 5, 0, 0, 0, 0, 0
sensor, 72, 5, 0, 5, 0, 0, 0, 0, 0
sensor, 73, 2, 0, 2, 0, 0, 0, 0, 0
sensor, 74, 7, 7, 0, 0, 0, 0, 0, 0
sensor, 75, 1, 0, 1, 0, 0, 0, 0, 0
sensor, 76, 3, 0, 3, 0, 0, 0, 0, 0
sensor, 77, 5, 1, 4, 0, 0, 0, 0, 0
sensor, 78, 5, 1, 4, 0, 0, 0, 0, 0
sensor, 79, 3, 0, 3, 0, 0, 0, 0, 0
sensor, 80, 4, 1, 3, 0, 0, 0, 0, 0
sensor, 81, 6, 0, 6, 0, 0, 0, 0, 0
sensor, 82, 4, 1, 3, 0, 0, 0, 0, 0
sensor, 83, 6, 0, 6, 0, 0, 0, 0, 0
sensor, 84, 4, 1, 3, 0, 0, 0, 0, 0
sensor, 85, 3, 0, 3, 0, 0, 0, 0, 0
sensor, 86, 1, 0, 1, 0, 0, 0, 0, 0
sensor, 87, 6, 2, 4, 0, 0, 0, 0, 0
sensor, 88, 7, 2, 5, 0, 0, 0, 0, 0
sensor, 89, 4, 0, 4, 0, 0, 0, 0, 0
sensor, 90, 5, 0, 5, 0, 0, 0, 0, 0
sensor, 91, 4, 1, 3, 0, 0, 0, 0, 0
sensor, 92, 5, 0, 5, 0, 0, 0, 0, 0
sensor, 93, 2, 1, 1, 0, 0, 0, 0, 0
sensor, 94, 5, 0, 5, 0, 0, 0, 0, 0
sensor, 95, 4, 0, 4, 0, 0, 0, 0, 0
sensor, 96, 3, 0, 3, 0, 0, 0, 0, 0
sensor, 97, 3, 0, 3, 0, 0, 0, 0, 0
sensor, 98, 8, 3, 5, 0, 0, 0, 0, 0
sensor, 99, 7, 0, 7, 0, 0, 0, 0, 0
sensor, 100, 10, 1, 9, 0, 0, 0, 0, 0
sensor, 101, 4, 0, 4, 0, 0, 0, 0, 0
sensor, 102, 7, 3, 4, 0, 0, 0, 0, 0
sensor, 103, 4, 1, 3, 0, 0, 0, 0, 0
sensor, 104, 3, 0, 3, 0, 0, 0, 0, 0
sensor, 105, 1, 0, 1, 0, 0, 0, 0, 0
sensor, 106, 8, 4, 4, 0, 0, 0, 0, 0
sensor, 107, 6, 0, 6, 0, 0, 0, 0, 0
sensor, 108, 3, 0, 3, 0, 0, 0, 0, 0
sensor, 109, 1, 1, 0, 0, 0, 0, 0, 0
sensor, 110, 5, 0, 5, 0, 0, 0, 0, 0
sensor, 111, 6, 0, 6, 0, 0, 0, 0, 0
sensor, 112, 5, 0, 5, 0, 0, 0, 0, 0
sensor, 113, 6, 5, 1, 0, 0, 0, 0, 0
sensor, 114, 4, 0, 4, 0, 0, 0, 0, 0
sensor, 115, 5, 0, 5, 0, 0, 0, 0, 0
sensor, 116, 4, 0, 4, 0, 0, 0, 0, 0
sensor, 117, 5, 0, 5, 0, 0, 0, 0, 0
sensor, 118, 3, 0, 3, 0, 0, 0, 0, 0
sensor, 119, 8, 4, 4, 0, 0, 0, 0, 0
sensor, 120, 2, 2, 0, 0, 0, 0, 0, 0
sensor, 121, 2, 1, 1, 0, 0, 0, 0, 0
sensor, 122, 5, 0, 5, 0, 0, 0, 0, 0
sensor, 123, 2, 0, 2, 0, 0, 0, 0, 0
sensor, 124, 6, 0, 6, 0, 0, 0, 0, 0
sensor, 125, 0, 0, 0, 0, 0, 0, 0, 0
sensor, 126, 7, 0, 7, 0, 0, 0, 0, 0
sensor, 127, 5, 1, 4, 0, 0, 0, 0, 0
sensor, 128, 6, 0, 6, 0, 0, 0, 0, 0
sensor, 129, 1, 0, 1, 0, 0, 0, 0, 0
sensor, 130, 4, 0, 4, 0, 0, 0, 0, 0
sensor, 131, 4, 0, 4, 0, 0, 0, 0, 0
sensor, 132, 0, 0, 0, 0, 0, 0, 0, 0
sensor, 133, 9, 0, 9, 0, 0, 0, 0, 0
sensor, 134, 4, 0, 4, 0, 0, 0, 0, 0
sensor, 135, 4, 0, 4, 0, 0, 0, 0, 0
sensor, 136, 2, 0, 2, 0, 0, 0, 0, 0
sensor, 137, 5, 0, 5, 0, 0, 0, 0, 0
sensor, 138, 2, 0, 2, 0, 0, 0, 0, 0
sensor, 139, 4, 0, 4, 0, 0, 0, 0, 0
sensor, 140, 5, 3, 2, 0, 0, 0, 0, 0
sensor, 141, 5, 1, 4, 0, 0, 0, 0, 0
sensor, 142, 3, 1, 2, 0, 0, 0, 0, 0
sensor, 143, 2, 0, 2, 0, 0, 0, 0, 0
sensor, 144, 1, 0, 1, 0, 0, 0, 0, 0
sensor, 145, 9, 0, 9, 0, 0, 0, 0, 0
sensor, 146, 8, 4, 4, 0, 0, 0, 0, 0
sensor, 147, 4, 1, 3, 0, 0, 0, 0, 0
sensor, 148, 9, 1, 8, 0, 0, 0, 0, 0
sensor, 149, 4, 0, 4, 0, 0, 0, 0, 0
sensor, 150, 5, 0, 5, 0, 0, 0, 0, 0
sensor, 151, 1, 0, 1, 0, 0, 0, 0, 0
sensor, 152, 5, 1, 4, 0, 0, 0, 0, 0
sensor, 153, 6, 1, 5, 0, 0, 0, 0, 0
sensor, 154, 3, 1, 2, 0, 0, 0, 0, 0
sensor, 155, 7, 7, 0, 0, 0, 0, 0, 0
sensor, 156, 4, 0, 4, 0, 0, 0, 0, 0
sensor, 157, 5, 0, 5, 0, 0, 0, 0, 0
sensor, 158, 2, 0, 2, 0, 0, 0, 0, 0
sensor, 159, 6, 0, 6, 0, 0, 0, 0, 0
sensor, 160, 4, 0, 4, 0, 0, 0, 0, 0
sensor, 161, 2, 0, 2, 0, 0, 0, 0, 0
sensor, 162, 2, 0, 2, 0, 0, 0, 0, 0
sensor, 163, 5, 5, 0, 0, 0, 0, 0, 0
sensor, 164, 3, 1, 2, 0, 0, 0, 0, 0
sensor, 165, 4, 1, 3, 0, 0, 0, 0, 0
sensor, 166, 1, 0, 1, 0, 0, 0, 0, 0
sensor, 167, 7, 0, 7, 0, 0, 0, 0, 0
sensor, 168, 6, 1, 5, 0, 0, 0, 0, 0
sensor, 169, 3, 0, 3, 0, 0, 0, 0, 0
sensor, 170, 4, 0, 4, 0, 0, 0, 0, 0
sensor, 171, 2, 0, 2, 0, 0, 0, 0, 0
sensor, 172, 4, 0, 4, 0, 0, 0, 0, 0
sensor, 173, 2, 0, 2, 0, 0, 0, 0, 0
sensor, 174, 5, 0, 5, 0, 0, 0, 0, 0
sensor, 175, 4, 0, 4, 0, 0, 0, 0, 0
sensor, 176, 3, 1, 2, 0, 0, 0, 0, 0
sensor, 177, 6, 0, 6, 0, 0, 0, 0, 0
sensor, 178, 3, 0, 3, 0, 0, 0, 0, 0
sensor, 179, 2, 0, 2, 0, 0, 0, 0, 0
sensor, 180, 6, 0, 6, 0, 0, 0, 0, 0
sensor, 181, 5, 0, 5, 0, 0, 0, 0, 0
sensor, 182, 1, 0, 1, 0, 0, 0, 0, 0
sensor, 183, 4, 1, 3, 0, 0, 0, 0, 0
sensor, 184, 4, 0, 4, 0, 0, 0, 0, 0
sensor, 185, 3, 0, 3, 0, 0, 0, 0, 0
sensor, 186, 8, 0, 8, 0, 0, 0, 0, 0
sensor, 187, 1, 0, 1, 0, 0, 0, 0, 0
sensor, 188, 3, 0, 3, 0, 0, 0, 0, 0
sensor, 189, 7, 0, 7, 0, 0, 0, 0, 0
sensor, 190, 8, 0, 8, 0, 0, 0, 0, 0
sensor, 191, 4, 0, 4, 0, 0, 0, 0, 0
sensor, 192, 7, 0, 7, 0, 0, 0, 0, 0
sensor, 193, 5, 2, 3, 0, 0, 0, 0, 0
sensor, 194, 5, 0, 5, 0, 0, 0, 0, 0
sensor, 195, 5, 0, 5, 0, 0, 0, 0, 0
sensor, 196, 1, 1, 0, 0, 0, 0, 0, 0
sensor, 197, 5, 0, 5, 0, 0, 0, 0, 0
sensor, 198, 3, 0, 3, 0, 0, 0, 0, 0
sensor, 199, 4, 0, 4, 0, 0, 0, 0, 0
sensor, 200, 1, 0, 1, 0, 0, 0, 0, 0
sensor, 201, 2, 0, 2, 0, 0, 0, 0, 0
sensor, 202, 10, 7, 3, 0, 0, 0, 0, 0
sensor, 203, 9, 0, 9, 0, 0, 0, 0, 0
sensor, 204, 6, 0, 6, 0, 0, 0, 0, 0
sensor, 205, 4, 0, 4, 0, 0, 0, 0, 0
sensor, 206, 2, 0, 2, 0, 0, 0, 0, 0
sensor, 207, 4, 0, 4, 0, 0, 0, 0, 0
sensor, 208, 1, 0, 1, 0, 0, 0, 0, 0
sensor, 209, 2, 1, 1, 0, 0, 0, 0, 0
sensor, 210, 7, 1, 6, 0, 0, 0, 0, 0
sensor, 211, 3, 0, 3, 0, 0, 0, 0, 0
sensor, 212, 3, 0, 3, 0, 0, 0, 0, 0
sensor, 213, 1, 0, 1, 0, 0, 0, 0, 0
sensor, 214, 2, 1, 1, 0, 0, 0, 0, 0
sensor, 215, 6, 0, 6, 0, 0, 0, 0, 0
sensor, 216, 8, 1, 7, 0, 0, 0, 0, 0
sensor, 217, 2, 0, 2, 0, 0, 0, 0, 0
sensor, 218, 2, 0, 2, 0, 0, 0, 0, 0
sensor, 219, 4, 1, 3, 0, 0, 0, 0, 0
sensor, 220, 1, 0, 1, 0, 0, 0, 0, 0
sensor, 221, 4, 1, 3, 0, 0, 0, 0, 0
sensor, 222, 6, 1, 5, 0, 0, 0, 0, 0
sensor, 223, 1, 0, 1, 0, 0, 0, 0, 0
sensor, 224, 3, 0, 3, 0, 0, 0, 0, 0
sensor, 225, 3, 0, 3, 0, 0, 0, 0, 0
sensor, 226, 3, 0, 3, 0, 0, 0, 0, 0
sensor, 227, 2, 0, 2, 0, 0, 0, 0, 0
sensor, 228, 5, 1, 4, 0, 0, 0, 0, 0
sensor, 229, 2, 0, 2, 0, 0, 0, 0, 0
sensor, 230, 3, 0, 3, 0, 0, 0, 0, 0
sensor, 231, 5, 0, 5, 0, 0, 0, 0, 0
sensor, 232, 5, 0, 5, 0, 0, 0, 0, 0
sensor, 233, 0, 0, 0, 0, 0, 0, 0, 0
sensor, 234, 8, 2, 6, 0, 0, 0, 0, 0
sensor, 235, 3, 0, 3, 0, 0, 0, 0, 0
sensor, 236, 5, 0, 5, 0, 0, 0, 0, 0
sensor, 237, 6, 0, 6, 0, 0, 0, 0, 0
sensor, 238, 5, 0, 5, 0, 0, 0, 0, 0
sensor, 239, 4, 0, 4, 0, 0, 0, 0, 0
sensor, 240, 4, 1, 3, 0, 0, 0, 0, 0
sensor, 241, 7, 1, 6, 0, 0, 0, 0, 0
sensor, 242, 1, 0, 1, 0, 0, 0, 0, 0
sensor, 243, 8, 1, 7, 0, 0, 0, 0, 0
sensor, 244, 4, 0, 4, 0, 0, 0, 0, 0
sensor, 245, 5, 0, 5, 0, 0, 0, 0, 0
sensor, 246, 5, 0, 5, 0, 0, 0, 0, 0
sensor, 247, 3, 3, 0, 0, 0, 0, 0, 0
sensor, 248, 4, 0, 4, 0, 0, 0, 0, 0
sensor, 249, 5, 0, 5, 0, 0, 0, 0, 0
sensor, 250, 3, 0, 3, 0, 0, 0, 0, 0
sensor, 251, 7, 1, 6, 0, 0, 0, 0, 0
sensor, 252, 3, 0, 3, 0, 0, 0, 0, 0
sensor, 253, 2, 0, 2, 0, 0, 0, 0, 0
sensor, 254, 11, 0, 11, 0, 0, 0, 0, 0
sensor, 255, 4, 0, 4, 0, 0, 0, 0, 0
sensor, 256, 2, 0, 2, 0, 0, 0, 0, 0
sensor, 257, 1, 0, 1, 0, 0, 0, 0, 0
sensor, 258, 4, 0, 4, 0, 0, 0, 0, 0
sensor, 259, 2, 0, 2, 0, 0, 0, 0, 0
sensor, 260, 7, 0, 7, 0, 0, 0, 0, 0
sensor, 261, 6, 0, 6, 0, 0, 0, 0, 0
sensor, 262, 6, 0, 6, 0, 0, 0, 0, 0
sensor, 263, 2, 1, 1, 0, 0, 0, 0, 0
sensor, 264, 4, 0, 4, 0, 0, 0, 0, 0
sensor, 265, 2, 2, 0, 0, 0, 0, 0, 0
sensor, 266, 4, 2, 2, 0, 0, 0, 0, 0
sensor, 267, 5, 1, 4, 0, 0, 0, 0, 0
sensor, 268, 4, 0, 4, 0, 0, 0, 0, 0
sensor, 269, 7, 3, 4, 0, 0, 0, 0, 0
sensor, 270, 4, 0, 4, 0, 0, 0, 0, 0
sensor, 271, 3, 0, 3, 0, 0, 0, 0, 0
sensor, 272, 2, 0, 2, 0, 0, 0, 0, 0
sensor, 273, 3, 1, 2, 0, 0, 0, 0, 0
sensor, 274, 5, 1, 4, 0, 0, 0, 0, 0
sensor, 275, 7, 0, 7, 0, 0, 0, 0, 0
sensor, 276, 2, 1, 1, 0, 0, 0, 0, 0
sensor, 277, 5, 1, 4, 0, 0, 0, 0, 0
sensor, 278, 5, 0, 5, 0, 0, 0, 0, 0
sensor, 279, 6, 0, 6, 0, 0, 0, 0, 0
sensor, 280, 5, 0, 5, 0, 0, 0, 0, 0
sensor, 281, 6, 1, 5, 0, 0, 0, 0, 0
sensor, 282, 3, 0, 3, 0, 0, 0, 0, 0
sensor, 283, 6, 0, 6, 0, 0, 0, 0, 0
sensor, 284, 5, 0, 5, 0, 0, 0, 0, 0
sensor, 285, 2, 0, 2, 0, 0, 0, 0, 0
sensor, 286, 5, 0, 5, 0, 0, 0, 0, 0
sensor, 287, 3, 0, 3, 0, 0, 0, 0, 0
sensor, 288, 10, 9, 1, 0, 0, 0, 0, 0
sensor, 289, 2, 0, 2, 0, 0, 0, 0, 0
sensor, 290, 7, 0, 7, 0, 0, 0, 0, 0
sensor, 291, 3, 1, 2, 0, 0, 0, 0, 0
sensor, 292, 4, 0, 4, 0, 0, 0, 0, 0
sensor, 293, 3, 0, 3, 0, 0, 0, 0, 0
sensor, 294, 3, 1, 2, 0, 0, 0, 0, 0
sensor, 295, 9, 0, 9, 0, 0, 0, 0, 0
sensor, 296, 2, 0, 2, 0, 0, 0, 0, 0
sensor, 297, 2, 0, 2, 0, 0, 0, 0, 0
sensor, 298, 4, 0, 4, 0, 0, 0, 0, 0
sensor, 299, 5, 0, 5, 0, 0, 0, 0, 0
