packet, 7, 24, 0, 37.24, 3, 0.086016, False
packet, 6, 53, 0, 52.19, 3, 0.086016, False
packet, 36, 48, 0, 69.15, 3, 0.086016, False
packet, 2, 50, 0, 73.04, 3, 0.086016, False
packet, 41, 76, 0, 73.7, 3, 0.086016, False
packet, 8, 17, 0, 77.14, 3, 0.086016, False
packet, 12, 17, 0, 77.88, 3, 0.086016, False
packet, 1, 15, 0, 80.39, 3, 0.086016, True
packet, 50, 64, 0, 80.4, 3, 0.086016, True
packet, 3, 11, 0, 81.79, 3, 0.086016, False
packet, 16, 73, 0, 82.96, 3, 0.086016, False
packet, 35, 19, 0, 84.52, 3, 0.086016, False
packet, 33, 9, 0, 86.96, 3, 0.086016, False
packet, 39, 33, 0, 88.34, 3, 0.086016, False
packet, 9, 65, 0, 90.22, 3, 0.086016, False
packet, 4, 88, 0, 94.71, 3, 0.086016, False
packet, 14, 42, 0, 98.56, 3, 0.086016, False
packet, 28, 3, 0, 99.54, 3, 0.086016, False
packet, 47, 77, 0, 100.58, 3, 0.086016, False
packet, 19, 17, 0, 101.69, 3, 0.086016, False
packet, 83, 90, 0, 105.64, 3, 0.086016, False
packet, 56, 68, 0, 108.56, 3, 0.086016, False
packet, 23, 99, 0, 110.78, 3, 0.086016, False
packet, 37, 50, 0, 112.23, 3, 0.086016, False
packet, 60, 33, 0, 119.84, 3, 0.086016, False
packet, 72, 1, 0, 122.01, 3, 0.086016, False
packet, 64, 52, 0, 122.79, 3, 0.086016, False
packet, 66, 78, 0, 123.63, 3, 0.086016, False
packet, 77, 32, 0, 124.47, 3, 0.086016, False
packet, 44, 8, 0, 126.3, 3, 0.086016, False
packet, 86, 58, 0, 127.45, 3, 0.086016, False
packet, 43, 5, 0, 130.63, 3, 0.086016, False
packet, 94, 38, 0, 131.34, 3, 0.086016, False
packet, 103, 60, 0, 132.97, 3, 0.086016, False
packet, 58, 2, 0, 135.88, 3, 0.086016, False
packet, 79, 67, 0, 143.26, 3, 0.086016, False
packet, 18, 73, 0, 145.22, 3, 0.086016, False
packet, 89, 6, 0, 148.04, 3, 0.086016, False
packet, 45, 47, 0, 148.98, 5, 0.086016, True
packet, 84, 21, 0, 149.0, 3, 0.086016, True
packet, 5, 69, 0, 149.02, 3, 0.086016, True
packet, 22, 11, 0, 151.74, 3, 0.086016, False
packet, 53, 65, 0, 152.48, 3, 0.086016, False
packet, 70, 42, 0, 153.13, 3, 0.086016, False
packet, 15, 29, 0, 156.89, 3, 0.086016, False
packet, 92, 41, 0, 158.08, 3, 0.086016, False
packet, 40, 25, 0, 159.0, 5, 0.086016, False
packet, 98, 78, 0, 162.82, 3, 0.086016, False
packet, 29, 88, 0, 164.66, 3, 0.086016, False
packet, 61, 8, 0, 165.49, 3, 0.086016, False
packet, 54, 56, 0, 169.23, 5, 0.086016, False
packet, 42, 19, 0, 169.92, 5, 0.086016, False
packet, 96, 9, 0, 170.99, 3, 0.086016, False
packet, 113, 35, 0, 172.1, 3, 0.086016, False
packet, 24, 99, 0, 173.04, 3, 0.086016, False
packet, 104, 58, 0, 174.33, 3, 0.086016, False
packet, 38, 73, 0, 176.72, 3, 0.086016, False
packet, 124, 80, 0, 177.49, 3, 0.086016, False
packet, 97, 38, 0, 178.22, 3, 0.086016, False
packet, 30, 54, 0, 179.2, 4, 0.086016, False
packet, 108, 5, 0, 185.2, 3, 0.086016, False
packet, 105, 6, 0, 187.23, 3, 0.086016, False
packet, 17, 85, 0, 188.39, 5, 0.086016, False
packet, 121, 97, 0, 189.86, 3, 0.086016, False
packet, 87, 31, 0, 190.51, 3, 0.086016, False
packet, 99, 65, 0, 191.71, 4, 0.086016, False
packet, 102, 54, 0, 195.32, 3, 0.086016, False
packet, 138, 74, 0, 195.95, 3, 0.086016, False
packet, 120, 34, 0, 196.84, 5, 0.086016, False
packet, 107, 20, 0, 199.38, 3, 0.086016, False
packet, 82, 99, 0, 204.54, 3, 0.086016, False
packet, 48, 61, 0, 205.52, 4, 0.086016, False
packet, 62, 11, 0, 206.31, 3, 0.086016, False
packet, 109, 94, 0, 208.19, 3, 0.086016, False
packet, 112, 71, 0, 210.17, 3, 0.086016, False
packet, 63, 95, 0, 214.47, 5, 0.086016, False
packet, 26, 98, 0, 221.83, 3, 0.086016, False
packet, 132, 84, 0, 223.11, 3, 0.086016, False
packet, 85, 26, 0, 226.55, 5, 0.086016, False
packet, 142, 14, 0, 228.57, 3, 0.086016, False
packet, 114, 59, 0, 234.92, 4, 0.086016, False
packet, 152, 68, 0, 237.48, 3, 0.086016, False
packet, 117, 92, 0, 241.08, 4, 0.086016, False
packet, 52, 22, 0, 243.27, 5, 0.086016, False
packet, 20, 43, 0, 244.93, 6, 0.086016, False
packet, 154, 93, 0, 246.24, 3, 0.086016, False
packet, 156, 77, 0, 249.31, 3, 0.086016, False
packet, 123, 24, 0, 252.7, 5, 0.086016, False
packet, 119, 27, 0, 258.26, 4, 0.086016, False
packet, 151, 52, 0, 259.54, 3, 0.086016, False
packet, 153, 23, 0, 261.14, 3, 0.086016, False
packet, 145, 90, 0, 262.65, 3, 0.086016, False
packet, 170, 65, 0, 263.5, 3, 0.086016, False
packet, 125, 55, 0, 264.39, 4, 0.086016, False
packet, 91, 21, 0, 265.12, 4, 0.086016, False
packet, 131, 32, 0, 269.02, 5, 0.086016, False
packet, 166, 92, 0, 272.58, 3, 0.086016, False
packet, 171, 94, 0, 273.37, 3, 0.086016, False
packet, 188, 27, 0, 274.38, 3, 0.086016, False
packet, 143, 14, 0, 275.45, 3, 0.086016, True
packet, 169, 96, 0, 275.45, 3, 0.086016, True
packet, 25, 43, 0, 276.43, 3, 0.086016, False
packet, 21, 49, 0, 277.7, 5, 0.086016, False
packet, 31, 69, 0, 280.57, 5, 0.086016, False
packet, 186, 9, 0, 281.95, 3, 0.086016, False
packet, 150, 59, 0, 289.49, 3, 0.086016, False
packet, 185, 24, 0, 291.89, 3, 0.086016, False
packet, 68, 73, 0, 292.88, 5, 0.086016, False
packet, 184, 76, 0, 294.94, 4, 0.086016, False
packet, 139, 3, 0, 296.16, 5, 0.086016, False
packet, 27, 49, 0, 301.51, 3, 0.086016, False
packet, 74, 47, 0, 303.54, 4, 0.086016, False
packet, 67, 22, 0, 305.57, 4, 0.086016, False
packet, 34, 18, 0, 307.89, 5, 0.086016, False
packet, 187, 17, 0, 312.73, 3, 0.086016, False
packet, 46, 44, 0, 315.37, 5, 0.086016, False
packet, 111, 91, 0, 317.2, 5, 0.086016, False
packet, 198, 3, 0, 319.97, 3, 0.086016, False
packet, 130, 62, 0, 321.53, 4, 0.086016, False
packet, 211, 80, 0, 324.89, 3, 0.086016, False
packet, 161, 36, 0, 325.71, 3, 0.086016, False
packet, 224, 85, 0, 326.39, 3, 0.086016, False
packet, 95, 21, 0, 327.38, 3, 0.086016, False
packet, 157, 99, 0, 328.4, 5, 0.086016, False
packet, 127, 22, 0, 329.38, 3, 0.086016, False
packet, 126, 46, 0, 334.99, 6, 0.086016, False
packet, 218, 84, 0, 336.87, 4, 0.086016, False
packet, 100, 40, 0, 337.66, 4, 0.086016, False
packet, 65, 37, 0, 338.53, 6, 0.086016, False
packet, 78, 89, 0, 340.78, 6, 0.086016, False
packet, 216, 7, 0, 341.68, 3, 0.086016, False
packet, 147, 74, 0, 342.83, 4, 0.086016, False
packet, 118, 95, 0, 346.01, 5, 0.086016, False
packet, 55, 44, 0, 346.87, 3, 0.086016, False
packet, 73, 44, 0, 347.61, 3, 0.086016, False
packet, 88, 89, 0, 349.21, 3, 0.086016, False
packet, 179, 13, 0, 351.5, 3, 0.086016, False
packet, 148, 8, 0, 352.6, 3, 0.086016, False
packet, 128, 91, 0, 356.39, 3, 0.086016, False
packet, 137, 89, 0, 357.64, 3, 0.086016, False
packet, 213, 3, 0, 359.16, 3, 0.086016, False
packet, 71, 10, 0, 360.37, 5, 0.086016, False
packet, 136, 2, 0, 361.01, 6, 0.086016, False
packet, 190, 24, 0, 361.92, 5, 0.086016, False
packet, 129, 73, 0, 362.83, 3, 0.086016, False
packet, 231, 83, 0, 367.83, 3, 0.086016, False
packet, 228, 97, 0, 368.81, 4, 0.086016, False
packet, 75, 4, 0, 369.7, 4, 0.086016, False
packet, 174, 0, 0, 370.63, 4, 0.086016, False
packet, 208, 55, 0, 374.05, 5, 0.086016, False
packet, 237, 76, 0, 375.12, 3, 0.086016, False
packet, 214, 6, 0, 377.47, 5, 0.086016, False
packet, 259, 33, 0, 379.16, 3, 0.086016, False
packet, 164, 74, 0, 382.02, 3, 0.086016, False
packet, 81, 39, 0, 382.74, 5, 0.086016, False
packet, 255, 99, 0, 388.63, 3, 0.086016, False
packet, 234, 83, 0, 391.64, 3, 0.086016, True
packet, 134, 22, 0, 391.68, 4, 0.086016, True
packet, 273, 25, 0, 392.65, 3, 0.086016, False
packet, 258, 98, 0, 394.32, 3, 0.086016, False
packet, 278, 51, 0, 395.64, 3, 0.086016, True
packet, 149, 88, 0, 395.68, 4, 0.086016, True
packet, 256, 12, 0, 397.29, 3, 0.086016, False
packet, 240, 81, 0, 399.59, 3, 0.086016, False
packet, 167, 2, 0, 400.24, 4, 0.086016, False
packet, 221, 6, 0, 401.28, 3, 0.086016, False
packet, 194, 73, 0, 402.02, 3, 0.086016, False
packet, 195, 92, 0, 404.13, 5, 0.086016, False
packet, 235, 15, 0, 404.77, 3, 0.086016, False
packet, 294, 78, 0, 405.56, 3, 0.086016, False
packet, 263, 50, 0, 406.54, 3, 0.086016, False
packet, 76, 44, 0, 409.87, 3, 0.086016, False
packet, 141, 64, 0, 411.73, 4, 0.086016, False
packet, 175, 39, 0, 414.24, 3, 0.086016, False
packet, 220, 4, 0, 416.58, 3, 0.086016, False
packet, 133, 91, 0, 418.65, 3, 0.086016, False
packet, 178, 54, 0, 420.51, 5, 0.086016, False
packet, 204, 9, 0, 421.18, 5, 0.086016, False
packet, 282, 76, 0, 424.58, 3, 0.086016, False
packet, 254, 52, 0, 425.62, 3, 0.086016, False
packet, 250, 18, 0, 427.3, 5, 0.086016, False
packet, 260, 3, 0, 429.11, 3, 0.086016, False
packet, 229, 62, 0, 430.0, 5, 0.086016, False
packet, 144, 71, 0, 434.03, 6, 0.086016, False
packet, 162, 46, 0, 435.73, 4, 0.086016, True
packet, 251, 59, 0, 435.74, 3, 0.086016, True
packet, 248, 8, 0, 437.97, 4, 0.086016, False
packet, 59, 16, 0, 441.44, 8, 0.086016, False
packet, 280, 7, 0, 442.62, 3, 0.086016, False
packet, 305, 48, 0, 443.83, 3, 0.086016, False
packet, 266, 4, 0, 448.08, 3, 0.086016, False
packet, 269, 88, 0, 450.25, 3, 0.086016, False
packet, 295, 8, 0, 454.09, 3, 0.086016, False
packet, 298, 51, 0, 457.68, 3, 0.086016, False
packet, 177, 32, 0, 462.12, 6, 0.086016, False
packet, 290, 55, 0, 465.18, 3, 0.086016, False
packet, 183, 54, 0, 467.39, 3, 0.086016, False
packet, 192, 61, 0, 468.01, 6, 0.086016, False
packet, 159, 31, 0, 468.67, 6, 0.086016, False
packet, 10, 72, 0, 471.85, 6, 0.086016, False
packet, 316, 24, 0, 474.05, 3, 0.086016, False
packet, 242, 15, 0, 474.8, 5, 0.086016, False
packet, 201, 40, 0, 476.85, 4, 0.086016, False
packet, 49, 19, 0, 478.37, 7, 0.086016, False
packet, 264, 94, 0, 485.1, 3, 0.086016, False
packet, 210, 60, 0, 485.92, 4, 0.086016, False
packet, 301, 7, 0, 489.5, 3, 0.086016, False
packet, 319, 62, 0, 492.38, 3, 0.086016, False
packet, 299, 75, 0, 497.93, 4, 0.086016, False
packet, 268, 13, 0, 502.6, 4, 0.086016, False
packet, 115, 16, 0, 503.7, 3, 0.086016, False
packet, 291, 63, 0, 504.76, 3, 0.086016, False
packet, 261, 15, 0, 506.3, 3, 0.086016, False
packet, 300, 61, 0, 507.2, 3, 0.086016, False
packet, 225, 31, 0, 507.86, 3, 0.086016, False
packet, 297, 8, 0, 508.66, 3, 0.086016, False
packet, 281, 60, 0, 509.73, 3, 0.086016, False
packet, 331, 65, 0, 518.14, 3, 0.086016, False
packet, 172, 70, 0, 520.91, 5, 0.086016, False
packet, 309, 75, 0, 521.74, 3, 0.086016, False
packet, 276, 98, 0, 525.83, 4, 0.086016, False
packet, 335, 33, 0, 527.65, 3, 0.086016, False
packet, 345, 84, 0, 528.44, 3, 0.086016, False
packet, 286, 15, 0, 530.11, 3, 0.086016, False
packet, 191, 32, 0, 532.07, 3, 0.086016, False
packet, 338, 53, 0, 534.24, 3, 0.086016, False
packet, 314, 18, 0, 536.28, 3, 0.086016, False
packet, 106, 87, 0, 543.28, 5, 0.086016, False
packet, 252, 5, 0, 545.12, 5, 0.086016, False
packet, 270, 11, 0, 545.82, 4, 0.086016, False
packet, 352, 42, 0, 547.75, 3, 0.086016, False
packet, 366, 80, 0, 548.61, 3, 0.086016, False
packet, 318, 13, 0, 549.48, 3, 0.086016, False
packet, 160, 21, 0, 551.23, 6, 0.086016, False
packet, 391, 9, 0, 553.81, 3, 0.086016, False
packet, 232, 31, 0, 554.74, 3, 0.086016, False
packet, 370, 76, 0, 555.76, 3, 0.086016, False
packet, 330, 44, 0, 564.11, 4, 0.086016, True
packet, 379, 88, 0, 564.14, 3, 0.086016, True
packet, 158, 16, 0, 565.96, 3, 0.086016, False
packet, 324, 4, 0, 569.43, 5, 0.086016, False
packet, 386, 31, 0, 570.86, 3, 0.086016, False
packet, 333, 54, 0, 572.2, 3, 0.086016, False
packet, 275, 87, 0, 574.78, 3, 0.086016, False
packet, 347, 34, 0, 576.61, 3, 0.086016, False
packet, 354, 42, 0, 579.25, 3, 0.086016, False
packet, 277, 59, 0, 582.66, 5, 0.086016, False
packet, 320, 46, 0, 586.03, 4, 0.086016, False
packet, 146, 19, 0, 586.85, 5, 0.086016, False
packet, 395, 76, 0, 588.58, 3, 0.086016, False
packet, 414, 74, 0, 596.14, 3, 0.086016, False
packet, 408, 14, 0, 598.85, 3, 0.086016, False
packet, 397, 3, 0, 599.89, 3, 0.086016, False
packet, 173, 29, 0, 600.88, 8, 0.086016, False
packet, 200, 32, 0, 602.02, 3, 0.086016, False
packet, 206, 90, 0, 603.87, 4, 0.086016, False
packet, 377, 33, 0, 604.6, 5, 0.086016, False
packet, 122, 79, 0, 605.53, 6, 0.086016, False
packet, 389, 59, 0, 606.47, 3, 0.086016, False
packet, 197, 16, 0, 612.84, 3, 0.086016, False
packet, 181, 28, 0, 615.25, 6, 0.086016, False
packet, 399, 61, 0, 616.86, 3, 0.086016, False
packet, 360, 60, 0, 618.21, 5, 0.086016, False
packet, 405, 9, 0, 619.94, 3, 0.086016, False
packet, 398, 70, 0, 622.98, 3, 0.086016, False
packet, 69, 37, 0, 623.89, 6, 0.086016, False
packet, 401, 22, 0, 625.75, 3, 0.086016, False
packet, 393, 54, 0, 626.77, 3, 0.086016, False
packet, 417, 56, 0, 629.85, 3, 0.086016, False
packet, 378, 93, 0, 631.84, 4, 0.086016, False
packet, 327, 46, 0, 632.91, 3, 0.086016, False
packet, 349, 19, 0, 633.73, 3, 0.086016, False
packet, 359, 62, 0, 638.82, 3, 0.086016, False
packet, 257, 29, 0, 640.07, 3, 0.086016, False
packet, 410, 33, 0, 643.79, 3, 0.086016, False
packet, 223, 79, 0, 644.72, 3, 0.086016, False
packet, 427, 68, 0, 647.39, 3, 0.086016, False
packet, 419, 61, 0, 648.36, 3, 0.086016, False
packet, 433, 84, 0, 649.41, 3, 0.086016, False
packet, 436, 63, 0, 654.5, 3, 0.086016, False
packet, 448, 93, 0, 656.7, 3, 0.086016, False
packet, 374, 40, 0, 659.84, 3, 0.086016, False
packet, 32, 30, 0, 662.86, 8, 0.086016, False
packet, 403, 24, 0, 665.76, 4, 0.086016, False
packet, 196, 43, 0, 669.42, 6, 0.086016, False
packet, 375, 46, 0, 672.1, 3, 0.086016, False
packet, 285, 98, 0, 672.75, 5, 0.086016, False
packet, 445, 9, 0, 674.13, 4, 0.086016, False
packet, 422, 10, 0, 679.94, 3, 0.086016, False
packet, 462, 2, 0, 681.07, 3, 0.086016, False
packet, 390, 5, 0, 682.22, 3, 0.086016, False
packet, 411, 33, 0, 682.98, 3, 0.086016, False
packet, 284, 11, 0, 685.08, 6, 0.086016, False
packet, 362, 62, 0, 685.7, 3, 0.086016, False
packet, 219, 49, 0, 686.77, 5, 0.086016, False
packet, 449, 24, 0, 689.57, 3, 0.086016, False
packet, 369, 94, 0, 690.64, 5, 0.086016, False
packet, 380, 12, 0, 697.2, 3, 0.086016, False
packet, 163, 37, 0, 701.57, 4, 0.086016, False
packet, 236, 32, 0, 702.81, 5, 0.086016, False
packet, 457, 93, 0, 703.58, 3, 0.086016, False
packet, 90, 47, 0, 704.31, 8, 0.086016, False
packet, 406, 12, 0, 705.63, 3, 0.086016, False
packet, 415, 33, 0, 706.79, 3, 0.086016, False
packet, 455, 88, 0, 707.43, 3, 0.086016, False
packet, 249, 95, 0, 708.28, 7, 0.086016, False
packet, 482, 31, 0, 709.23, 3, 0.086016, False
packet, 303, 98, 0, 711.94, 3, 0.086016, False
packet, 202, 16, 0, 713.62, 5, 0.086016, False
packet, 475, 94, 0, 714.45, 3, 0.086016, False
packet, 470, 56, 0, 715.4, 3, 0.086016, False
packet, 313, 43, 0, 716.3, 3, 0.086016, False
packet, 437, 47, 0, 720.43, 3, 0.086016, False
packet, 336, 16, 0, 722.05, 3, 0.086016, False
packet, 326, 25, 0, 725.59, 8, 0.086016, False
packet, 461, 53, 0, 727.19, 3, 0.086016, False
packet, 479, 80, 0, 729.79, 3, 0.086016, False
packet, 193, 23, 0, 731.01, 6, 0.086016, False
packet, 420, 38, 0, 733.1, 4, 0.086016, False
packet, 271, 66, 0, 735.82, 5, 0.086016, False
packet, 492, 70, 0, 738.49, 3, 0.086016, False
packet, 446, 43, 0, 747.8, 3, 0.086016, False
packet, 205, 37, 0, 748.45, 3, 0.086016, False
packet, 209, 37, 0, 749.19, 3, 0.086016, False
packet, 189, 69, 0, 750.49, 7, 0.086016, False
packet, 304, 98, 0, 751.13, 3, 0.086016, False
packet, 226, 0, 0, 755.97, 7, 0.086016, False
packet, 450, 38, 0, 756.91, 3, 0.086016, False
packet, 339, 66, 0, 759.63, 3, 0.086016, False
packet, 363, 16, 0, 761.24, 3, 0.086016, False
packet, 452, 73, 0, 762.21, 3, 0.086016, False
packet, 357, 42, 0, 764.61, 5, 0.086016, False
packet, 358, 66, 0, 768.06, 3, 0.086016, False
packet, 283, 49, 0, 772.18, 5, 0.086016, False
packet, 509, 15, 0, 773.63, 3, 0.086016, False
packet, 485, 56, 0, 777.66, 3, 0.086016, False
packet, 447, 68, 0, 778.88, 4, 0.086016, False
packet, 460, 84, 0, 779.78, 6, 0.086016, False
packet, 412, 46, 0, 780.53, 4, 0.086016, False
packet, 11, 57, 0, 781.28, 8, 0.086016, False
packet, 302, 23, 0, 785.58, 3, 0.086016, False
packet, 533, 15, 0, 786.74, 3, 0.086016, False
packet, 529, 44, 0, 790.94, 3, 0.086016, False
packet, 341, 75, 0, 791.68, 5, 0.086016, False
packet, 487, 88, 0, 792.8, 4, 0.086016, False
packet, 332, 11, 0, 793.51, 4, 0.086016, False
packet, 80, 57, 0, 797.4, 3, 0.086016, False
packet, 135, 67, 0, 798.02, 8, 0.086016, False
packet, 476, 9, 0, 799.53, 4, 0.086016, False
packet, 392, 16, 0, 800.43, 3, 0.086016, False
packet, 307, 8, 0, 801.75, 7, 0.086016, False
packet, 265, 37, 0, 803.76, 3, 0.086016, False
packet, 522, 99, 0, 805.99, 3, 0.086016, False
packet, 474, 66, 0, 807.25, 3, 0.086016, False
packet, 334, 11, 0, 809.63, 3, 0.086016, False
packet, 503, 68, 0, 810.38, 3, 0.086016, False
packet, 351, 19, 0, 811.37, 4, 0.086016, True
packet, 353, 49, 0, 811.37, 3, 0.086016, True
packet, 409, 75, 0, 815.49, 3, 0.086016, False
packet, 384, 62, 0, 817.19, 4, 0.086016, False
packet, 512, 18, 0, 818.96, 3, 0.086016, False
packet, 288, 69, 0, 820.44, 3, 0.086016, False
packet, 505, 20, 0, 823.19, 5, 0.086016, False
packet, 493, 34, 0, 823.92, 3, 0.086016, False
packet, 434, 23, 0, 824.77, 3, 0.086016, False
packet, 499, 42, 0, 826.87, 3, 0.086016, False
packet, 203, 64, 0, 827.88, 8, 0.086016, False
packet, 238, 79, 0, 830.08, 5, 0.086016, False
packet, 542, 23, 0, 833.2, 3, 0.086016, False
packet, 513, 5, 0, 835.48, 3, 0.086016, False
packet, 438, 51, 0, 836.13, 6, 0.086016, False
packet, 442, 33, 0, 838.37, 6, 0.086016, False
packet, 525, 20, 0, 839.31, 3, 0.086016, False
packet, 540, 34, 0, 840.04, 3, 0.086016, False
packet, 279, 32, 0, 842.05, 5, 0.086016, False
packet, 217, 90, 0, 843.1, 6, 0.086016, False
packet, 560, 68, 0, 845.53, 3, 0.086016, False
packet, 431, 62, 0, 848.73, 4, 0.086016, False
packet, 233, 67, 0, 852.59, 3, 0.086016, False
packet, 494, 1, 0, 854.98, 4, 0.086016, True
packet, 477, 16, 0, 855.0, 3, 0.086016, True
packet, 321, 8, 0, 856.32, 3, 0.086016, False
packet, 558, 54, 0, 857.58, 3, 0.086016, False
packet, 463, 46, 0, 858.25, 5, 0.086016, False
packet, 272, 64, 0, 859.38, 3, 0.086016, False
packet, 342, 67, 0, 861.02, 3, 0.086016, False
packet, 502, 71, 0, 861.89, 3, 0.086016, False
packet, 441, 50, 0, 863.52, 5, 0.086016, False
packet, 546, 59, 0, 864.68, 3, 0.086016, False
packet, 426, 49, 0, 865.94, 3, 0.086016, False
packet, 247, 90, 0, 866.91, 3, 0.086016, False
packet, 565, 10, 0, 867.91, 3, 0.086016, False
packet, 551, 33, 0, 869.87, 3, 0.086016, False
packet, 510, 16, 0, 871.12, 3, 0.086016, False
packet, 466, 37, 0, 873.71, 3, 0.086016, False
packet, 559, 94, 0, 874.57, 3, 0.086016, False
packet, 590, 99, 0, 877.53, 3, 0.086016, False
packet, 481, 50, 0, 879.64, 3, 0.086016, False
packet, 310, 32, 0, 881.24, 3, 0.086016, False
packet, 575, 88, 0, 884.33, 3, 0.086016, False
packet, 561, 93, 0, 886.49, 3, 0.086016, True
packet, 570, 89, 0, 886.5, 3, 0.086016, True
packet, 329, 8, 0, 887.82, 3, 0.086016, False
packet, 523, 75, 0, 893.13, 3, 0.086016, False
packet, 584, 84, 0, 894.1, 3, 0.086016, False
packet, 421, 65, 0, 895.28, 5, 0.086016, False
packet, 140, 91, 0, 896.25, 7, 0.086016, False
packet, 440, 51, 0, 898.39, 3, 0.086016, False
packet, 532, 73, 0, 901.45, 3, 0.086016, False
packet, 585, 61, 0, 902.79, 3, 0.086016, False
packet, 576, 54, 0, 904.46, 3, 0.086016, False
packet, 465, 49, 0, 905.13, 3, 0.086016, False
packet, 511, 40, 0, 906.02, 4, 0.086016, False
packet, 514, 51, 0, 906.82, 3, 0.086016, False
packet, 520, 71, 0, 908.77, 3, 0.086016, False
packet, 289, 72, 0, 911.07, 8, 0.086016, False
packet, 606, 3, 0, 914.85, 3, 0.086016, False
packet, 598, 73, 0, 917.57, 3, 0.086016, False
packet, 609, 94, 0, 918.25, 3, 0.086016, False
packet, 531, 37, 0, 920.59, 3, 0.086016, False
packet, 222, 96, 0, 922.04, 7, 0.086016, False
packet, 601, 88, 0, 923.52, 3, 0.086016, False
packet, 215, 27, 0, 925.99, 10, 0.086016, True
packet, 245, 0, 0, 926.01, 6, 0.086016, True
packet, 199, 86, 0, 927.48, 9, 0.086016, False
packet, 340, 32, 0, 928.12, 3, 0.086016, False
packet, 381, 67, 0, 930.97, 3, 0.086016, False
packet, 517, 2, 0, 933.02, 5, 0.086016, False
packet, 368, 8, 0, 934.7, 3, 0.086016, False
packet, 495, 91, 0, 935.44, 3, 0.086016, False
packet, 267, 96, 0, 938.16, 3, 0.086016, False
packet, 616, 68, 0, 939.36, 4, 0.086016, False
packet, 602, 12, 0, 940.19, 3, 0.086016, False
packet, 371, 72, 0, 942.57, 3, 0.086016, False
packet, 116, 57, 0, 944.27, 4, 0.086016, False
packet, 253, 79, 0, 946.2, 4, 0.086016, False
packet, 350, 27, 0, 949.8, 3, 0.086016, False
packet, 239, 86, 0, 951.29, 3, 0.086016, False
packet, 545, 85, 0, 956.23, 4, 0.086016, False
packet, 611, 61, 0, 957.36, 3, 0.086016, False
packet, 524, 32, 0, 959.62, 3, 0.086016, False
packet, 645, 84, 0, 960.6, 3, 0.086016, False
packet, 348, 96, 0, 961.97, 3, 0.086016, False
packet, 597, 2, 0, 964.52, 3, 0.086016, False
packet, 356, 69, 0, 967.32, 4, 0.086016, False
packet, 642, 44, 0, 968.19, 3, 0.086016, False
packet, 544, 9, 0, 970.66, 4, 0.086016, False
packet, 633, 19, 0, 972.28, 3, 0.086016, True
packet, 610, 11, 0, 972.3, 3, 0.086016, True
packet, 501, 72, 0, 974.07, 3, 0.086016, False
packet, 424, 76, 0, 974.93, 6, 0.086016, False
packet, 486, 66, 0, 977.19, 4, 0.086016, False
packet, 625, 5, 0, 980.91, 3, 0.086016, False
packet, 655, 94, 0, 981.64, 3, 0.086016, True
packet, 661, 5, 0, 981.65, 3, 0.086016, True
packet, 579, 6, 0, 982.61, 5, 0.086016, False
packet, 155, 57, 0, 983.46, 3, 0.086016, False
packet, 653, 50, 0, 985.25, 3, 0.086016, False
packet, 603, 99, 0, 987.71, 4, 0.086016, False
packet, 528, 72, 0, 990.19, 3, 0.086016, True
packet, 656, 71, 0, 990.23, 3, 0.086016, True
packet, 646, 23, 0, 991.51, 4, 0.086016, False
packet, 637, 48, 0, 993.39, 3, 0.086016, False
packet, 671, 11, 0, 995.02, 3, 0.086016, False
packet, 673, 56, 0, 997.14, 3, 0.086016, False
packet, 435, 76, 0, 998.74, 3, 0.086016, False
packet, 589, 18, 0, 999.44, 4, 0.086016, False
packet, 323, 79, 0, 1000.77, 3, 0.086016, False
packet, 548, 85, 0, 1003.11, 3, 0.086016, False
packet, 480, 38, 0, 1003.82, 6, 0.086016, False
packet, 587, 9, 0, 1009.85, 3, 0.086016, False
packet, 593, 58, 0, 1011.27, 4, 0.086016, False
packet, 456, 27, 0, 1012.06, 3, 0.086016, False
packet, 663, 5, 0, 1013.15, 3, 0.086016, False
packet, 516, 55, 0, 1015.48, 5, 0.086016, False
packet, 372, 96, 0, 1016.54, 3, 0.086016, False
packet, 488, 69, 0, 1021.89, 3, 0.086016, False
packet, 467, 29, 0, 1023.77, 4, 0.086016, False
packet, 471, 14, 0, 1024.83, 8, 0.086016, False
packet, 489, 97, 0, 1025.67, 4, 0.086016, False
packet, 591, 38, 0, 1027.63, 3, 0.086016, False
packet, 554, 72, 0, 1029.38, 3, 0.086016, False
packet, 608, 76, 0, 1030.24, 3, 0.086016, False
packet, 629, 70, 0, 1031.07, 4, 0.086016, False
packet, 451, 67, 0, 1031.72, 4, 0.086016, False
packet, 680, 31, 0, 1032.82, 3, 0.086016, False
packet, 13, 82, 0, 1033.5, 10, 0.086016, False
packet, 607, 99, 0, 1034.59, 3, 0.086016, False
packet, 695, 99, 0, 1035.33, 3, 0.086016, False
packet, 550, 49, 0, 1036.68, 5, 0.086016, False
packet, 693, 27, 0, 1037.51, 3, 0.086016, False
packet, 568, 74, 0, 1039.05, 5, 0.086016, False
packet, 566, 1, 0, 1040.34, 5, 0.086016, False
packet, 664, 87, 0, 1042.68, 3, 0.086016, False
packet, 57, 45, 0, 1043.92, 9, 0.086016, False
packet, 688, 56, 0, 1046.7, 3, 0.086016, False
packet, 478, 43, 0, 1048.58, 7, 0.086016, False
packet, 404, 22, 0, 1049.63, 9, 0.086016, False
packet, 325, 90, 0, 1052.32, 6, 0.086016, False
packet, 458, 67, 0, 1055.53, 3, 0.086016, False
packet, 110, 82, 0, 1057.31, 3, 0.086016, False
packet, 518, 69, 0, 1061.08, 3, 0.086016, False
packet, 543, 69, 0, 1061.82, 3, 0.086016, False
packet, 413, 79, 0, 1063.03, 3, 0.086016, False
packet, 498, 14, 0, 1064.02, 3, 0.086016, False
packet, 617, 43, 0, 1064.7, 3, 0.086016, False
packet, 322, 64, 0, 1067.82, 5, 0.086016, False
packet, 676, 55, 0, 1070.05, 3, 0.086016, False
packet, 684, 88, 0, 1073.21, 3, 0.086016, False
packet, 274, 45, 0, 1075.42, 3, 0.086016, False
packet, 643, 90, 0, 1076.13, 3, 0.086016, False
packet, 484, 65, 0, 1080.65, 5, 0.086016, False
packet, 660, 75, 0, 1081.39, 4, 0.086016, False
packet, 651, 7, 0, 1083.08, 4, 0.086016, False
packet, 669, 2, 0, 1084.86, 5, 0.086016, False
packet, 51, 30, 0, 1086.65, 7, 0.086016, False
packet, 711, 94, 0, 1088.11, 3, 0.086016, False
packet, 444, 22, 0, 1088.82, 3, 0.086016, False
packet, 668, 89, 0, 1091.91, 4, 0.086016, False
packet, 741, 44, 0, 1093.06, 3, 0.086016, False
packet, 572, 62, 0, 1095.64, 6, 0.086016, False
packet, 728, 64, 0, 1099.32, 3, 0.086016, True
packet, 737, 98, 0, 1099.34, 3, 0.086016, True
packet, 731, 27, 0, 1103.0, 3, 0.086016, False
packet, 739, 59, 0, 1105.75, 3, 0.086016, False
packet, 311, 45, 0, 1106.92, 3, 0.086016, False
packet, 243, 81, 0, 1107.94, 9, 0.086016, False
packet, 416, 79, 0, 1109.91, 3, 0.086016, False
packet, 622, 51, 0, 1111.24, 4, 0.086016, True
packet, 361, 39, 0, 1111.27, 9, 0.086016, True
packet, 396, 39, 0, 1112.01, 3, 0.086016, True
packet, 639, 58, 0, 1112.01, 4, 0.086016, True
packet, 641, 10, 0, 1113.13, 5, 0.086016, False
packet, 296, 57, 0, 1115.01, 5, 0.086016, False
packet, 508, 66, 0, 1116.38, 4, 0.086016, False
packet, 624, 42, 0, 1118.78, 5, 0.086016, False
packet, 244, 83, 0, 1123.06, 9, 0.086016, False
packet, 644, 48, 0, 1124.94, 5, 0.086016, False
packet, 675, 42, 0, 1127.21, 3, 0.086016, False
packet, 535, 63, 0, 1128.44, 6, 0.086016, False
packet, 754, 7, 0, 1132.44, 3, 0.086016, False
packet, 468, 79, 0, 1133.72, 3, 0.086016, False
packet, 752, 89, 0, 1134.82, 3, 0.086016, True
packet, 615, 62, 0, 1134.83, 3, 0.086016, True
packet, 765, 71, 0, 1135.96, 3, 0.086016, False
packet, 595, 63, 0, 1136.87, 3, 0.086016, False
packet, 709, 2, 0, 1139.43, 3, 0.086016, False
packet, 168, 30, 0, 1141.22, 3, 0.086016, False
packet, 679, 42, 0, 1143.33, 3, 0.086016, False
packet, 364, 83, 0, 1146.87, 3, 0.086016, False
packet, 519, 66, 0, 1147.88, 3, 0.086016, False
packet, 738, 53, 0, 1149.03, 3, 0.086016, False
packet, 592, 85, 0, 1150.03, 5, 0.086016, False
packet, 726, 29, 0, 1150.98, 5, 0.086016, False
packet, 536, 39, 0, 1158.89, 3, 0.086016, True
packet, 678, 58, 0, 1158.89, 3, 0.086016, True
packet, 212, 17, 0, 1159.56, 11, 0.086016, False
packet, 469, 45, 0, 1161.49, 3, 0.086016, False
packet, 537, 86, 0, 1167.36, 4, 0.086016, False
packet, 315, 57, 0, 1169.58, 3, 0.086016, False
packet, 423, 83, 0, 1170.68, 3, 0.086016, False
packet, 748, 48, 0, 1171.82, 3, 0.086016, False
packet, 770, 53, 0, 1172.84, 3, 0.086016, False
packet, 567, 39, 0, 1175.01, 3, 0.086016, True
packet, 753, 58, 0, 1175.01, 3, 0.086016, True
packet, 627, 63, 0, 1176.06, 3, 0.086016, False
packet, 768, 84, 0, 1176.97, 3, 0.086016, False
packet, 346, 57, 0, 1178.01, 3, 0.086016, False
packet, 631, 20, 0, 1178.93, 5, 0.086016, False
packet, 583, 79, 0, 1180.6, 3, 0.086016, False
packet, 740, 29, 0, 1182.48, 3, 0.086016, True
packet, 761, 42, 0, 1182.52, 3, 0.086016, True
packet, 703, 86, 0, 1183.48, 3, 0.086016, False
packet, 343, 0, 0, 1188.34, 7, 0.086016, False
packet, 686, 6, 0, 1191.08, 5, 0.086016, False
packet, 775, 50, 0, 1192.23, 3, 0.086016, False
packet, 573, 14, 0, 1195.61, 6, 0.086016, False
packet, 764, 6, 0, 1199.51, 3, 0.086016, False
packet, 706, 69, 0, 1201.1, 6, 0.086016, False
packet, 367, 57, 0, 1201.82, 3, 0.086016, False
packet, 767, 74, 0, 1204.58, 4, 0.086016, False
packet, 811, 2, 0, 1205.37, 3, 0.086016, False
packet, 227, 17, 0, 1206.44, 3, 0.086016, False
packet, 794, 80, 0, 1212.58, 3, 0.086016, False
packet, 800, 50, 0, 1216.04, 3, 0.086016, True
packet, 652, 45, 0, 1216.06, 3, 0.086016, True
packet, 783, 29, 0, 1221.67, 3, 0.086016, False
packet, 674, 20, 0, 1225.81, 3, 0.086016, False
packet, 683, 18, 0, 1226.69, 5, 0.086016, False
packet, 636, 65, 0, 1227.57, 5, 0.086016, False
packet, 822, 3, 0, 1228.92, 3, 0.086016, False
packet, 373, 57, 0, 1233.32, 3, 0.086016, False
packet, 628, 79, 0, 1235.17, 3, 0.086016, False
packet, 649, 65, 0, 1236.0, 3, 0.086016, False
packet, 432, 57, 0, 1241.75, 3, 0.086016, False
packet, 718, 75, 0, 1243.69, 5, 0.086016, False
packet, 816, 55, 0, 1247.34, 3, 0.086016, False
packet, 619, 14, 0, 1250.18, 3, 0.086016, False
packet, 534, 22, 0, 1251.13, 5, 0.086016, False
packet, 779, 58, 0, 1252.65, 3, 0.086016, False
packet, 827, 38, 0, 1253.52, 3, 0.086016, False
packet, 246, 81, 0, 1254.82, 4, 0.086016, False
packet, 569, 46, 0, 1258.99, 7, 0.086016, False
packet, 658, 45, 0, 1262.94, 3, 0.086016, False
packet, 577, 24, 0, 1264.16, 5, 0.086016, False
packet, 772, 10, 0, 1265.1, 3, 0.086016, False
packet, 773, 19, 0, 1266.92, 3, 0.086016, False
packet, 385, 17, 0, 1268.7, 3, 0.086016, False
packet, 818, 75, 0, 1275.19, 3, 0.086016, False
packet, 801, 29, 0, 1276.24, 3, 0.086016, False
packet, 670, 24, 0, 1280.28, 3, 0.086016, False
packet, 831, 80, 0, 1282.05, 3, 0.086016, False
packet, 681, 63, 0, 1284.54, 5, 0.086016, False
packet, 429, 83, 0, 1286.79, 4, 0.086016, False
packet, 717, 51, 0, 1288.92, 5, 0.086016, True
packet, 787, 53, 0, 1288.96, 4, 0.086016, True
packet, 791, 44, 0, 1289.84, 5, 0.086016, False
packet, 807, 65, 0, 1290.57, 3, 0.086016, False
packet, 843, 2, 0, 1291.5, 3, 0.086016, False
packet, 864, 27, 0, 1294.76, 3, 0.086016, False
packet, 685, 63, 0, 1300.66, 3, 0.086016, False
packet, 857, 89, 0, 1307.18, 3, 0.086016, False
packet, 853, 38, 0, 1308.59, 3, 0.086016, False
packet, 527, 66, 0, 1310.17, 5, 0.086016, False
packet, 634, 61, 0, 1311.96, 7, 0.086016, False
packet, 777, 7, 0, 1313.86, 4, 0.086016, False
packet, 292, 81, 0, 1317.08, 3, 0.086016, False
packet, 176, 30, 0, 1318.9, 5, 0.086016, False
packet, 844, 10, 0, 1319.67, 3, 0.086016, False
packet, 665, 61, 0, 1320.39, 3, 0.086016, False
packet, 635, 15, 0, 1323.45, 4, 0.086016, False
packet, 873, 23, 0, 1327.81, 3, 0.086016, False
packet, 600, 22, 0, 1328.81, 4, 0.086016, False
packet, 845, 7, 0, 1329.98, 3, 0.086016, False
packet, 632, 70, 0, 1331.75, 5, 0.086016, False
packet, 881, 38, 0, 1332.4, 3, 0.086016, False
packet, 337, 30, 0, 1335.02, 3, 0.086016, False
packet, 750, 40, 0, 1337.81, 6, 0.086016, False
packet, 578, 83, 0, 1341.36, 3, 0.086016, False
packet, 732, 54, 0, 1342.71, 5, 0.086016, False
packet, 574, 17, 0, 1346.38, 4, 0.086016, False
packet, 888, 89, 0, 1348.14, 3, 0.086016, False
packet, 418, 25, 0, 1349.23, 6, 0.086016, False
packet, 667, 34, 0, 1352.95, 6, 0.086016, False
packet, 756, 40, 0, 1353.93, 3, 0.086016, False
packet, 699, 15, 0, 1354.95, 3, 0.086016, False
packet, 730, 91, 0, 1356.51, 3, 0.086016, False
packet, 580, 83, 0, 1357.48, 3, 0.086016, False
packet, 813, 53, 0, 1358.91, 3, 0.086016, False
packet, 893, 89, 0, 1364.26, 3, 0.086016, False
packet, 724, 5, 0, 1365.98, 6, 0.086016, False
packet, 890, 62, 0, 1367.35, 3, 0.086016, False
packet, 704, 43, 0, 1373.13, 6, 0.086016, False
packet, 834, 34, 0, 1376.76, 3, 0.086016, False
packet, 915, 58, 0, 1378.57, 3, 0.086016, False
packet, 626, 4, 0, 1380.97, 7, 0.086016, False
packet, 355, 30, 0, 1381.9, 3, 0.086016, True
packet, 885, 10, 0, 1381.93, 3, 0.086016, True
packet, 785, 40, 0, 1385.43, 3, 0.086016, False
packet, 383, 96, 0, 1386.48, 6, 0.086016, False
packet, 904, 94, 0, 1387.33, 3, 0.086016, False
packet, 792, 43, 0, 1389.25, 3, 0.086016, False
packet, 784, 78, 0, 1390.54, 4, 0.086016, False
packet, 745, 93, 0, 1391.19, 3, 0.086016, False
packet, 889, 51, 0, 1395.81, 3, 0.086016, False
packet, 846, 61, 0, 1398.03, 3, 0.086016, False
packet, 556, 77, 0, 1399.1, 7, 0.086016, False
packet, 623, 17, 0, 1400.95, 3, 0.086016, False
packet, 714, 70, 0, 1401.7, 3, 0.086016, False
packet, 344, 81, 0, 1402.49, 5, 0.086016, False
packet, 824, 53, 0, 1405.79, 3, 0.086016, False
packet, 914, 7, 0, 1407.37, 3, 0.086016, False
packet, 900, 97, 0, 1410.63, 4, 0.086016, False
packet, 365, 30, 0, 1413.4, 3, 0.086016, True
packet, 908, 10, 0, 1413.43, 3, 0.086016, True
packet, 799, 78, 0, 1414.35, 3, 0.086016, False
packet, 788, 96, 0, 1417.98, 3, 0.086016, True
packet, 698, 1, 0, 1418.01, 7, 0.086016, True
packet, 868, 91, 0, 1418.77, 3, 0.086016, False
packet, 691, 4, 0, 1420.16, 3, 0.086016, False
packet, 802, 40, 0, 1424.62, 3, 0.086016, False
packet, 931, 55, 0, 1426.71, 3, 0.086016, False
packet, 376, 0, 0, 1427.57, 6, 0.086016, False
packet, 586, 77, 0, 1430.6, 3, 0.086016, False
packet, 692, 63, 0, 1432.2, 5, 0.086016, False
packet, 937, 11, 0, 1434.84, 3, 0.086016, False
packet, 743, 5, 0, 1435.93, 3, 0.086016, False
packet, 803, 44, 0, 1436.75, 5, 0.086016, False
packet, 946, 71, 0, 1437.44, 3, 0.086016, False
packet, 898, 38, 0, 1438.17, 3, 0.086016, False
packet, 872, 31, 0, 1441.1, 3, 0.086016, False
packet, 907, 51, 0, 1442.69, 3, 0.086016, False
packet, 780, 74, 0, 1443.86, 7, 0.086016, False
packet, 694, 20, 0, 1449.7, 7, 0.086016, False
packet, 892, 53, 0, 1452.67, 3, 0.086016, False
packet, 749, 77, 0, 1454.41, 3, 0.086016, False
packet, 733, 70, 0, 1456.27, 3, 0.086016, False
packet, 896, 68, 0, 1457.89, 4, 0.086016, False
packet, 400, 0, 0, 1459.07, 3, 0.086016, False
packet, 805, 74, 0, 1459.98, 3, 0.086016, False
packet, 829, 84, 0, 1463.38, 6, 0.086016, False
packet, 906, 96, 0, 1464.86, 3, 0.086016, True
packet, 713, 1, 0, 1464.89, 3, 0.086016, True
packet, 428, 0, 0, 1467.5, 3, 0.086016, False
packet, 866, 78, 0, 1468.92, 3, 0.086016, False
packet, 778, 93, 0, 1476.56, 4, 0.086016, False
packet, 491, 81, 0, 1480.17, 4, 0.086016, False
packet, 700, 20, 0, 1481.2, 3, 0.086016, False
packet, 697, 4, 0, 1482.42, 3, 0.086016, False
packet, 823, 77, 0, 1485.91, 3, 0.086016, True
packet, 855, 48, 0, 1485.95, 6, 0.086016, True
packet, 696, 63, 0, 1486.77, 3, 0.086016, False
packet, 957, 55, 0, 1488.01, 3, 0.086016, False
packet, 821, 74, 0, 1491.48, 3, 0.086016, False
packet, 230, 28, 0, 1492.66, 7, 0.086016, False
packet, 472, 92, 0, 1494.31, 8, 0.086016, False
packet, 547, 66, 0, 1495.49, 4, 0.086016, True
packet, 867, 27, 0, 1495.5, 5, 0.086016, True
packet, 759, 20, 0, 1497.32, 3, 0.086016, False
packet, 689, 47, 0, 1500.69, 6, 0.086016, False
packet, 981, 87, 0, 1502.05, 3, 0.086016, False
packet, 751, 73, 0, 1503.19, 8, 0.086016, False
packet, 459, 0, 0, 1506.69, 3, 0.086016, False
packet, 947, 58, 0, 1507.65, 5, 0.086016, False
packet, 875, 49, 0, 1509.27, 6, 0.086016, False
packet, 841, 70, 0, 1510.84, 3, 0.086016, False
packet, 762, 1, 0, 1511.77, 3, 0.086016, False
packet, 934, 20, 0, 1513.44, 3, 0.086016, False
packet, 910, 96, 0, 1519.43, 3, 0.086016, False
packet, 620, 14, 0, 1520.12, 5, 0.086016, False
packet, 996, 6, 0, 1522.67, 3, 0.086016, False
packet, 747, 15, 0, 1524.88, 4, 0.086016, False
packet, 654, 14, 0, 1528.55, 3, 0.086016, False
packet, 986, 90, 0, 1530.46, 3, 0.086016, False
packet, 306, 28, 0, 1531.89, 4, 0.086016, False
packet, 659, 67, 0, 1533.06, 5, 0.086016, False
packet, 982, 51, 0, 1533.93, 3, 0.086016, False
packet, 604, 66, 0, 1534.68, 3, 0.086016, False
packet, 820, 0, 0, 1538.19, 3, 0.086016, False
packet, 815, 93, 0, 1538.82, 3, 0.086016, False
packet, 621, 92, 0, 1541.19, 3, 0.086016, False
packet, 555, 81, 0, 1542.43, 3, 0.086016, False
packet, 926, 1, 0, 1550.96, 3, 0.086016, False
packet, 328, 28, 0, 1555.7, 3, 0.086016, False
packet, 781, 63, 0, 1556.72, 3, 0.086016, False
packet, 903, 70, 0, 1557.72, 3, 0.086016, False
packet, 991, 87, 0, 1558.97, 3, 0.086016, False
packet, 833, 4, 0, 1560.1, 4, 0.086016, False
packet, 1004, 86, 0, 1561.97, 3, 0.086016, False
packet, 972, 96, 0, 1566.31, 3, 0.086016, False
packet, 958, 12, 0, 1568.17, 3, 0.086016, False
packet, 828, 0, 0, 1569.69, 3, 0.086016, False
packet, 496, 60, 0, 1570.39, 8, 0.086016, False
packet, 599, 81, 0, 1573.93, 3, 0.086016, False
packet, 944, 1, 0, 1574.77, 3, 0.086016, False
packet, 909, 31, 0, 1580.33, 5, 0.086016, False
packet, 970, 12, 0, 1584.29, 3, 0.086016, False
packet, 1020, 86, 0, 1586.23, 3, 0.086016, False
packet, 922, 68, 0, 1589.39, 4, 0.086016, False
packet, 1002, 87, 0, 1590.47, 3, 0.086016, False
packet, 483, 28, 0, 1594.89, 3, 0.086016, False
packet, 969, 70, 0, 1596.91, 3, 0.086016, False
packet, 1010, 12, 0, 1600.41, 3, 0.086016, False
packet, 500, 60, 0, 1601.89, 3, 0.086016, False
packet, 936, 84, 0, 1602.61, 5, 0.086016, False
packet, 647, 92, 0, 1603.45, 3, 0.086016, False
packet, 648, 46, 0, 1605.86, 6, 0.086016, False
packet, 1031, 86, 0, 1610.04, 3, 0.086016, False
packet, 1000, 34, 0, 1611.81, 4, 0.086016, False
packet, 1024, 4, 0, 1615.86, 3, 0.086016, False
packet, 1036, 17, 0, 1620.72, 3, 0.086016, False
packet, 849, 77, 0, 1625.14, 5, 0.086016, False
packet, 990, 68, 0, 1628.58, 3, 0.086016, False
packet, 997, 53, 0, 1631.9, 5, 0.086016, False
packet, 1013, 54, 0, 1634.2, 3, 0.086016, False
packet, 928, 31, 0, 1634.9, 3, 0.086016, False
packet, 630, 28, 0, 1641.77, 3, 0.086016, False
packet, 719, 47, 0, 1647.57, 4, 0.086016, False
packet, 657, 83, 0, 1650.48, 5, 0.086016, False
packet, 883, 81, 0, 1651.57, 3, 0.086016, False
packet, 1019, 98, 0, 1654.65, 3, 0.086016, False
packet, 1008, 77, 0, 1656.64, 3, 0.086016, False
packet, 207, 82, 0, 1657.97, 8, 0.086016, False
packet, 687, 83, 0, 1658.91, 3, 0.086016, False
packet, 712, 46, 0, 1668.12, 3, 0.086016, False
packet, 984, 93, 0, 1670.32, 4, 0.086016, False
packet, 923, 47, 0, 1671.38, 3, 0.086016, False
packet, 1060, 87, 0, 1680.41, 3, 0.086016, False
packet, 241, 82, 0, 1681.78, 3, 0.086016, False
packet, 806, 19, 0, 1683.03, 7, 0.086016, False
packet, 804, 67, 0, 1687.62, 4, 0.086016, False
packet, 1078, 86, 0, 1688.48, 3, 0.086016, False
packet, 1055, 20, 0, 1694.89, 3, 0.086016, False
packet, 1015, 77, 0, 1695.83, 3, 0.086016, False
packet, 287, 82, 0, 1697.9, 3, 0.086016, False
packet, 1054, 58, 0, 1701.63, 3, 0.086016, False
packet, 701, 85, 0, 1704.63, 9, 0.086016, False
packet, 506, 25, 0, 1711.41, 5, 0.086016, False
packet, 974, 56, 0, 1713.37, 4, 0.086016, False
packet, 839, 50, 0, 1717.11, 8, 0.086016, False
packet, 1079, 89, 0, 1719.81, 3, 0.086016, False
packet, 814, 67, 0, 1726.81, 3, 0.086016, False
packet, 1065, 7, 0, 1731.89, 4, 0.086016, False
packet, 515, 25, 0, 1735.22, 3, 0.086016, False
packet, 978, 56, 0, 1737.18, 3, 0.086016, False
packet, 932, 85, 0, 1743.82, 3, 0.086016, False
packet, 387, 82, 0, 1744.78, 3, 0.086016, False
packet, 1057, 93, 0, 1747.96, 3, 0.086016, False
packet, 394, 30, 0, 1752.53, 5, 0.086016, True
packet, 596, 39, 0, 1752.56, 7, 0.086016, True
packet, 897, 59, 0, 1753.28, 5, 0.086016, False
packet, 1050, 78, 0, 1755.61, 4, 0.086016, False
packet, 1006, 1, 0, 1760.17, 6, 0.086016, False
packet, 1023, 59, 0, 1761.71, 3, 0.086016, False
packet, 1046, 77, 0, 1765.78, 3, 0.086016, False
packet, 912, 50, 0, 1771.68, 3, 0.086016, False
packet, 1027, 85, 0, 1775.32, 3, 0.086016, False
packet, 549, 30, 0, 1776.34, 3, 0.086016, False
packet, 1090, 98, 0, 1778.19, 3, 0.086016, False
packet, 782, 39, 0, 1784.06, 3, 0.086016, False
packet, 382, 95, 0, 1785.76, 11, 0.086016, False
packet, 1067, 71, 0, 1786.51, 3, 0.086016, False
packet, 1033, 47, 0, 1787.55, 5, 0.086016, False
packet, 1058, 34, 0, 1789.06, 4, 0.086016, False
packet, 562, 25, 0, 1789.79, 3, 0.086016, False
packet, 1089, 91, 0, 1790.92, 3, 0.086016, False
packet, 1005, 6, 0, 1793.11, 4, 0.086016, False
packet, 1106, 97, 0, 1794.95, 3, 0.086016, False
packet, 1059, 12, 0, 1798.19, 4, 0.086016, False
packet, 1104, 29, 0, 1800.24, 3, 0.086016, False
packet, 993, 76, 0, 1806.0, 5, 0.086016, False
packet, 852, 39, 0, 1807.87, 3, 0.086016, False
packet, 869, 75, 0, 1812.73, 8, 0.086016, False
packet, 913, 80, 0, 1813.93, 7, 0.086016, False
packet, 454, 82, 0, 1814.77, 4, 0.086016, False
packet, 1073, 47, 0, 1819.05, 3, 0.086016, True
packet, 1117, 51, 0, 1819.08, 3, 0.086016, True
packet, 1122, 23, 0, 1819.77, 3, 0.086016, False
packet, 1018, 76, 0, 1822.12, 3, 0.086016, False
packet, 1121, 87, 0, 1824.93, 3, 0.086016, False
packet, 1095, 71, 0, 1825.7, 3, 0.086016, False
packet, 838, 28, 0, 1827.13, 5, 0.086016, False
packet, 1007, 6, 0, 1832.3, 3, 0.086016, False
packet, 758, 60, 0, 1833.38, 5, 0.086016, False
packet, 425, 95, 0, 1840.33, 3, 0.086016, False
packet, 1126, 47, 0, 1842.86, 3, 0.086016, False
packet, 746, 25, 0, 1852.05, 3, 0.086016, False
packet, 945, 80, 0, 1853.12, 3, 0.086016, False
packet, 504, 82, 0, 1853.96, 3, 0.086016, False
packet, 943, 10, 0, 1864.15, 7, 0.086016, False
packet, 588, 82, 0, 1870.08, 3, 0.086016, False
packet, 1099, 4, 0, 1870.7, 4, 0.086016, False
packet, 830, 72, 0, 1873.36, 5, 0.086016, False
packet, 430, 95, 0, 1879.52, 3, 0.086016, False
packet, 1125, 71, 0, 1880.27, 3, 0.086016, False
packet, 887, 28, 0, 1881.78, 5, 0.086016, False
packet, 817, 60, 0, 1887.95, 3, 0.086016, False
packet, 1141, 64, 0, 1894.38, 3, 0.086016, False
packet, 917, 72, 0, 1897.17, 3, 0.086016, False
packet, 1143, 29, 0, 1899.37, 3, 0.086016, False
packet, 1026, 59, 0, 1900.9, 4, 0.086016, False
packet, 902, 28, 0, 1905.59, 3, 0.086016, False
packet, 962, 80, 0, 1907.69, 3, 0.086016, False
packet, 1076, 10, 0, 1911.03, 3, 0.086016, False
packet, 879, 25, 0, 1914.31, 3, 0.086016, False
packet, 1114, 77, 0, 1921.64, 3, 0.086016, False
packet, 539, 95, 0, 1926.4, 3, 0.086016, False
packet, 950, 60, 0, 1927.14, 3, 0.086016, False
packet, 582, 95, 0, 1942.52, 3, 0.086016, False
packet, 968, 72, 0, 1944.05, 3, 0.086016, False
packet, 1098, 98, 0, 1955.86, 5, 0.086016, False
packet, 1160, 90, 0, 1961.03, 3, 0.086016, False
packet, 1072, 80, 0, 1969.95, 3, 0.086016, False
packet, 1096, 86, 0, 1975.74, 5, 0.086016, False
packet, 650, 37, 0, 1980.49, 8, 0.086016, False
packet, 769, 95, 0, 1981.71, 3, 0.086016, False
packet, 877, 48, 0, 1994.32, 7, 0.086016, False
packet, 1161, 97, 0, 2005.56, 3, 0.086016, False
packet, 1118, 86, 0, 2007.24, 3, 0.086016, False
packet, 948, 48, 0, 2010.44, 3, 0.086016, False
packet, 443, 13, 0, 2011.32, 9, 0.086016, False
packet, 293, 36, 0, 2012.33, 7, 0.086016, False
packet, 1164, 87, 0, 2031.53, 3, 0.086016, False
packet, 1172, 12, 0, 2056.88, 3, 0.086016, False
packet, 1176, 97, 0, 2057.72, 3, 0.086016, False
packet, 1173, 55, 0, 2059.14, 3, 0.086016, False
packet, 1165, 34, 0, 2064.83, 4, 0.086016, False
packet, 93, 41, 0, 2065.71, 7, 0.086016, False
packet, 1166, 87, 0, 2078.41, 3, 0.086016, False
packet, 312, 36, 0, 2090.05, 5, 0.086016, False
packet, 101, 41, 0, 2097.21, 3, 0.086016, False
packet, 1116, 78, 0, 2099.44, 6, 0.086016, False
packet, 1180, 59, 0, 2100.23, 3, 0.086016, False
packet, 1169, 90, 0, 2110.63, 4, 0.086016, False
packet, 708, 92, 0, 2119.54, 8, 0.086016, False
packet, 722, 18, 0, 2127.21, 8, 0.086016, False
packet, 317, 52, 0, 2127.88, 9, 0.086016, False
packet, 1177, 64, 0, 2129.81, 3, 0.086016, False
packet, 1123, 78, 0, 2130.94, 3, 0.086016, False
packet, 308, 41, 0, 2136.4, 3, 0.086016, False
packet, 1086, 92, 0, 2158.73, 3, 0.086016, False
packet, 526, 52, 0, 2159.38, 3, 0.086016, False
packet, 402, 36, 0, 2160.0, 3, 0.086016, False
packet, 1128, 78, 0, 2170.13, 3, 0.086016, False
packet, 1186, 56, 0, 2175.53, 3, 0.086016, False
packet, 1045, 48, 0, 2188.11, 5, 0.086016, False
packet, 180, 35, 0, 2189.55, 11, 0.086016, False
packet, 851, 18, 0, 2197.16, 3, 0.086016, False
packet, 453, 36, 0, 2199.19, 3, 0.086016, False
packet, 757, 36, 0, 2199.93, 3, 0.086016, False
packet, 388, 41, 0, 2206.35, 3, 0.086016, False
packet, 1195, 64, 0, 2209.78, 3, 0.086016, False
packet, 786, 36, 0, 2223.74, 3, 0.086016, False
packet, 530, 52, 0, 2229.33, 3, 0.086016, False
packet, 1199, 55, 0, 2230.18, 3, 0.086016, False
packet, 989, 18, 0, 2236.35, 3, 0.086016, False
packet, 1196, 97, 0, 2237.27, 3, 0.086016, False
packet, 1208, 85, 0, 2251.76, 3, 0.086016, False
packet, 771, 13, 0, 2258.23, 6, 0.086016, False
packet, 798, 13, 0, 2258.97, 3, 0.086016, False
packet, 810, 13, 0, 2267.4, 3, 0.086016, False
packet, 1202, 91, 0, 2271.69, 3, 0.086016, False
packet, 1191, 7, 0, 2276.73, 4, 0.086016, False
packet, 182, 35, 0, 2282.65, 5, 0.086016, False
packet, 552, 52, 0, 2283.9, 3, 0.086016, False
packet, 876, 36, 0, 2293.69, 3, 0.086016, False
packet, 407, 35, 0, 2298.77, 3, 0.086016, False
packet, 605, 52, 0, 2323.09, 3, 0.086016, False
packet, 836, 40, 0, 2340.55, 9, 0.086016, False
packet, 439, 41, 0, 2345.57, 5, 0.086016, False
packet, 1144, 36, 0, 2355.95, 3, 0.086016, False
packet, 464, 35, 0, 2361.03, 3, 0.086016, False
packet, 538, 41, 0, 2361.69, 3, 0.086016, False
packet, 1201, 34, 0, 2369.08, 4, 0.086016, False
packet, 812, 13, 0, 2375.83, 4, 0.086016, False
packet, 614, 52, 0, 2377.66, 3, 0.086016, False
packet, 1215, 91, 0, 2381.0, 3, 0.086016, False
packet, 541, 35, 0, 2384.84, 3, 0.086016, False
packet, 1217, 64, 0, 2386.7, 3, 0.086016, False
packet, 1220, 97, 0, 2395.84, 3, 0.086016, False
packet, 563, 41, 0, 2400.88, 3, 0.086016, False
packet, 832, 13, 0, 2407.33, 3, 0.086016, False
packet, 1145, 36, 0, 2410.52, 3, 0.086016, False
packet, 1219, 36, 0, 2411.26, 3, 0.086016, False
packet, 557, 35, 0, 2424.03, 3, 0.086016, False
packet, 1229, 12, 0, 2442.07, 3, 0.086016, False
packet, 594, 41, 0, 2447.76, 3, 0.086016, False
packet, 1223, 97, 0, 2450.41, 3, 0.086016, False
packet, 1198, 56, 0, 2461.09, 7, 0.086016, False
packet, 666, 52, 0, 2463.03, 4, 0.086016, False
packet, 612, 41, 0, 2463.88, 3, 0.086016, False
packet, 613, 35, 0, 2470.99, 5, 0.086016, False
packet, 1230, 12, 0, 2496.64, 3, 0.086016, False
packet, 618, 41, 0, 2503.07, 3, 0.086016, False
packet, 638, 35, 0, 2510.18, 3, 0.086016, False
packet, 1239, 23, 0, 2553.51, 3, 0.086016, False
packet, 1240, 23, 0, 2577.32, 3, 0.086016, False
packet, 1238, 91, 0, 2577.99, 3, 0.086016, False
packet, 490, 21, 0, 2579.98, 7, 0.086016, False
packet, 165, 26, 0, 2603.46, 14, 0.086016, False
packet, 1242, 92, 0, 2625.79, 3, 0.086016, False
packet, 571, 21, 0, 2626.86, 3, 0.086016, False
packet, 262, 26, 0, 2642.65, 3, 0.086016, False
packet, 734, 21, 0, 2666.05, 3, 0.086016, False
packet, 874, 21, 0, 2705.24, 3, 0.086016, False
packet, 1110, 21, 0, 2713.67, 3, 0.086016, False
packet, 1204, 21, 0, 2768.24, 3, 0.086016, False
packet, 581, 26, 0, 2789.57, 5, 0.086016, False
packet, 640, 26, 0, 2844.14, 3, 0.086016, False
packet, 682, 26, 0, 2867.95, 3, 0.086016, False
packet, 710, 26, 0, 2922.52, 3, 0.086016, False
packet, 941, 26, 0, 2930.95, 3, 0.086016, False
packet, 1120, 26, 0, 2977.83, 3, 0.086016, False
packet, 1130, 26, 0, 3024.71, 3, 0.086016, False
packet, 860, 45, 0, 3128.63, 7, 0.086016, False
packet, 861, 45, 0, 3190.89, 3, 0.086016, False
packet, 975, 45, 0, 3245.46, 3, 0.086016, False
packet, 842, 3, 0, 3258.71, 9, 0.086016, False
packet, 930, 3, 0, 3305.59, 3, 0.086016, False
c_packet, 979, 3722, 63, 93.565%

sensor, 0, 12, 2, 10, 0, 0, 0, 0, 0, dead
sensor, 1, 11, 2, 9, 0, 0, 0, 0, 0, dead
sensor, 2, 11, 1, 10, 0, 0, 0, 0, 0, dead
sensor, 3, 22, 12, 10, 0, 0, 0, 0, 0, dead
sensor, 4, 11, 1, 10, 0, 0, 0, 0, 0, dead
sensor, 5, 15, 5, 10, 0, 0, 0, 0, 0, dead
sensor, 6, 15, 5, 10, 0, 0, 0, 0, 0, dead
sensor, 7, 11, 1, 10, 0, 0, 0, 0, 0, dead
sensor, 8, 12, 2, 10, 0, 0, 0, 0, 0, dead
sensor, 9, 10, 0, 10, 0, 0, 0, 0, 0, dead
sensor, 10, 14, 4, 10, 0, 0, 0, 0, 0, dead
sensor, 11, 10, 0, 10, 0, 0, 0, 0, 0, dead
sensor, 12, 12, 1, 11, 0, 0, 0, 0, 0, dead
sensor, 13, 15, 6, 9, 0, 0, 0, 0, 0, dead
sensor, 14, 22, 13, 9, 0, 0, 0, 0, 0, dead
sensor, 15, 13, 3, 10, 0, 0, 0, 0, 0, dead
sensor, 16, 11, 1, 10, 0, 0, 0, 0, 0, dead
sensor, 17, 11, 1, 10, 0, 0, 0, 0, 0, dead
sensor, 18, 15, 6, 9, 0, 0, 0, 0, 0, dead
sensor, 19, 12, 3, 9, 0, 0, 0, 0, 0, dead
sensor, 20, 11, 1, 10, 0, 0, 0, 0, 0, dead
sensor, 21, 12, 2, 10, 0, 0, 0, 0, 0, dead
sensor, 22, 13, 4, 9, 0, 0, 0, 0, 0, dead
sensor, 23, 11, 1, 10, 0, 0, 0, 0, 0, dead
sensor, 24, 14, 5, 9, 0, 0, 0, 0, 0, dead
sensor, 25, 16, 7, 9, 0, 0, 0, 0, 0, dead
sensor, 26, 20, 10, 10, 0, 0, 0, 0, 0, dead
sensor, 27, 10, 1, 9, 0, 0, 0, 0, 0, dead
sensor, 28, 14, 5, 9, 0, 0, 0, 0, 0, dead
sensor, 29, 11, 1, 10, 0, 0, 0, 0, 0, dead
sensor, 30, 12, 3, 9, 0, 0, 0, 0, 0, dead
sensor, 31, 10, 0, 10, 0, 0, 0, 0, 0, dead
sensor, 32, 11, 1, 10, 0, 0, 0, 0, 0, dead
sensor, 33, 11, 1, 10, 0, 0, 0, 0, 0, dead
sensor, 34, 11, 1, 10, 0, 0, 0, 0, 0, dead
sensor, 35, 19, 10, 9, 0, 0, 0, 0, 0, dead
sensor, 36, 12, 1, 11, 0, 0, 0, 0, 0, dead
sensor, 37, 19, 10, 9, 0, 0, 0, 0, 0, dead
sensor, 38, 11, 1, 10, 0, 0, 0, 0, 0, dead
sensor, 39, 11, 2, 9, 0, 0, 0, 0, 0, dead
sensor, 40, 17, 8, 9, 0, 0, 0, 0, 0, dead
sensor, 41, 20, 9, 11, 0, 0, 0, 0, 0, dead
sensor, 42, 11, 1, 10, 0, 0, 0, 0, 0, dead
sensor, 43, 11, 2, 9, 0, 0, 0, 0, 0, dead
sensor, 44, 14, 4, 10, 0, 0, 0, 0, 0, dead
sensor, 45, 18, 9, 9, 0, 0, 0, 0, 0, dead
sensor, 46, 13, 3, 10, 0, 0, 0, 0, 0, dead
sensor, 47, 11, 1, 10, 0, 0, 0, 0, 0, dead
sensor, 48, 12, 3, 9, 0, 0, 0, 0, 0, dead
sensor, 49, 10, 1, 9, 0, 0, 0, 0, 0, dead
sensor, 50, 13, 3, 10, 0, 0, 0, 0, 0, dead
sensor, 51, 12, 1, 11, 0, 0, 0, 0, 0, dead
sensor, 52, 17, 7, 10, 0, 0, 0, 0, 0, dead
sensor, 53, 11, 1, 10, 0, 0, 0, 0, 0, dead
sensor, 54, 10, 0, 10, 0, 0, 0, 0, 0, dead
sensor, 55, 11, 1, 10, 0, 0, 0, 0, 0, dead
sensor, 56, 13, 3, 10, 0, 0, 0, 0, 0, dead
sensor, 57, 11, 1, 10, 0, 0, 0, 0, 0, dead
sensor, 58, 11, 1, 10, 0, 0, 0, 0, 0, dead
sensor, 59, 12, 1, 11, 0, 0, 0, 0, 0, dead
sensor, 60, 13, 4, 9, 0, 0, 0, 0, 0, dead
sensor, 61, 11, 1, 10, 0, 0, 0, 0, 0, dead
sensor, 62, 11, 1, 10, 0, 0, 0, 0, 0, dead
sensor, 63, 12, 2, 10, 0, 0, 0, 0, 0, dead
sensor, 64, 11, 1, 10, 0, 0, 0, 0, 0, dead
sensor, 65, 11, 1, 10, 0, 0, 0, 0, 0, dead
sensor, 66, 16, 6, 10, 0, 0, 0, 0, 0, dead
sensor, 67, 12, 2, 10, 0, 0, 0, 0, 0, dead
sensor, 68, 11, 1, 10, 0, 0, 0, 0, 0, dead
sensor, 69, 10, 1, 9, 0, 0, 0, 0, 0, dead
sensor, 70, 13, 3, 10, 0, 0, 0, 0, 0, dead
sensor, 71, 11, 1, 10, 0, 0, 0, 0, 0, dead
sensor, 72, 11, 2, 9, 0, 0, 0, 0, 0, dead
sensor, 73, 13, 3, 10, 0, 0, 0, 0, 0, dead
sensor, 74, 10, 1, 9, 0, 0, 0, 0, 0, dead
sensor, 75, 13, 4, 9, 0, 0, 0, 0, 0, dead
sensor, 76, 12, 1, 11, 0, 0, 0, 0, 0, dead
sensor, 77, 12, 1, 11, 0, 0, 0, 0, 0, dead
sensor, 78, 10, 0, 10, 0, 0, 0, 0, 0, dead
sensor, 79, 13, 3, 10, 0, 0, 0, 0, 0, dead
sensor, 80, 17, 7, 10, 0, 0, 0, 0, 0, dead
sensor, 81, 10, 1, 9, 0, 0, 0, 0, 0, dead
sensor, 82, 16, 7, 9, 0, 0, 0, 0, 0, dead
sensor, 83, 14, 4, 10, 0, 0, 0, 0, 0, dead
sensor, 84, 11, 1, 10, 0, 0, 0, 0, 0, dead
sensor, 85, 10, 1, 9, 0, 0, 0, 0, 0, dead
sensor, 86, 11, 1, 10, 0, 0, 0, 0, 0, dead
sensor, 87, 11, 1, 10, 0, 0, 0, 0, 0, dead
sensor, 88, 11, 1, 10, 0, 0, 0, 0, 0, dead
sensor, 89, 11, 1, 10, 0, 0, 0, 0, 0, dead
sensor, 90, 11, 1, 10, 0, 0, 0, 0, 0, dead
sensor, 91, 12, 1, 11, 0, 0, 0, 0, 0, dead
sensor, 92, 9, 0, 9, 0, 0, 0, 0, 0, dead
sensor, 93, 11, 1, 10, 0, 0, 0, 0, 0, dead
sensor, 94, 11, 1, 10, 0, 0, 0, 0, 0, dead
sensor, 95, 17, 8, 9, 0, 0, 0, 0, 0, dead
sensor, 96, 11, 1, 10, 0, 0, 0, 0, 0, dead
sensor, 97, 12, 2, 10, 0, 0, 0, 0, 0, dead
sensor, 98, 11, 1, 10, 0, 0, 0, 0, 0, dead
sensor, 99, 12, 2, 10, 0, 0, 0, 0, 0, dead
