packet, 36, 104, 0, 33.8, 3, 0.086016, False
packet, 3, 165, 0, 40.15, 3, 0.086016, False
packet, 33, 152, 0, 41.98, 3, 0.086016, False
packet, 76, 186, 0, 44.64, 3, 0.086016, False
packet, 9, 223, 0, 45.96, 3, 0.086016, False
packet, 17, 71, 0, 48.78, 3, 0.086016, False
packet, 37, 272, 0, 53.25, 3, 0.086016, False
packet, 61, 194, 0, 55.51, 3, 0.086016, False
packet, 38, 142, 0, 57.1, 3, 0.086016, False
packet, 92, 260, 0, 63.02, 3, 0.086016, False
packet, 128, 99, 0, 64.44, 3, 0.086016, False
packet, 24, 49, 0, 68.07, 3, 0.086016, False
packet, 40, 57, 0, 69.72, 3, 0.086016, False
packet, 77, 102, 0, 73.28, 3, 0.086016, False
packet, 144, 297, 0, 76.83, 3, 0.086016, False
packet, 60, 206, 0, 78.39, 3, 0.086016, False
packet, 34, 176, 0, 80.95, 3, 0.086016, False
packet, 95, 105, 0, 82.88, 3, 0.086016, False
packet, 65, 175, 0, 84.74, 3, 0.086016, False
packet, 91, 188, 0, 86.95, 3, 0.086016, False
packet, 159, 104, 0, 88.31, 3, 0.086016, False
packet, 70, 8, 0, 90.24, 3, 0.086016, False
packet, 53, 158, 0, 92.37, 3, 0.086016, False
packet, 99, 253, 0, 94.76, 3, 0.086016, False
packet, 49, 100, 0, 98.08, 3, 0.086016, False
packet, 63, 13, 0, 103.76, 3, 0.086016, False
packet, 20, 53, 0, 105.88, 3, 0.086016, False
packet, 31, 34, 0, 107.77, 3, 0.086016, False
packet, 109, 12, 0, 111.91, 3, 0.086016, False
packet, 64, 31, 0, 113.65, 5, 0.086016, False
packet, 115, 111, 0, 115.12, 3, 0.086016, False
packet, 18, 14, 0, 118.0, 5, 0.086016, False
packet, 171, 140, 0, 119.42, 3, 0.086016, False
packet, 182, 45, 0, 121.15, 3, 0.086016, False
packet, 140, 248, 0, 123.25, 3, 0.086016, False
packet, 43, 27, 0, 124.83, 3, 0.086016, False
packet, 116, 124, 0, 127.82, 3, 0.086016, False
packet, 51, 122, 0, 130.55, 5, 0.086016, False
packet, 54, 279, 0, 132.11, 3, 0.086016, False
packet, 163, 209, 0, 133.8, 3, 0.086016, False
packet, 96, 207, 0, 135.54, 3, 0.086016, False
packet, 122, 48, 0, 138.45, 3, 0.086016, False
packet, 28, 15, 0, 140.31, 3, 0.086016, True
packet, 167, 67, 0, 140.31, 3, 0.086016, True
packet, 145, 229, 0, 141.94, 4, 0.086016, True
packet, 141, 219, 0, 141.97, 4, 0.086016, True
packet, 191, 49, 0, 143.76, 3, 0.086016, False
packet, 84, 73, 0, 147.12, 3, 0.086016, False
packet, 106, 2, 0, 149.16, 3, 0.086016, False
packet, 126, 89, 0, 150.83, 3, 0.086016, False
packet, 45, 187, 0, 153.45, 5, 0.086016, False
packet, 200, 132, 0, 154.84, 3, 0.086016, False
packet, 225, 146, 0, 157.34, 3, 0.086016, False
packet, 172, 41, 0, 160.8, 3, 0.086016, False
packet, 220, 6, 0, 162.64, 3, 0.086016, False
packet, 148, 208, 0, 164.09, 3, 0.086016, False
packet, 118, 275, 0, 166.71, 4, 0.086016, False
packet, 48, 118, 0, 168.4, 3, 0.086016, False
packet, 2, 65, 0, 171.08, 3, 0.086016, False
packet, 215, 171, 0, 172.94, 3, 0.086016, False
packet, 226, 186, 0, 174.37, 3, 0.086016, False
packet, 219, 92, 0, 177.09, 3, 0.086016, False
packet, 82, 135, 0, 179.3, 3, 0.086016, False
packet, 210, 104, 0, 181.58, 3, 0.086016, False
packet, 218, 237, 0, 183.65, 3, 0.086016, False
packet, 271, 28, 0, 185.82, 3, 0.086016, False
packet, 164, 127, 0, 187.37, 4, 0.086016, False
packet, 157, 212, 0, 188.98, 3, 0.086016, False
packet, 194, 143, 0, 192.27, 3, 0.086016, False
packet, 245, 294, 0, 193.73, 3, 0.086016, False
packet, 90, 159, 0, 197.18, 4, 0.086016, False
packet, 59, 61, 0, 199.01, 5, 0.086016, False
packet, 110, 88, 0, 200.98, 4, 0.086016, False
packet, 247, 228, 0, 202.41, 3, 0.086016, False
packet, 235, 93, 0, 204.0, 3, 0.086016, False
packet, 87, 96, 0, 206.87, 6, 0.086016, False
packet, 26, 293, 0, 208.21, 4, 0.086016, False
packet, 275, 243, 0, 210.56, 3, 0.086016, False
packet, 112, 195, 0, 213.82, 3, 0.086016, False
packet, 254, 234, 0, 215.24, 3, 0.086016, False
packet, 30, 43, 0, 216.91, 4, 0.086016, False
packet, 124, 177, 0, 220.55, 5, 0.086016, False
packet, 266, 217, 0, 222.36, 3, 0.086016, False
packet, 97, 220, 0, 229.52, 4, 0.086016, False
packet, 293, 182, 0, 232.2, 3, 0.086016, False
packet, 103, 251, 0, 234.17, 4, 0.086016, False
packet, 161, 72, 0, 236.98, 5, 0.086016, False
packet, 267, 50, 0, 238.7, 3, 0.086016, False
packet, 214, 181, 0, 240.18, 4, 0.086016, False
packet, 188, 285, 0, 243.37, 5, 0.086016, False
packet, 81, 252, 0, 245.04, 4, 0.086016, False
packet, 223, 273, 0, 247.17, 6, 0.086016, False
packet, 197, 183, 0, 248.66, 5, 0.086016, False
packet, 231, 44, 0, 250.41, 4, 0.086016, False
packet, 139, 22, 0, 254.58, 5, 0.086016, False
packet, 240, 100, 0, 256.8, 3, 0.086016, False
packet, 268, 213, 0, 258.33, 3, 0.086016, False
packet, 176, 116, 0, 261.91, 5, 0.086016, False
packet, 23, 137, 0, 263.56, 5, 0.086016, False
packet, 211, 136, 0, 266.07, 4, 0.086016, False
packet, 217, 174, 0, 267.62, 4, 0.086016, False
packet, 221, 71, 0, 269.59, 3, 0.086016, True
packet, 288, 173, 0, 269.62, 3, 0.086016, True
packet, 50, 264, 0, 272.73, 6, 0.086016, True
packet, 332, 272, 0, 272.74, 3, 0.086016, True
packet, 265, 6, 0, 274.68, 4, 0.086016, False
packet, 69, 82, 0, 276.5, 4, 0.086016, False
packet, 258, 132, 0, 278.72, 3, 0.086016, False
packet, 114, 151, 0, 282.38, 4, 0.086016, False
packet, 328, 251, 0, 283.84, 3, 0.086016, False
packet, 151, 80, 0, 287.04, 4, 0.086016, False
packet, 299, 118, 0, 289.86, 3, 0.086016, False
packet, 111, 155, 0, 293.92, 5, 0.086016, False
packet, 287, 201, 0, 295.53, 3, 0.086016, False
packet, 285, 145, 0, 298.14, 5, 0.086016, False
packet, 132, 23, 0, 300.08, 4, 0.086016, False
packet, 338, 96, 0, 302.21, 3, 0.086016, False
packet, 272, 299, 0, 303.56, 4, 0.086016, True
packet, 264, 42, 0, 303.6, 4, 0.086016, True
packet, 201, 112, 0, 306.08, 4, 0.086016, False
packet, 134, 24, 0, 308.86, 6, 0.086016, False
packet, 150, 64, 0, 311.0, 6, 0.086016, False
packet, 331, 177, 0, 313.06, 3, 0.086016, False
packet, 185, 157, 0, 315.21, 4, 0.086016, False
packet, 347, 275, 0, 317.58, 3, 0.086016, False
packet, 354, 223, 0, 321.27, 3, 0.086016, False
packet, 291, 172, 0, 322.92, 3, 0.086016, False
packet, 335, 22, 0, 324.45, 3, 0.086016, False
packet, 360, 201, 0, 328.85, 3, 0.086016, False
packet, 310, 204, 0, 330.72, 3, 0.086016, False
packet, 242, 239, 0, 332.16, 6, 0.086016, True
packet, 357, 248, 0, 332.18, 4, 0.086016, True
packet, 67, 149, 0, 335.97, 5, 0.086016, False
packet, 180, 289, 0, 338.89, 4, 0.086016, True
packet, 380, 67, 0, 338.89, 3, 0.086016, True
packet, 296, 15, 0, 340.53, 4, 0.086016, False
packet, 358, 91, 0, 342.52, 3, 0.086016, False
packet, 246, 0, 0, 347.01, 5, 0.086016, False
packet, 146, 246, 0, 349.72, 5, 0.086016, False
packet, 155, 98, 0, 352.47, 6, 0.086016, False
packet, 74, 236, 0, 354.59, 6, 0.086016, False
packet, 313, 130, 0, 356.74, 5, 0.086016, False
packet, 238, 74, 0, 358.49, 6, 0.086016, False
packet, 352, 29, 0, 360.01, 3, 0.086016, False
packet, 317, 209, 0, 361.39, 4, 0.086016, False
packet, 234, 193, 0, 363.58, 5, 0.086016, False
packet, 333, 43, 0, 365.92, 3, 0.086016, False
packet, 93, 277, 0, 368.18, 5, 0.086016, False
packet, 322, 61, 0, 369.97, 3, 0.086016, False
packet, 373, 252, 0, 371.47, 3, 0.086016, False
packet, 56, 298, 0, 373.56, 7, 0.086016, False
packet, 372, 73, 0, 376.55, 3, 0.086016, False
packet, 105, 224, 0, 382.85, 4, 0.086016, False
packet, 359, 166, 0, 384.61, 3, 0.086016, False
packet, 377, 182, 0, 389.65, 3, 0.086016, False
packet, 383, 170, 0, 391.56, 3, 0.086016, False
packet, 297, 290, 0, 393.18, 4, 0.086016, False
packet, 298, 186, 0, 395.34, 5, 0.086016, False
packet, 385, 223, 0, 397.25, 4, 0.086016, False
packet, 75, 211, 0, 398.91, 6, 0.086016, False
packet, 353, 71, 0, 400.26, 4, 0.086016, False
packet, 73, 75, 0, 404.82, 4, 0.086016, False
packet, 361, 80, 0, 407.78, 4, 0.086016, False
packet, 398, 193, 0, 409.32, 3, 0.086016, False
packet, 413, 181, 0, 412.64, 3, 0.086016, False
packet, 279, 76, 0, 415.64, 5, 0.086016, True
packet, 412, 204, 0, 415.68, 3, 0.086016, True
packet, 320, 26, 0, 417.27, 5, 0.086016, False
packet, 401, 91, 0, 419.25, 3, 0.086016, False
packet, 414, 264, 0, 421.76, 3, 0.086016, False
packet, 78, 160, 0, 423.17, 6, 0.086016, False
packet, 362, 167, 0, 426.2, 3, 0.086016, False
packet, 47, 17, 0, 428.26, 7, 0.086016, False
packet, 133, 180, 0, 430.41, 6, 0.086016, False
packet, 324, 41, 0, 432.8, 4, 0.086016, False
packet, 416, 116, 0, 434.57, 3, 0.086016, False
packet, 321, 171, 0, 436.28, 5, 0.086016, False
packet, 208, 138, 0, 437.85, 6, 0.086016, False
packet, 308, 113, 0, 439.91, 6, 0.086016, False
packet, 337, 146, 0, 441.38, 4, 0.086016, False
packet, 98, 226, 0, 443.32, 8, 0.086016, False
packet, 143, 286, 0, 444.87, 6, 0.086016, False
packet, 179, 57, 0, 447.18, 7, 0.086016, False
packet, 244, 38, 0, 451.08, 6, 0.086016, False
packet, 22, 250, 0, 453.0, 8, 0.086016, False
packet, 89, 240, 0, 454.57, 7, 0.086016, False
packet, 162, 108, 0, 457.76, 5, 0.086016, False
packet, 290, 53, 0, 459.98, 4, 0.086016, False
packet, 295, 111, 0, 462.98, 5, 0.086016, False
packet, 252, 255, 0, 464.56, 6, 0.086016, False
packet, 430, 289, 0, 465.93, 3, 0.086016, False
packet, 389, 201, 0, 470.06, 5, 0.086016, False
packet, 183, 128, 0, 471.8, 5, 0.086016, False
packet, 277, 231, 0, 477.65, 5, 0.086016, False
packet, 463, 4, 0, 479.17, 3, 0.086016, False
packet, 449, 181, 0, 484.12, 3, 0.086016, False
packet, 396, 23, 0, 486.88, 3, 0.086016, False
packet, 447, 113, 0, 489.06, 3, 0.086016, False
packet, 302, 27, 0, 490.81, 5, 0.086016, False
packet, 269, 131, 0, 492.81, 6, 0.086016, False
packet, 102, 258, 0, 494.47, 8, 0.086016, False
packet, 80, 281, 0, 498.64, 6, 0.086016, False
packet, 199, 46, 0, 500.76, 8, 0.086016, False
packet, 280, 284, 0, 502.24, 5, 0.086016, False
packet, 203, 139, 0, 506.56, 6, 0.086016, False
packet, 458, 264, 0, 508.96, 3, 0.086016, False
packet, 410, 74, 0, 511.19, 5, 0.086016, False
packet, 79, 203, 0, 512.8, 6, 0.086016, False
packet, 336, 125, 0, 514.69, 5, 0.086016, False
packet, 429, 130, 0, 517.39, 3, 0.086016, False
packet, 351, 75, 0, 520.07, 4, 0.086016, False
packet, 462, 211, 0, 521.97, 4, 0.086016, False
packet, 42, 95, 0, 525.75, 6, 0.086016, False
packet, 101, 120, 0, 527.88, 6, 0.086016, False
packet, 88, 191, 0, 530.31, 8, 0.086016, False
packet, 32, 106, 0, 534.73, 7, 0.086016, False
packet, 476, 43, 0, 536.34, 3, 0.086016, False
packet, 13, 235, 0, 538.21, 7, 0.086016, False
packet, 460, 160, 0, 540.27, 3, 0.086016, False
packet, 421, 227, 0, 545.17, 5, 0.086016, False
packet, 471, 170, 0, 550.43, 3, 0.086016, False
packet, 367, 64, 0, 552.55, 4, 0.086016, False
packet, 250, 266, 0, 555.16, 7, 0.086016, False
packet, 442, 171, 0, 557.01, 5, 0.086016, False
packet, 39, 11, 0, 558.4, 7, 0.086016, False
packet, 345, 261, 0, 561.5, 5, 0.086016, False
packet, 209, 35, 0, 563.22, 8, 0.086016, False
packet, 342, 174, 0, 565.23, 6, 0.086016, False
packet, 249, 94, 0, 566.94, 6, 0.086016, False
packet, 375, 275, 0, 568.36, 5, 0.086016, False
packet, 363, 72, 0, 570.44, 4, 0.086016, False
packet, 452, 82, 0, 572.14, 3, 0.086016, False
packet, 243, 199, 0, 574.43, 7, 0.086016, False
packet, 455, 155, 0, 576.16, 4, 0.086016, False
packet, 438, 12, 0, 577.85, 4, 0.086016, False
packet, 493, 132, 0, 582.4, 3, 0.086016, False
packet, 491, 201, 0, 585.74, 3, 0.086016, False
packet, 147, 134, 0, 589.83, 7, 0.086016, True
packet, 457, 91, 0, 589.85, 4, 0.086016, True
packet, 418, 251, 0, 593.3, 5, 0.086016, False
packet, 286, 185, 0, 594.88, 6, 0.086016, False
packet, 481, 94, 0, 598.28, 3, 0.086016, False
packet, 475, 4, 0, 599.88, 3, 0.086016, False
packet, 379, 151, 0, 602.79, 7, 0.086016, False
packet, 306, 8, 0, 604.95, 5, 0.086016, False
packet, 16, 280, 0, 607.22, 10, 0.086016, True
packet, 371, 115, 0, 607.23, 4, 0.086016, True
packet, 428, 292, 0, 608.92, 6, 0.086016, False
packet, 319, 293, 0, 613.52, 5, 0.086016, False
packet, 386, 256, 0, 615.74, 4, 0.086016, False
packet, 85, 215, 0, 617.29, 7, 0.086016, False
packet, 496, 120, 0, 619.33, 3, 0.086016, False
packet, 349, 137, 0, 620.87, 6, 0.086016, False
packet, 395, 143, 0, 623.2, 7, 0.086016, False
packet, 494, 24, 0, 624.65, 3, 0.086016, False
packet, 499, 284, 0, 626.19, 3, 0.086016, False
packet, 444, 139, 0, 629.57, 5, 0.086016, False
packet, 431, 150, 0, 631.16, 4, 0.086016, False
packet, 488, 95, 0, 635.37, 5, 0.086016, False
packet, 508, 91, 0, 637.57, 3, 0.086016, False
packet, 312, 81, 0, 639.53, 6, 0.086016, False
packet, 461, 289, 0, 643.86, 5, 0.086016, False
packet, 35, 295, 0, 647.3, 8, 0.086016, False
packet, 11, 214, 0, 648.75, 7, 0.086016, False
packet, 519, 240, 0, 651.67, 3, 0.086016, False
packet, 300, 93, 0, 659.59, 7, 0.086016, False
packet, 273, 124, 0, 662.69, 7, 0.086016, False
packet, 532, 24, 0, 664.46, 3, 0.086016, False
packet, 528, 211, 0, 666.14, 3, 0.086016, False
packet, 480, 26, 0, 668.85, 4, 0.086016, False
packet, 405, 98, 0, 672.89, 6, 0.086016, False
packet, 523, 185, 0, 675.03, 3, 0.086016, False
packet, 541, 81, 0, 676.73, 3, 0.086016, True
packet, 485, 186, 0, 676.73, 6, 0.086016, True
packet, 71, 107, 0, 684.16, 9, 0.086016, False
packet, 515, 155, 0, 686.78, 3, 0.086016, False
packet, 522, 15, 0, 688.39, 3, 0.086016, False
packet, 228, 190, 0, 691.15, 8, 0.086016, False
packet, 517, 174, 0, 692.72, 3, 0.086016, True
packet, 544, 44, 0, 692.73, 3, 0.086016, True
packet, 292, 33, 0, 694.14, 6, 0.086016, False
packet, 62, 37, 0, 696.51, 10, 0.086016, False
packet, 550, 8, 0, 698.76, 3, 0.086016, False
packet, 495, 27, 0, 700.41, 4, 0.086016, False
packet, 524, 43, 0, 702.04, 3, 0.086016, False
packet, 492, 235, 0, 703.52, 4, 0.086016, False
packet, 6, 230, 0, 705.27, 7, 0.086016, False
packet, 384, 14, 0, 706.86, 7, 0.086016, False
packet, 474, 177, 0, 708.4, 4, 0.086016, False
packet, 8, 114, 0, 709.85, 9, 0.086016, False
packet, 177, 39, 0, 714.09, 6, 0.086016, False
packet, 453, 149, 0, 717.2, 6, 0.086016, False
packet, 237, 238, 0, 719.74, 7, 0.086016, False
packet, 282, 165, 0, 724.9, 5, 0.086016, False
packet, 487, 191, 0, 728.54, 4, 0.086016, False
packet, 187, 245, 0, 730.91, 8, 0.086016, False
packet, 510, 132, 0, 732.81, 3, 0.086016, False
packet, 365, 145, 0, 734.32, 6, 0.086016, False
packet, 563, 93, 0, 736.01, 3, 0.086016, False
packet, 315, 19, 0, 740.47, 5, 0.086016, False
packet, 554, 295, 0, 743.36, 3, 0.086016, False
packet, 520, 12, 0, 744.91, 5, 0.086016, False
packet, 340, 104, 0, 748.33, 5, 0.086016, False
packet, 344, 31, 0, 750.01, 7, 0.086016, False
packet, 557, 170, 0, 751.39, 3, 0.086016, False
packet, 489, 193, 0, 756.19, 5, 0.086016, False
packet, 479, 113, 0, 759.18, 5, 0.086016, False
packet, 565, 26, 0, 760.68, 3, 0.086016, False
packet, 562, 124, 0, 763.37, 3, 0.086016, False
packet, 473, 223, 0, 765.03, 5, 0.086016, False
packet, 509, 112, 0, 766.48, 4, 0.086016, False
packet, 125, 123, 0, 771.12, 7, 0.086016, False
packet, 10, 78, 0, 774.03, 9, 0.086016, False
packet, 483, 135, 0, 776.06, 5, 0.086016, False
packet, 581, 284, 0, 777.42, 3, 0.086016, False
packet, 529, 41, 0, 779.24, 4, 0.086016, False
packet, 329, 294, 0, 781.53, 6, 0.086016, False
packet, 536, 72, 0, 785.42, 5, 0.086016, False
packet, 415, 243, 0, 788.05, 6, 0.086016, False
packet, 301, 158, 0, 790.09, 7, 0.086016, False
packet, 446, 78, 0, 792.15, 3, 0.086016, False
packet, 561, 24, 0, 795.57, 3, 0.086016, False
packet, 594, 104, 0, 797.18, 3, 0.086016, False
packet, 366, 228, 0, 800.54, 7, 0.086016, False
packet, 605, 170, 0, 805.6, 3, 0.086016, False
packet, 478, 266, 0, 807.62, 5, 0.086016, False
packet, 574, 215, 0, 811.46, 5, 0.086016, False
packet, 448, 88, 0, 813.42, 6, 0.086016, False
packet, 570, 37, 0, 815.38, 3, 0.086016, False
packet, 534, 251, 0, 817.46, 4, 0.086016, False
packet, 535, 115, 0, 819.54, 4, 0.086016, False
packet, 598, 193, 0, 821.71, 3, 0.086016, False
packet, 531, 137, 0, 824.77, 5, 0.086016, False
packet, 52, 63, 0, 826.78, 9, 0.086016, False
packet, 129, 265, 0, 828.29, 7, 0.086016, False
packet, 564, 190, 0, 830.54, 3, 0.086016, False
packet, 584, 171, 0, 832.06, 3, 0.086016, False
packet, 426, 80, 0, 838.15, 6, 0.086016, False
packet, 400, 208, 0, 840.49, 7, 0.086016, False
packet, 259, 247, 0, 843.84, 6, 0.086016, False
packet, 484, 73, 0, 845.63, 6, 0.086016, False
packet, 589, 82, 0, 848.3, 4, 0.086016, False
packet, 623, 186, 0, 853.52, 3, 0.086016, False
packet, 610, 114, 0, 855.01, 3, 0.086016, False
packet, 609, 240, 0, 857.28, 3, 0.086016, False
packet, 603, 235, 0, 859.11, 3, 0.086016, False
packet, 229, 242, 0, 861.93, 8, 0.086016, False
packet, 305, 297, 0, 864.13, 7, 0.086016, False
packet, 423, 61, 0, 865.85, 7, 0.086016, False
packet, 327, 92, 0, 867.34, 8, 0.086016, False
packet, 551, 91, 0, 873.97, 4, 0.086016, False
packet, 46, 218, 0, 877.88, 9, 0.086016, False
packet, 158, 141, 0, 880.01, 9, 0.086016, False
packet, 640, 75, 0, 881.55, 4, 0.086016, False
packet, 648, 112, 0, 883.21, 3, 0.086016, False
packet, 530, 130, 0, 885.23, 4, 0.086016, False
packet, 625, 149, 0, 891.28, 3, 0.086016, False
packet, 270, 283, 0, 892.81, 9, 0.086016, False
packet, 601, 231, 0, 894.38, 4, 0.086016, False
packet, 647, 98, 0, 896.71, 3, 0.086016, False
packet, 540, 224, 0, 899.35, 5, 0.086016, False
packet, 592, 238, 0, 902.1, 5, 0.086016, False
packet, 641, 145, 0, 907.2, 3, 0.086016, False
packet, 653, 12, 0, 909.83, 3, 0.086016, False
packet, 236, 85, 0, 911.84, 7, 0.086016, False
packet, 632, 250, 0, 913.53, 3, 0.086016, False
packet, 600, 31, 0, 915.74, 4, 0.086016, False
packet, 558, 11, 0, 918.69, 4, 0.086016, False
packet, 261, 197, 0, 920.95, 9, 0.086016, False
packet, 668, 235, 0, 924.21, 3, 0.086016, False
packet, 281, 87, 0, 927.11, 6, 0.086016, False
packet, 521, 280, 0, 928.98, 6, 0.086016, False
packet, 241, 10, 0, 931.34, 6, 0.086016, False
packet, 684, 174, 0, 932.89, 3, 0.086016, False
packet, 633, 266, 0, 935.04, 4, 0.086016, False
packet, 160, 90, 0, 938.05, 10, 0.086016, False
packet, 681, 180, 0, 939.64, 3, 0.086016, False
packet, 585, 211, 0, 941.76, 5, 0.086016, False
packet, 683, 258, 0, 943.35, 3, 0.086016, False
packet, 370, 96, 0, 947.14, 7, 0.086016, False
packet, 680, 252, 0, 948.82, 3, 0.086016, False
packet, 436, 167, 0, 951.03, 6, 0.086016, False
packet, 278, 45, 0, 953.17, 9, 0.086016, False
packet, 556, 128, 0, 954.87, 5, 0.086016, False
packet, 615, 81, 0, 958.48, 4, 0.086016, False
packet, 437, 146, 0, 960.2, 9, 0.086016, False
packet, 454, 254, 0, 963.79, 8, 0.086016, False
packet, 704, 218, 0, 970.46, 3, 0.086016, False
packet, 549, 131, 0, 974.57, 7, 0.086016, False
packet, 707, 193, 0, 980.21, 3, 0.086016, False
packet, 691, 61, 0, 981.62, 3, 0.086016, False
packet, 660, 10, 0, 983.54, 3, 0.086016, False
packet, 713, 41, 0, 986.7, 3, 0.086016, False
packet, 627, 170, 0, 990.65, 4, 0.086016, False
packet, 670, 27, 0, 992.35, 3, 0.086016, False
packet, 679, 75, 0, 995.08, 5, 0.086016, False
packet, 669, 82, 0, 1001.32, 3, 0.086016, False
packet, 425, 161, 0, 1004.05, 7, 0.086016, False
packet, 411, 278, 0, 1005.95, 9, 0.086016, False
packet, 381, 194, 0, 1008.42, 8, 0.086016, False
packet, 714, 254, 0, 1010.52, 3, 0.086016, False
packet, 276, 237, 0, 1012.12, 6, 0.086016, False
packet, 731, 75, 0, 1015.62, 3, 0.086016, False
packet, 626, 294, 0, 1017.32, 5, 0.086016, False
packet, 635, 247, 0, 1021.58, 5, 0.086016, False
packet, 720, 211, 0, 1023.51, 3, 0.086016, False
packet, 699, 124, 0, 1025.55, 3, 0.086016, False
packet, 698, 71, 0, 1027.28, 3, 0.086016, False
packet, 597, 19, 0, 1029.51, 5, 0.086016, False
packet, 693, 98, 0, 1032.94, 3, 0.086016, False
packet, 599, 38, 0, 1036.12, 6, 0.086016, False
packet, 687, 167, 0, 1039.66, 4, 0.086016, False
packet, 612, 284, 0, 1042.53, 5, 0.086016, False
packet, 672, 161, 0, 1044.23, 3, 0.086016, False
packet, 644, 78, 0, 1047.43, 5, 0.086016, False
packet, 518, 6, 0, 1051.83, 7, 0.086016, False
packet, 735, 131, 0, 1058.24, 3, 0.086016, False
packet, 685, 15, 0, 1061.39, 4, 0.086016, False
packet, 649, 80, 0, 1063.29, 5, 0.086016, False
packet, 440, 236, 0, 1064.68, 8, 0.086016, False
packet, 739, 45, 0, 1066.45, 3, 0.086016, False
packet, 57, 262, 0, 1068.2, 8, 0.086016, False
packet, 751, 123, 0, 1069.69, 3, 0.086016, False
packet, 703, 31, 0, 1073.43, 3, 0.086016, False
packet, 729, 91, 0, 1077.76, 4, 0.086016, False
packet, 503, 23, 0, 1079.84, 7, 0.086016, False
packet, 722, 149, 0, 1081.28, 3, 0.086016, False
packet, 766, 81, 0, 1083.59, 3, 0.086016, False
packet, 727, 41, 0, 1088.61, 4, 0.086016, False
packet, 743, 146, 0, 1090.29, 3, 0.086016, False
packet, 294, 229, 0, 1095.22, 7, 0.086016, False
packet, 701, 290, 0, 1097.47, 4, 0.086016, True
packet, 662, 39, 0, 1097.51, 6, 0.086016, True
packet, 700, 191, 0, 1099.17, 5, 0.086016, False
packet, 14, 20, 0, 1102.32, 10, 0.086016, False
packet, 776, 45, 0, 1105.98, 3, 0.086016, False
packet, 121, 60, 0, 1108.36, 8, 0.086016, False
packet, 505, 203, 0, 1110.07, 7, 0.086016, False
packet, 770, 75, 0, 1115.65, 3, 0.086016, False
packet, 767, 82, 0, 1118.04, 3, 0.086016, False
packet, 795, 149, 0, 1119.92, 3, 0.086016, False
packet, 149, 110, 0, 1123.17, 7, 0.086016, False
packet, 782, 161, 0, 1125.84, 3, 0.086016, False
packet, 783, 278, 0, 1131.8, 4, 0.086016, False
packet, 608, 87, 0, 1134.5, 6, 0.086016, False
packet, 732, 20, 0, 1137.06, 3, 0.086016, False
packet, 717, 215, 0, 1139.83, 4, 0.086016, False
packet, 613, 60, 0, 1142.26, 3, 0.086016, False
packet, 654, 43, 0, 1143.71, 6, 0.086016, False
packet, 695, 137, 0, 1147.39, 5, 0.086016, False
packet, 723, 258, 0, 1149.58, 5, 0.086016, False
packet, 750, 295, 0, 1151.53, 3, 0.086016, False
packet, 490, 125, 0, 1155.59, 9, 0.086016, True
packet, 572, 197, 0, 1155.61, 5, 0.086016, True
packet, 761, 98, 0, 1161.09, 3, 0.086016, False
packet, 808, 186, 0, 1162.7, 3, 0.086016, False
packet, 802, 203, 0, 1166.13, 3, 0.086016, False
packet, 675, 208, 0, 1168.06, 5, 0.086016, False
packet, 765, 112, 0, 1171.51, 4, 0.086016, False
packet, 771, 27, 0, 1173.16, 3, 0.086016, False
packet, 715, 190, 0, 1174.88, 5, 0.086016, False
packet, 153, 36, 0, 1176.36, 9, 0.086016, False
packet, 686, 171, 0, 1177.72, 5, 0.086016, False
packet, 378, 157, 0, 1179.92, 8, 0.086016, False
packet, 777, 247, 0, 1185.15, 3, 0.086016, False
packet, 760, 224, 0, 1187.15, 4, 0.086016, False
packet, 595, 165, 0, 1191.3, 5, 0.086016, False
packet, 655, 36, 0, 1194.08, 3, 0.086016, False
packet, 676, 201, 0, 1196.78, 5, 0.086016, False
packet, 538, 120, 0, 1199.76, 8, 0.086016, False
packet, 763, 243, 0, 1204.31, 5, 0.086016, False
packet, 696, 12, 0, 1206.11, 5, 0.086016, False
packet, 422, 67, 0, 1207.87, 8, 0.086016, False
packet, 711, 242, 0, 1211.76, 4, 0.086016, False
packet, 746, 218, 0, 1213.89, 4, 0.086016, False
packet, 192, 178, 0, 1217.89, 10, 0.086016, False
packet, 835, 247, 0, 1219.47, 3, 0.086016, False
packet, 826, 60, 0, 1223.77, 3, 0.086016, False
packet, 369, 100, 0, 1225.28, 9, 0.086016, False
packet, 834, 43, 0, 1226.87, 3, 0.086016, False
packet, 741, 231, 0, 1228.39, 5, 0.086016, False
packet, 58, 222, 0, 1230.51, 8, 0.086016, False
packet, 754, 115, 0, 1235.27, 4, 0.086016, False
packet, 847, 294, 0, 1237.02, 3, 0.086016, False
packet, 634, 251, 0, 1238.62, 7, 0.086016, False
packet, 41, 276, 0, 1241.08, 8, 0.086016, False
packet, 813, 191, 0, 1242.5, 3, 0.086016, False
packet, 464, 204, 0, 1245.61, 9, 0.086016, False
packet, 659, 143, 0, 1247.05, 7, 0.086016, False
packet, 841, 201, 0, 1248.8, 3, 0.086016, False
packet, 567, 139, 0, 1250.39, 6, 0.086016, False
packet, 724, 252, 0, 1252.82, 5, 0.086016, False
packet, 657, 114, 0, 1258.13, 6, 0.086016, False
packet, 819, 137, 0, 1261.51, 5, 0.086016, False
packet, 845, 78, 0, 1264.93, 3, 0.086016, False
packet, 825, 250, 0, 1266.5, 3, 0.086016, False
packet, 4, 133, 0, 1269.1, 9, 0.086016, False
packet, 339, 216, 0, 1270.53, 9, 0.086016, False
packet, 840, 190, 0, 1272.46, 3, 0.086016, False
packet, 821, 236, 0, 1275.32, 3, 0.086016, False
packet, 827, 161, 0, 1278.84, 3, 0.086016, False
packet, 441, 298, 0, 1282.83, 9, 0.086016, False
packet, 752, 100, 0, 1288.25, 3, 0.086016, False
packet, 501, 35, 0, 1290.68, 7, 0.086016, False
packet, 875, 60, 0, 1292.16, 3, 0.086016, False
packet, 207, 34, 0, 1295.5, 9, 0.086016, False
packet, 828, 194, 0, 1297.17, 5, 0.086016, False
packet, 839, 258, 0, 1298.91, 5, 0.086016, False
packet, 341, 48, 0, 1307.51, 11, 0.086016, False
packet, 407, 209, 0, 1316.48, 7, 0.086016, True
packet, 547, 256, 0, 1316.49, 9, 0.086016, True
packet, 576, 199, 0, 1319.16, 9, 0.086016, False
packet, 906, 27, 0, 1321.33, 3, 0.086016, False
packet, 667, 292, 0, 1324.79, 7, 0.086016, False
packet, 873, 41, 0, 1326.28, 4, 0.086016, False
packet, 468, 17, 0, 1328.3, 9, 0.086016, False
packet, 621, 229, 0, 1329.91, 6, 0.086016, False
packet, 893, 114, 0, 1331.88, 3, 0.086016, False
packet, 884, 115, 0, 1334.91, 4, 0.086016, False
packet, 193, 3, 0, 1337.25, 8, 0.086016, False
packet, 887, 12, 0, 1339.98, 3, 0.086016, False
packet, 805, 39, 0, 1343.22, 4, 0.086016, False
packet, 913, 251, 0, 1346.5, 3, 0.086016, False
packet, 896, 186, 0, 1350.48, 3, 0.086016, False
packet, 555, 264, 0, 1355.52, 8, 0.086016, False
packet, 573, 95, 0, 1357.07, 7, 0.086016, False
packet, 879, 208, 0, 1358.52, 4, 0.086016, False
packet, 889, 78, 0, 1360.34, 3, 0.086016, True
packet, 867, 191, 0, 1360.38, 3, 0.086016, True
packet, 909, 258, 0, 1361.89, 3, 0.086016, False
packet, 68, 198, 0, 1368.47, 9, 0.086016, False
packet, 924, 143, 0, 1371.16, 3, 0.086016, False
packet, 127, 257, 0, 1374.07, 9, 0.086016, False
packet, 792, 71, 0, 1376.93, 4, 0.086016, False
packet, 274, 102, 0, 1379.54, 9, 0.086016, False
packet, 933, 199, 0, 1382.0, 3, 0.086016, False
packet, 922, 297, 0, 1383.46, 3, 0.086016, False
packet, 527, 275, 0, 1385.54, 6, 0.086016, False
packet, 718, 96, 0, 1388.79, 6, 0.086016, False
packet, 506, 261, 0, 1391.78, 9, 0.086016, False
packet, 857, 167, 0, 1394.68, 5, 0.086016, False
packet, 870, 243, 0, 1399.92, 4, 0.086016, False
packet, 262, 59, 0, 1402.12, 9, 0.086016, True
packet, 898, 137, 0, 1402.12, 3, 0.086016, True
packet, 137, 7, 0, 1404.44, 10, 0.086016, False
packet, 604, 157, 0, 1406.24, 6, 0.086016, False
packet, 637, 228, 0, 1408.73, 7, 0.086016, True
packet, 314, 28, 0, 1408.76, 11, 0.086016, True
packet, 864, 102, 0, 1417.84, 3, 0.086016, False
packet, 546, 293, 0, 1420.4, 7, 0.086016, False
packet, 622, 298, 0, 1425.02, 5, 0.086016, False
packet, 955, 115, 0, 1430.86, 3, 0.086016, False
packet, 788, 180, 0, 1434.57, 6, 0.086016, False
packet, 350, 274, 0, 1437.69, 9, 0.086016, False
packet, 348, 84, 0, 1439.85, 9, 0.086016, False
packet, 911, 36, 0, 1441.19, 5, 0.086016, False
packet, 914, 247, 0, 1446.95, 4, 0.086016, False
packet, 1, 147, 0, 1450.35, 9, 0.086016, False
packet, 66, 291, 0, 1452.94, 10, 0.086016, False
packet, 960, 7, 0, 1454.47, 3, 0.086016, False
packet, 951, 39, 0, 1460.21, 3, 0.086016, False
packet, 977, 264, 0, 1462.16, 3, 0.086016, False
packet, 927, 27, 0, 1465.39, 5, 0.086016, False
packet, 968, 17, 0, 1467.68, 3, 0.086016, False
packet, 877, 235, 0, 1469.69, 4, 0.086016, False
packet, 346, 272, 0, 1471.21, 10, 0.086016, False
packet, 804, 19, 0, 1474.85, 5, 0.086016, False
packet, 945, 143, 0, 1478.82, 3, 0.086016, False
packet, 915, 293, 0, 1481.83, 3, 0.086016, False
packet, 979, 96, 0, 1483.97, 3, 0.086016, False
packet, 980, 180, 0, 1485.55, 3, 0.086016, False
packet, 433, 110, 0, 1487.91, 6, 0.086016, False
packet, 472, 46, 0, 1489.91, 9, 0.086016, False
packet, 507, 147, 0, 1495.83, 3, 0.086016, False
packet, 958, 278, 0, 1497.51, 4, 0.086016, False
packet, 940, 12, 0, 1501.76, 3, 0.086016, False
packet, 779, 15, 0, 1504.03, 7, 0.086016, False
packet, 882, 6, 0, 1506.4, 5, 0.086016, False
packet, 740, 35, 0, 1508.17, 5, 0.086016, False
packet, 928, 250, 0, 1510.77, 5, 0.086016, False
packet, 812, 81, 0, 1514.74, 7, 0.086016, False
packet, 406, 173, 0, 1516.95, 8, 0.086016, False
packet, 854, 46, 0, 1518.97, 3, 0.086016, False
packet, 942, 236, 0, 1521.83, 4, 0.086016, False
packet, 910, 43, 0, 1524.52, 5, 0.086016, False
packet, 678, 28, 0, 1527.55, 4, 0.086016, False
packet, 832, 295, 0, 1529.48, 6, 0.086016, False
packet, 972, 199, 0, 1531.21, 4, 0.086016, False
packet, 851, 8, 0, 1532.75, 6, 0.086016, False
packet, 25, 30, 0, 1534.29, 9, 0.086016, True
packet, 917, 194, 0, 1534.27, 5, 0.086016, True
packet, 876, 38, 0, 1535.74, 7, 0.086016, False
packet, 800, 284, 0, 1537.37, 7, 0.086016, False
packet, 939, 292, 0, 1539.12, 5, 0.086016, True
packet, 719, 238, 0, 1539.16, 6, 0.086016, True
packet, 781, 24, 0, 1545.93, 6, 0.086016, False
packet, 466, 276, 0, 1550.08, 6, 0.086016, False
packet, 638, 88, 0, 1553.47, 7, 0.086016, False
packet, 616, 59, 0, 1554.97, 5, 0.086016, False
packet, 542, 4, 0, 1556.67, 11, 0.086016, True
packet, 908, 231, 0, 1556.63, 5, 0.086016, True
packet, 733, 110, 0, 1560.93, 5, 0.086016, False
packet, 224, 58, 0, 1564.11, 11, 0.086016, False
packet, 1018, 4, 0, 1568.16, 3, 0.086016, False
packet, 1032, 295, 0, 1569.97, 3, 0.086016, False
packet, 838, 98, 0, 1573.72, 7, 0.086016, False
packet, 165, 168, 0, 1576.01, 10, 0.086016, False
packet, 907, 100, 0, 1580.17, 6, 0.086016, False
packet, 583, 177, 0, 1583.86, 8, 0.086016, False
packet, 135, 69, 0, 1585.73, 12, 0.086016, False
packet, 935, 204, 0, 1587.12, 6, 0.086016, False
packet, 902, 165, 0, 1589.51, 6, 0.086016, False
packet, 646, 72, 0, 1591.21, 8, 0.086016, False
packet, 991, 243, 0, 1593.56, 4, 0.086016, False
packet, 500, 291, 0, 1595.38, 4, 0.086016, False
packet, 730, 262, 0, 1599.66, 8, 0.086016, False
packet, 996, 115, 0, 1607.17, 4, 0.086016, False
packet, 1028, 293, 0, 1610.23, 4, 0.086016, False
packet, 459, 63, 0, 1612.34, 8, 0.086016, False
packet, 947, 95, 0, 1615.26, 5, 0.086016, False
packet, 537, 74, 0, 1617.7, 10, 0.086016, False
packet, 997, 251, 0, 1621.03, 4, 0.086016, False
packet, 897, 291, 0, 1623.78, 3, 0.086016, False
packet, 970, 186, 0, 1626.23, 4, 0.086016, False
packet, 204, 105, 0, 1628.93, 9, 0.086016, False
packet, 628, 64, 0, 1632.51, 9, 0.086016, False
packet, 1045, 167, 0, 1635.39, 3, 0.086016, False
packet, 1003, 177, 0, 1640.19, 3, 0.086016, False
packet, 206, 117, 0, 1641.62, 10, 0.086016, False
packet, 1005, 15, 0, 1646.63, 4, 0.086016, False
packet, 1037, 46, 0, 1648.96, 5, 0.086016, False
packet, 1001, 298, 0, 1651.18, 5, 0.086016, False
packet, 1034, 292, 0, 1653.35, 4, 0.086016, False
packet, 216, 13, 0, 1655.33, 8, 0.086016, False
packet, 965, 61, 0, 1656.85, 5, 0.086016, True
packet, 943, 208, 0, 1656.89, 5, 0.086016, True
packet, 1029, 24, 0, 1659.38, 3, 0.086016, False
packet, 998, 297, 0, 1664.34, 4, 0.086016, False
packet, 1012, 35, 0, 1665.97, 4, 0.086016, False
packet, 318, 192, 0, 1667.86, 9, 0.086016, False
packet, 891, 283, 0, 1669.25, 7, 0.086016, False
packet, 1069, 295, 0, 1671.49, 3, 0.086016, False
packet, 932, 75, 0, 1675.14, 6, 0.086016, False
packet, 1008, 117, 0, 1677.68, 3, 0.086016, False
packet, 639, 272, 0, 1679.4, 5, 0.086016, False
packet, 451, 22, 0, 1682.09, 10, 0.086016, False
packet, 694, 58, 0, 1686.89, 4, 0.086016, False
packet, 1050, 27, 0, 1691.01, 3, 0.086016, False
packet, 916, 13, 0, 1695.49, 3, 0.086016, False
packet, 1063, 291, 0, 1697.99, 3, 0.086016, False
packet, 919, 280, 0, 1699.6, 6, 0.086016, False
packet, 404, 217, 0, 1705.24, 8, 0.086016, False
packet, 1056, 43, 0, 1710.92, 3, 0.086016, False
packet, 862, 20, 0, 1713.82, 7, 0.086016, False
packet, 1006, 278, 0, 1717.73, 5, 0.086016, False
packet, 316, 89, 0, 1719.37, 8, 0.086016, False
packet, 643, 257, 0, 1725.85, 7, 0.086016, False
packet, 981, 139, 0, 1727.5, 6, 0.086016, False
packet, 1083, 71, 0, 1732.07, 3, 0.086016, False
packet, 900, 178, 0, 1734.43, 5, 0.086016, False
packet, 596, 106, 0, 1737.05, 9, 0.086016, False
packet, 1093, 216, 0, 1738.44, 3, 0.086016, False
packet, 1113, 295, 0, 1745.99, 3, 0.086016, False
packet, 1110, 64, 0, 1747.59, 3, 0.086016, True
packet, 976, 63, 0, 1747.63, 5, 0.086016, True
packet, 1072, 204, 0, 1749.88, 4, 0.086016, False
packet, 1066, 293, 0, 1758.98, 4, 0.086016, False
packet, 1091, 283, 0, 1760.47, 4, 0.086016, False
packet, 1064, 102, 0, 1767.19, 4, 0.086016, True
packet, 1123, 38, 0, 1767.2, 3, 0.086016, True
packet, 1077, 231, 0, 1768.89, 3, 0.086016, False
packet, 435, 119, 0, 1772.9, 7, 0.086016, False
packet, 1039, 250, 0, 1775.65, 4, 0.086016, False
packet, 1103, 208, 0, 1777.62, 5, 0.086016, False
packet, 1036, 39, 0, 1781.79, 6, 0.086016, False
packet, 1130, 43, 0, 1784.38, 3, 0.086016, False
packet, 756, 266, 0, 1787.74, 7, 0.086016, False
packet, 1070, 95, 0, 1789.5, 4, 0.086016, False
packet, 1125, 298, 0, 1792.55, 3, 0.086016, False
packet, 1080, 115, 0, 1794.8, 5, 0.086016, False
packet, 803, 106, 0, 1801.82, 3, 0.086016, False
packet, 905, 201, 0, 1806.08, 5, 0.086016, False
packet, 856, 84, 0, 1807.56, 8, 0.086016, False
packet, 1149, 216, 0, 1810.01, 3, 0.086016, False
packet, 949, 78, 0, 1813.52, 7, 0.086016, False
packet, 1101, 243, 0, 1815.14, 3, 0.086016, False
packet, 1148, 194, 0, 1817.98, 3, 0.086016, False
packet, 918, 242, 0, 1822.02, 8, 0.086016, False
packet, 967, 261, 0, 1827.0, 5, 0.086016, False
packet, 482, 76, 0, 1828.82, 9, 0.086016, False
packet, 1041, 98, 0, 1830.52, 6, 0.086016, False
packet, 1131, 6, 0, 1832.96, 4, 0.086016, False
packet, 1127, 4, 0, 1835.92, 3, 0.086016, False
packet, 1161, 75, 0, 1839.1, 3, 0.086016, False
packet, 957, 258, 0, 1841.1, 7, 0.086016, False
packet, 926, 274, 0, 1843.0, 7, 0.086016, False
packet, 174, 269, 0, 1845.81, 10, 0.086016, True
packet, 445, 105, 0, 1845.8, 5, 0.086016, True
packet, 1054, 76, 0, 1849.72, 3, 0.086016, False
packet, 814, 290, 0, 1851.12, 7, 0.086016, False
packet, 1181, 283, 0, 1852.98, 3, 0.086016, False
packet, 1025, 217, 0, 1856.84, 4, 0.086016, False
packet, 1108, 7, 0, 1860.45, 4, 0.086016, False
packet, 257, 49, 0, 1864.86, 8, 0.086016, False
packet, 993, 256, 0, 1867.95, 5, 0.086016, False
packet, 1182, 201, 0, 1869.7, 3, 0.086016, False
packet, 661, 265, 0, 1874.27, 9, 0.086016, False
packet, 736, 26, 0, 1875.72, 8, 0.086016, False
packet, 859, 147, 0, 1878.62, 7, 0.086016, False
packet, 983, 190, 0, 1880.88, 5, 0.086016, False
packet, 590, 185, 0, 1885.5, 11, 0.086016, False
packet, 1096, 297, 0, 1888.41, 6, 0.086016, False
packet, 1166, 208, 0, 1890.79, 3, 0.086016, False
packet, 1049, 192, 0, 1894.06, 5, 0.086016, False
packet, 1106, 26, 0, 1895.91, 3, 0.086016, False
packet, 764, 105, 0, 1901.63, 3, 0.086016, False
packet, 1042, 110, 0, 1903.48, 8, 0.086016, False
packet, 1214, 274, 0, 1907.62, 3, 0.086016, False
packet, 1208, 243, 0, 1911.02, 3, 0.086016, False
packet, 1164, 185, 0, 1912.53, 3, 0.086016, False
packet, 190, 25, 0, 1918.3, 10, 0.086016, False
packet, 559, 49, 0, 1919.83, 3, 0.086016, False
packet, 829, 82, 0, 1922.97, 7, 0.086016, False
packet, 1197, 78, 0, 1926.82, 3, 0.086016, False
packet, 1227, 242, 0, 1928.57, 3, 0.086016, False
packet, 198, 126, 0, 1930.17, 9, 0.086016, False
packet, 975, 229, 0, 1931.87, 7, 0.086016, False
packet, 1218, 217, 0, 1933.73, 3, 0.086016, False
packet, 1055, 262, 0, 1935.62, 5, 0.086016, False
packet, 999, 235, 0, 1937.12, 5, 0.086016, True
packet, 1185, 35, 0, 1937.13, 3, 0.086016, True
packet, 1226, 256, 0, 1941.28, 3, 0.086016, False
packet, 1002, 36, 0, 1944.67, 6, 0.086016, False
packet, 1159, 178, 0, 1947.96, 4, 0.086016, False
packet, 1219, 250, 0, 1951.37, 3, 0.086016, False
packet, 1224, 201, 0, 1954.3, 3, 0.086016, False
packet, 1144, 105, 0, 1955.74, 3, 0.086016, False
packet, 1235, 190, 0, 1958.45, 3, 0.086016, False
packet, 477, 277, 0, 1960.13, 8, 0.086016, False
packet, 602, 126, 0, 1961.56, 3, 0.086016, False
packet, 1232, 243, 0, 1963.26, 3, 0.086016, False
packet, 1180, 71, 0, 1967.8, 3, 0.086016, False
packet, 1079, 143, 0, 1969.34, 6, 0.086016, False
packet, 794, 85, 0, 1971.91, 10, 0.086016, False
packet, 956, 277, 0, 1973.51, 3, 0.086016, False
packet, 1245, 26, 0, 1975.72, 5, 0.086016, False
packet, 1190, 265, 0, 1979.12, 5, 0.086016, False
packet, 664, 269, 0, 1981.0, 5, 0.086016, False
packet, 1019, 228, 0, 1982.58, 6, 0.086016, False
packet, 1167, 126, 0, 1984.74, 3, 0.086016, False
packet, 682, 130, 0, 1986.47, 7, 0.086016, False
packet, 1216, 115, 0, 1988.44, 3, 0.086016, False
packet, 391, 156, 0, 1993.21, 12, 0.086016, False
packet, 1179, 231, 0, 1994.58, 4, 0.086016, False
packet, 1058, 269, 0, 2002.6, 3, 0.086016, False
packet, 1165, 130, 0, 2007.6, 3, 0.086016, False
packet, 304, 2, 0, 2009.12, 10, 0.086016, False
packet, 1202, 291, 0, 2011.56, 4, 0.086016, False
packet, 1267, 262, 0, 2013.13, 3, 0.086016, False
packet, 861, 211, 0, 2015.3, 6, 0.086016, False
packet, 753, 92, 0, 2016.81, 9, 0.086016, False
packet, 1220, 258, 0, 2020.09, 5, 0.086016, False
packet, 642, 168, 0, 2022.32, 9, 0.086016, False
packet, 1081, 119, 0, 2023.83, 7, 0.086016, False
packet, 55, 189, 0, 2027.47, 12, 0.086016, False
packet, 1173, 84, 0, 2029.1, 3, 0.086016, False
packet, 1135, 204, 0, 2031.46, 6, 0.086016, False
packet, 100, 205, 0, 2039.5, 9, 0.086016, False
packet, 1112, 12, 0, 2042.28, 7, 0.086016, False
packet, 233, 152, 0, 2044.73, 8, 0.086016, False
packet, 108, 70, 0, 2046.54, 11, 0.086016, False
packet, 894, 25, 0, 2049.2, 6, 0.086016, False
packet, 1076, 168, 0, 2052.67, 3, 0.086016, False
packet, 716, 2, 0, 2054.34, 3, 0.086016, False
packet, 1026, 284, 0, 2057.62, 7, 0.086016, False
packet, 1154, 293, 0, 2059.87, 7, 0.086016, False
packet, 607, 93, 0, 2063.49, 9, 0.086016, False
packet, 1243, 110, 0, 2066.49, 5, 0.086016, False
packet, 815, 209, 0, 2070.59, 7, 0.086016, False
packet, 1196, 167, 0, 2076.25, 5, 0.086016, False
packet, 934, 189, 0, 2078.47, 3, 0.086016, False
packet, 895, 252, 0, 2080.85, 7, 0.086016, False
packet, 842, 23, 0, 2082.31, 11, 0.086016, False
packet, 885, 218, 0, 2084.0, 10, 0.086016, False
packet, 1068, 133, 0, 2085.65, 6, 0.086016, False
packet, 1258, 168, 0, 2088.29, 3, 0.086016, False
packet, 1160, 93, 0, 2091.05, 3, 0.086016, False
packet, 1285, 119, 0, 2096.38, 3, 0.086016, False
packet, 1175, 102, 0, 2101.52, 5, 0.086016, False
packet, 343, 279, 0, 2103.69, 10, 0.086016, True
packet, 903, 70, 0, 2103.7, 3, 0.086016, True
packet, 1256, 185, 0, 2107.08, 4, 0.086016, False
packet, 284, 65, 0, 2115.0, 12, 0.086016, False
packet, 1284, 190, 0, 2120.22, 4, 0.086016, False
packet, 1204, 147, 0, 2121.7, 5, 0.086016, False
packet, 1313, 167, 0, 2125.85, 3, 0.086016, False
packet, 1014, 247, 0, 2128.88, 7, 0.086016, False
packet, 1141, 22, 0, 2131.11, 7, 0.086016, False
packet, 1249, 272, 0, 2136.0, 4, 0.086016, False
packet, 1269, 178, 0, 2140.61, 4, 0.086016, False
packet, 1184, 189, 0, 2144.1, 3, 0.086016, False
packet, 1302, 92, 0, 2147.39, 3, 0.086016, False
packet, 1000, 49, 0, 2150.55, 5, 0.086016, False
packet, 1328, 250, 0, 2153.87, 3, 0.086016, False
packet, 1314, 262, 0, 2155.34, 3, 0.086016, False
packet, 773, 205, 0, 2158.8, 5, 0.086016, False
packet, 619, 104, 0, 2160.86, 11, 0.086016, False
packet, 1270, 115, 0, 2163.42, 4, 0.086016, False
packet, 326, 56, 0, 2164.88, 9, 0.086016, False
packet, 1098, 218, 0, 2167.44, 4, 0.086016, False
packet, 1322, 185, 0, 2169.38, 3, 0.086016, False
packet, 959, 279, 0, 2171.23, 3, 0.086016, False
packet, 1074, 173, 0, 2174.81, 7, 0.086016, False
packet, 560, 245, 0, 2176.31, 12, 0.086016, False
packet, 1279, 278, 0, 2178.1, 4, 0.086016, False
packet, 923, 224, 0, 2180.0, 6, 0.086016, False
packet, 1015, 211, 0, 2183.68, 5, 0.086016, False
packet, 1348, 217, 0, 2190.61, 3, 0.086016, False
packet, 1298, 231, 0, 2193.05, 3, 0.086016, False
packet, 1319, 75, 0, 2194.62, 3, 0.086016, False
packet, 439, 226, 0, 2196.81, 9, 0.086016, False
packet, 849, 91, 0, 2199.08, 8, 0.086016, False
packet, 1187, 104, 0, 2200.99, 3, 0.086016, False
packet, 1194, 76, 0, 2202.59, 6, 0.086016, False
packet, 938, 161, 0, 2207.37, 7, 0.086016, False
packet, 1275, 35, 0, 2210.98, 5, 0.086016, False
packet, 1346, 49, 0, 2212.65, 3, 0.086016, False
packet, 866, 65, 0, 2216.93, 4, 0.086016, False
packet, 1360, 218, 0, 2219.14, 3, 0.086016, False
packet, 1373, 211, 0, 2221.15, 3, 0.086016, False
packet, 175, 271, 0, 2222.72, 9, 0.086016, False
packet, 1109, 257, 0, 2225.34, 8, 0.086016, False
packet, 1356, 208, 0, 2229.47, 3, 0.086016, False
packet, 1307, 192, 0, 2231.45, 5, 0.086016, False
packet, 1009, 264, 0, 2233.03, 7, 0.086016, False
packet, 184, 68, 0, 2234.45, 10, 0.086016, True
packet, 1379, 272, 0, 2234.44, 3, 0.086016, True
packet, 1115, 20, 0, 2236.64, 6, 0.086016, False
packet, 1061, 276, 0, 2238.43, 10, 0.086016, False
packet, 232, 122, 0, 2240.55, 12, 0.086016, False
packet, 1357, 13, 0, 2242.21, 3, 0.086016, False
packet, 283, 202, 0, 2243.79, 9, 0.086016, False
packet, 497, 138, 0, 2248.81, 8, 0.086016, False
packet, 936, 80, 0, 2254.58, 8, 0.086016, False
packet, 1136, 85, 0, 2257.75, 5, 0.086016, False
packet, 1178, 27, 0, 2259.27, 7, 0.086016, False
packet, 1383, 217, 0, 2261.01, 3, 0.086016, False
packet, 1343, 258, 0, 2263.33, 5, 0.086016, False
packet, 1339, 264, 0, 2266.49, 3, 0.086016, False
packet, 582, 116, 0, 2271.34, 7, 0.086016, False
packet, 1391, 272, 0, 2273.84, 3, 0.086016, False
packet, 1086, 46, 0, 2275.3, 8, 0.086016, False
packet, 1385, 110, 0, 2277.19, 3, 0.086016, False
packet, 1004, 60, 0, 2284.31, 7, 0.086016, False
packet, 629, 151, 0, 2286.64, 10, 0.086016, False
packet, 1382, 173, 0, 2294.84, 5, 0.086016, False
packet, 816, 69, 0, 2297.7, 9, 0.086016, False
packet, 1389, 189, 0, 2299.61, 3, 0.086016, False
packet, 1340, 256, 0, 2304.16, 5, 0.086016, False
packet, 1138, 100, 0, 2308.47, 8, 0.086016, False
packet, 1261, 82, 0, 2311.87, 6, 0.086016, False
packet, 1233, 69, 0, 2315.35, 3, 0.086016, False
packet, 785, 222, 0, 2321.7, 10, 0.086016, False
packet, 1367, 252, 0, 2323.99, 4, 0.086016, False
packet, 1378, 78, 0, 2332.73, 4, 0.086016, False
packet, 1397, 224, 0, 2334.4, 3, 0.086016, False
packet, 1425, 209, 0, 2336.74, 3, 0.086016, False
packet, 1013, 290, 0, 2339.56, 6, 0.086016, False
packet, 1426, 242, 0, 2342.99, 3, 0.086016, False
packet, 1299, 98, 0, 2347.27, 6, 0.086016, False
packet, 29, 16, 0, 2350.56, 10, 0.086016, False
packet, 1344, 71, 0, 2352.73, 5, 0.086016, False
packet, 1371, 262, 0, 2355.22, 5, 0.086016, False
packet, 1393, 76, 0, 2356.87, 3, 0.086016, False
packet, 12, 244, 0, 2360.54, 8, 0.086016, False
packet, 1446, 36, 0, 2364.2, 3, 0.086016, False
packet, 1336, 12, 0, 2366.38, 5, 0.086016, False
packet, 1262, 222, 0, 2367.99, 3, 0.086016, False
packet, 1342, 277, 0, 2375.83, 5, 0.086016, False
packet, 1443, 69, 0, 2377.44, 3, 0.086016, False
packet, 1370, 91, 0, 2381.62, 6, 0.086016, False
packet, 818, 122, 0, 2383.37, 4, 0.086016, False
packet, 1413, 265, 0, 2386.8, 5, 0.086016, False
packet, 1452, 242, 0, 2389.53, 3, 0.086016, False
packet, 1330, 65, 0, 2391.22, 5, 0.086016, False
packet, 334, 273, 0, 2392.65, 13, 0.086016, False
packet, 1422, 161, 0, 2394.13, 3, 0.086016, False
packet, 545, 3, 0, 2396.78, 9, 0.086016, False
packet, 504, 244, 0, 2398.38, 3, 0.086016, False
packet, 962, 245, 0, 2405.08, 6, 0.086016, False
packet, 486, 48, 0, 2406.76, 9, 0.086016, False
packet, 728, 11, 0, 2408.35, 9, 0.086016, False
packet, 618, 156, 0, 2409.98, 6, 0.086016, False
packet, 1300, 293, 0, 2414.78, 6, 0.086016, False
packet, 1395, 250, 0, 2417.3, 4, 0.086016, False
packet, 1423, 13, 0, 2422.13, 4, 0.086016, False
packet, 1386, 104, 0, 2425.41, 4, 0.086016, False
packet, 539, 68, 0, 2426.84, 5, 0.086016, False
packet, 1417, 273, 0, 2428.22, 3, 0.086016, False
packet, 1104, 180, 0, 2431.48, 8, 0.086016, False
packet, 995, 244, 0, 2434.35, 3, 0.086016, False
packet, 1292, 61, 0, 2436.48, 7, 0.086016, False
packet, 1331, 70, 0, 2437.92, 5, 0.086016, False
packet, 1447, 93, 0, 2441.18, 3, 0.086016, False
packet, 1355, 22, 0, 2443.02, 5, 0.086016, False
packet, 1461, 189, 0, 2445.88, 4, 0.086016, False
packet, 1358, 167, 0, 2448.86, 5, 0.086016, False
packet, 1440, 217, 0, 2450.79, 3, 0.086016, False
packet, 990, 96, 0, 2456.21, 10, 0.086016, True
packet, 1482, 82, 0, 2456.25, 3, 0.086016, True
packet, 989, 137, 0, 2457.98, 10, 0.086016, False
packet, 1476, 211, 0, 2462.13, 3, 0.086016, False
packet, 871, 171, 0, 2463.54, 10, 0.086016, False
packet, 1477, 222, 0, 2467.63, 3, 0.086016, False
packet, 1248, 290, 0, 2475.09, 4, 0.086016, False
packet, 606, 202, 0, 2476.8, 5, 0.086016, False
packet, 1496, 273, 0, 2479.63, 3, 0.086016, False
packet, 1306, 245, 0, 2481.89, 4, 0.086016, False
packet, 1362, 185, 0, 2484.61, 5, 0.086016, True
packet, 1213, 122, 0, 2484.64, 5, 0.086016, True
packet, 1177, 106, 0, 2487.34, 9, 0.086016, False
packet, 552, 214, 0, 2492.56, 10, 0.086016, False
packet, 790, 68, 0, 2493.95, 3, 0.086016, False
packet, 1504, 242, 0, 2495.45, 3, 0.086016, False
packet, 1094, 199, 0, 2498.37, 6, 0.086016, False
packet, 1368, 133, 0, 2506.26, 7, 0.086016, False
packet, 1332, 11, 0, 2511.1, 5, 0.086016, False
packet, 837, 156, 0, 2512.71, 4, 0.086016, False
packet, 1176, 64, 0, 2514.5, 6, 0.086016, False
packet, 1456, 100, 0, 2516.36, 4, 0.086016, False
packet, 1492, 279, 0, 2519.01, 3, 0.086016, False
packet, 1513, 290, 0, 2521.78, 3, 0.086016, False
packet, 1433, 244, 0, 2523.35, 4, 0.086016, False
packet, 1116, 15, 0, 2528.8, 9, 0.086016, False
packet, 1405, 68, 0, 2532.53, 3, 0.086016, False
packet, 1521, 104, 0, 2534.87, 3, 0.086016, False
packet, 1361, 190, 0, 2542.9, 7, 0.086016, True
packet, 1516, 245, 0, 2542.9, 4, 0.086016, True
packet, 307, 219, 0, 2544.89, 14, 0.086016, False
packet, 1519, 222, 0, 2547.65, 3, 0.086016, False
packet, 1511, 250, 0, 2549.51, 5, 0.086016, False
packet, 930, 41, 0, 2551.82, 10, 0.086016, False
packet, 1186, 117, 0, 2556.11, 8, 0.086016, False
packet, 1537, 11, 0, 2557.82, 3, 0.086016, False
packet, 169, 103, 0, 2559.65, 12, 0.086016, False
packet, 860, 56, 0, 2562.15, 7, 0.086016, False
packet, 543, 94, 0, 2563.88, 11, 0.086016, False
packet, 1500, 167, 0, 2565.65, 3, 0.086016, False
packet, 432, 29, 0, 2569.11, 11, 0.086016, False
packet, 1535, 106, 0, 2570.95, 3, 0.086016, False
packet, 120, 270, 0, 2574.27, 11, 0.086016, False
packet, 820, 202, 0, 2576.02, 5, 0.086016, False
packet, 1463, 15, 0, 2578.85, 3, 0.086016, False
packet, 230, 287, 0, 2580.61, 11, 0.086016, False
packet, 1549, 279, 0, 2582.79, 3, 0.086016, False
packet, 1155, 205, 0, 2585.33, 7, 0.086016, False
packet, 1310, 84, 0, 2587.54, 9, 0.086016, False
packet, 982, 238, 0, 2591.01, 10, 0.086016, False
packet, 1415, 75, 0, 2593.34, 5, 0.086016, False
packet, 1030, 266, 0, 2596.16, 8, 0.086016, False
packet, 772, 237, 0, 2598.15, 7, 0.086016, False
packet, 330, 220, 0, 2600.26, 10, 0.086016, False
packet, 1471, 115, 0, 2602.29, 4, 0.086016, False
packet, 1265, 247, 0, 2605.8, 9, 0.086016, False
packet, 1508, 161, 0, 2610.82, 5, 0.086016, False
packet, 1583, 15, 0, 2613.37, 3, 0.086016, False
packet, 390, 153, 0, 2617.25, 12, 0.086016, False
packet, 950, 219, 0, 2618.66, 4, 0.086016, False
packet, 1560, 64, 0, 2623.14, 4, 0.086016, False
packet, 1575, 244, 0, 2631.61, 3, 0.086016, False
packet, 1586, 247, 0, 2633.13, 3, 0.086016, False
packet, 809, 220, 0, 2635.9, 3, 0.086016, False
packet, 1429, 84, 0, 2641.37, 4, 0.086016, False
packet, 843, 120, 0, 2647.42, 9, 0.086016, False
packet, 1266, 56, 0, 2648.97, 4, 0.086016, False
packet, 1540, 122, 0, 2650.39, 4, 0.086016, False
packet, 170, 83, 0, 2652.1, 11, 0.086016, False
packet, 222, 121, 0, 2654.12, 11, 0.086016, False
packet, 1522, 256, 0, 2657.38, 5, 0.086016, False
packet, 1092, 28, 0, 2659.43, 10, 0.086016, False
packet, 1481, 49, 0, 2661.38, 6, 0.086016, False
packet, 1561, 100, 0, 2664.31, 4, 0.086016, False
packet, 1134, 120, 0, 2665.73, 3, 0.086016, False
packet, 1569, 273, 0, 2669.54, 4, 0.086016, False
packet, 1491, 262, 0, 2677.22, 7, 0.086016, False
packet, 1451, 71, 0, 2678.72, 6, 0.086016, False
packet, 1562, 290, 0, 2682.34, 3, 0.086016, False
packet, 1555, 93, 0, 2687.53, 4, 0.086016, False
packet, 1335, 23, 0, 2689.44, 10, 0.086016, False
packet, 1605, 106, 0, 2690.91, 4, 0.086016, False
packet, 1617, 293, 0, 2692.47, 3, 0.086016, False
packet, 1286, 291, 0, 2696.18, 8, 0.086016, False
packet, 1162, 43, 0, 2701.75, 9, 0.086016, False
packet, 1411, 219, 0, 2703.14, 5, 0.086016, True
packet, 1517, 78, 0, 2703.16, 4, 0.086016, True
packet, 1627, 161, 0, 2705.05, 3, 0.086016, False
packet, 419, 248, 0, 2706.55, 11, 0.086016, False
packet, 1614, 199, 0, 2710.51, 4, 0.086016, False
packet, 858, 270, 0, 2713.31, 5, 0.086016, False
packet, 1529, 265, 0, 2715.86, 5, 0.086016, False
packet, 1102, 251, 0, 2718.29, 9, 0.086016, False
packet, 952, 48, 0, 2720.76, 6, 0.086016, False
packet, 1485, 27, 0, 2723.18, 6, 0.086016, False
packet, 1126, 177, 0, 2730.21, 9, 0.086016, False
packet, 762, 271, 0, 2731.79, 9, 0.086016, False
packet, 1633, 49, 0, 2736.25, 3, 0.086016, False
packet, 566, 103, 0, 2739.11, 5, 0.086016, False
packet, 1628, 100, 0, 2741.27, 4, 0.086016, False
packet, 1630, 43, 0, 2743.96, 3, 0.086016, False
packet, 1260, 298, 0, 2745.37, 8, 0.086016, False
packet, 920, 248, 0, 2749.47, 3, 0.086016, False
packet, 1594, 266, 0, 2751.33, 5, 0.086016, False
packet, 1418, 177, 0, 2754.72, 3, 0.086016, False
packet, 1329, 270, 0, 2756.69, 3, 0.086016, False
packet, 113, 225, 0, 2759.81, 14, 0.086016, False
packet, 971, 226, 0, 2762.32, 7, 0.086016, False
packet, 1441, 224, 0, 2764.09, 7, 0.086016, False
packet, 1409, 85, 0, 2768.05, 7, 0.086016, False
packet, 1534, 217, 0, 2770.83, 7, 0.086016, True
packet, 1654, 262, 0, 2770.87, 3, 0.086016, True
packet, 1603, 104, 0, 2773.43, 3, 0.086016, False
packet, 1624, 244, 0, 2776.78, 4, 0.086016, True
packet, 964, 157, 0, 2776.79, 8, 0.086016, True
packet, 387, 299, 0, 2782.85, 14, 0.086016, False
packet, 1616, 167, 0, 2787.46, 4, 0.086016, False
packet, 1661, 43, 0, 2788.91, 3, 0.086016, False
packet, 690, 121, 0, 2790.86, 5, 0.086016, False
packet, 1291, 60, 0, 2794.19, 9, 0.086016, False
packet, 1598, 133, 0, 2796.28, 6, 0.086016, False
packet, 1505, 82, 0, 2799.67, 6, 0.086016, False
packet, 104, 296, 0, 2802.53, 10, 0.086016, False
packet, 1085, 157, 0, 2805.37, 3, 0.086016, False
packet, 1592, 120, 0, 2807.28, 4, 0.086016, False
packet, 1387, 26, 0, 2810.2, 8, 0.086016, False
packet, 1515, 65, 0, 2811.8, 5, 0.086016, False
packet, 1637, 115, 0, 2815.27, 4, 0.086016, False
packet, 1546, 117, 0, 2817.58, 6, 0.086016, False
packet, 1497, 13, 0, 2822.24, 5, 0.086016, False
packet, 1665, 70, 0, 2825.3, 3, 0.086016, False
packet, 1171, 139, 0, 2828.38, 8, 0.086016, False
packet, 1677, 211, 0, 2830.26, 3, 0.086016, False
packet, 251, 260, 0, 2833.24, 12, 0.086016, False
packet, 1579, 222, 0, 2834.76, 5, 0.086016, False
packet, 1462, 46, 0, 2836.16, 7, 0.086016, False
packet, 1225, 39, 0, 2838.42, 10, 0.086016, False
packet, 27, 162, 0, 2841.59, 14, 0.086016, False
packet, 470, 281, 0, 2843.14, 12, 0.086016, False
packet, 1701, 71, 0, 2845.14, 3, 0.086016, False
packet, 925, 138, 0, 2847.57, 7, 0.086016, False
packet, 1430, 157, 0, 2850.14, 3, 0.086016, False
packet, 1672, 122, 0, 2851.76, 5, 0.086016, False
packet, 1683, 265, 0, 2855.94, 3, 0.086016, False
packet, 15, 1, 0, 2858.76, 13, 0.086016, False
packet, 712, 240, 0, 2860.05, 8, 0.086016, False
packet, 1404, 178, 0, 2862.43, 10, 0.086016, False
packet, 1578, 39, 0, 2864.52, 3, 0.086016, False
packet, 591, 16, 0, 2871.77, 7, 0.086016, False
packet, 1684, 93, 0, 2873.22, 3, 0.086016, False
packet, 1157, 284, 0, 2875.64, 8, 0.086016, False
packet, 1296, 95, 0, 2877.64, 8, 0.086016, False
packet, 1195, 237, 0, 2879.22, 6, 0.086016, True
packet, 1693, 266, 0, 2879.22, 3, 0.086016, True
packet, 1703, 100, 0, 2883.93, 3, 0.086016, False
packet, 1695, 177, 0, 2885.4, 3, 0.086016, False
packet, 1253, 121, 0, 2887.61, 4, 0.086016, True
packet, 1527, 139, 0, 2887.61, 3, 0.086016, True
packet, 1434, 272, 0, 2889.33, 7, 0.086016, False
packet, 702, 162, 0, 2891.68, 3, 0.086016, False
packet, 196, 175, 0, 2894.14, 12, 0.086016, False
packet, 1221, 297, 0, 2895.63, 9, 0.086016, False
packet, 1596, 277, 0, 2898.74, 5, 0.086016, False
packet, 1705, 256, 0, 2901.98, 3, 0.086016, False
packet, 1711, 161, 0, 2903.68, 3, 0.086016, False
packet, 1699, 120, 0, 2908.76, 4, 0.086016, False
packet, 1689, 133, 0, 2910.69, 3, 0.086016, False
packet, 1090, 240, 0, 2913.24, 3, 0.086016, False
packet, 1341, 7, 0, 2915.55, 7, 0.086016, False
packet, 673, 175, 0, 2918.35, 3, 0.086016, False
packet, 1051, 260, 0, 2921.28, 5, 0.086016, False
packet, 1566, 297, 0, 2925.78, 3, 0.086016, False
packet, 1723, 219, 0, 2927.8, 3, 0.086016, False
packet, 1337, 143, 0, 2929.42, 7, 0.086016, False
packet, 569, 296, 0, 2935.62, 4, 0.086016, False
packet, 1369, 96, 0, 2937.59, 7, 0.086016, False
packet, 456, 286, 0, 2939.29, 9, 0.086016, False
packet, 1353, 240, 0, 2942.93, 3, 0.086016, False
packet, 1152, 280, 0, 2945.38, 8, 0.086016, False
packet, 83, 233, 0, 2947.16, 12, 0.086016, False
packet, 1682, 224, 0, 2948.76, 6, 0.086016, False
packet, 1648, 190, 0, 2953.08, 5, 0.086016, False
packet, 1692, 48, 0, 2955.56, 4, 0.086016, False
packet, 1735, 157, 0, 2957.7, 3, 0.086016, False
packet, 1700, 26, 0, 2960.3, 3, 0.086016, False
packet, 658, 37, 0, 2964.65, 10, 0.086016, False
packet, 1271, 228, 0, 2968.5, 8, 0.086016, False
packet, 1350, 105, 0, 2970.34, 7, 0.086016, False
packet, 588, 134, 0, 2971.86, 11, 0.086016, False
packet, 5, 241, 0, 2975.72, 13, 0.086016, False
packet, 1652, 121, 0, 2981.17, 5, 0.086016, False
packet, 1027, 286, 0, 2982.8, 3, 0.086016, False
packet, 1345, 216, 0, 2985.16, 9, 0.086016, False
packet, 1647, 64, 0, 2987.96, 7, 0.086016, False
packet, 1577, 240, 0, 2989.81, 3, 0.086016, False
packet, 1768, 157, 0, 2991.56, 3, 0.086016, False
packet, 1132, 175, 0, 2993.08, 3, 0.086016, False
packet, 1480, 237, 0, 2995.07, 4, 0.086016, False
packet, 1591, 68, 0, 2996.7, 5, 0.086016, False
packet, 1394, 192, 0, 2999.62, 8, 0.086016, False
packet, 1694, 270, 0, 3004.47, 5, 0.086016, False
packet, 239, 47, 0, 3006.54, 12, 0.086016, False
packet, 1659, 258, 0, 3009.0, 5, 0.086016, False
packet, 1474, 173, 0, 3011.19, 6, 0.086016, False
packet, 1099, 162, 0, 3013.27, 4, 0.086016, False
packet, 1774, 222, 0, 3018.25, 3, 0.086016, False
packet, 1664, 27, 0, 3019.82, 6, 0.086016, False
packet, 1188, 220, 0, 3022.28, 7, 0.086016, False
packet, 1523, 189, 0, 3025.61, 8, 0.086016, False
packet, 1273, 25, 0, 3028.69, 9, 0.086016, False
packet, 1612, 216, 0, 3032.18, 4, 0.086016, False
packet, 1759, 205, 0, 3034.05, 3, 0.086016, False
packet, 677, 233, 0, 3038.55, 4, 0.086016, False
packet, 899, 296, 0, 3040.62, 5, 0.086016, False
packet, 651, 150, 0, 3042.07, 9, 0.086016, False
packet, 1556, 220, 0, 3045.06, 3, 0.086016, False
packet, 136, 54, 0, 3046.75, 10, 0.086016, False
packet, 1089, 37, 0, 3050.49, 4, 0.086016, False
packet, 822, 124, 0, 3052.14, 13, 0.086016, False
packet, 1789, 260, 0, 3060.71, 3, 0.086016, False
packet, 1631, 247, 0, 3062.4, 5, 0.086016, False
packet, 417, 166, 0, 3065.13, 10, 0.086016, False
packet, 1756, 104, 0, 3067.05, 4, 0.086016, False
packet, 1766, 190, 0, 3069.06, 4, 0.086016, False
packet, 1139, 150, 0, 3070.82, 3, 0.086016, False
packet, 1147, 233, 0, 3073.45, 3, 0.086016, False
packet, 872, 134, 0, 3075.96, 4, 0.086016, False
packet, 1810, 205, 0, 3078.82, 3, 0.086016, False
packet, 1626, 185, 0, 3082.3, 6, 0.086016, False
packet, 1475, 37, 0, 3086.72, 3, 0.086016, False
packet, 1811, 280, 0, 3088.97, 3, 0.086016, False
packet, 356, 97, 0, 3091.59, 11, 0.086016, False
packet, 1792, 277, 0, 3093.18, 4, 0.086016, False
packet, 1639, 15, 0, 3095.76, 6, 0.086016, False
packet, 1017, 81, 0, 3098.56, 9, 0.086016, False
packet, 1807, 157, 0, 3102.78, 3, 0.086016, True
packet, 1552, 162, 0, 3102.81, 4, 0.086016, True
packet, 1572, 286, 0, 3107.97, 4, 0.086016, False
packet, 1338, 150, 0, 3109.52, 3, 0.086016, False
packet, 1533, 242, 0, 3112.78, 8, 0.086016, False
packet, 399, 118, 0, 3117.38, 14, 0.086016, False
packet, 1781, 220, 0, 3119.91, 3, 0.086016, False
packet, 1790, 70, 0, 3123.15, 4, 0.086016, False
packet, 1844, 121, 0, 3127.07, 3, 0.086016, False
packet, 774, 67, 0, 3130.39, 10, 0.086016, False
packet, 1571, 228, 0, 3134.64, 5, 0.086016, False
packet, 1787, 26, 0, 3136.6, 5, 0.086016, False
packet, 775, 299, 0, 3140.3, 8, 0.086016, False
packet, 1493, 110, 0, 3145.0, 9, 0.086016, False
packet, 502, 1, 0, 3148.23, 6, 0.086016, False
packet, 1327, 20, 0, 3149.63, 9, 0.086016, False
packet, 1599, 81, 0, 3151.2, 3, 0.086016, False
packet, 1442, 2, 0, 3152.81, 6, 0.086016, False
packet, 1852, 280, 0, 3154.31, 3, 0.086016, False
packet, 1156, 248, 0, 3159.75, 6, 0.086016, False
packet, 212, 169, 0, 3164.68, 11, 0.086016, False
packet, 1854, 286, 0, 3167.56, 3, 0.086016, False
packet, 1829, 15, 0, 3171.63, 5, 0.086016, False
packet, 1802, 68, 0, 3175.07, 4, 0.086016, False
packet, 1033, 97, 0, 3176.8, 5, 0.086016, False
packet, 1840, 27, 0, 3180.33, 4, 0.086016, False
packet, 1606, 291, 0, 3181.8, 9, 0.086016, False
packet, 1730, 250, 0, 3183.32, 7, 0.086016, False
packet, 1483, 298, 0, 3184.72, 8, 0.086016, False
packet, 1531, 296, 0, 3186.75, 5, 0.086016, False
packet, 1289, 295, 0, 3189.28, 8, 0.086016, False
packet, 1726, 192, 0, 3193.51, 5, 0.086016, False
packet, 154, 51, 0, 3196.94, 13, 0.086016, False
packet, 1532, 98, 0, 3198.87, 7, 0.086016, True
packet, 1241, 299, 0, 3198.89, 3, 0.086016, True
packet, 1834, 258, 0, 3200.95, 3, 0.086016, False
packet, 986, 1, 0, 3205.75, 3, 0.086016, False
packet, 688, 223, 0, 3208.62, 10, 0.086016, False
packet, 1697, 105, 0, 3210.02, 7, 0.086016, False
packet, 1052, 88, 0, 3211.61, 11, 0.086016, False
packet, 1797, 95, 0, 3213.75, 5, 0.086016, False
packet, 1057, 223, 0, 3218.64, 3, 0.086016, False
packet, 1669, 96, 0, 3223.75, 7, 0.086016, False
packet, 665, 51, 0, 3227.1, 3, 0.086016, False
packet, 1352, 102, 0, 3229.4, 8, 0.086016, False
packet, 1674, 84, 0, 3232.14, 5, 0.086016, False
packet, 1619, 97, 0, 3235.18, 3, 0.086016, False
packet, 1879, 280, 0, 3237.25, 4, 0.086016, False
packet, 1801, 2, 0, 3238.83, 4, 0.086016, False
packet, 1868, 189, 0, 3240.41, 3, 0.086016, False
packet, 1698, 251, 0, 3243.02, 6, 0.086016, False
packet, 1734, 82, 0, 3245.83, 7, 0.086016, False
packet, 1755, 296, 0, 3251.38, 3, 0.086016, False
packet, 645, 47, 0, 3252.93, 6, 0.086016, False
packet, 1823, 120, 0, 3257.8, 5, 0.086016, False
packet, 1859, 205, 0, 3260.04, 3, 0.086016, False
packet, 1545, 175, 0, 3267.36, 6, 0.086016, False
packet, 1315, 202, 0, 3269.28, 8, 0.086016, False
packet, 1419, 295, 0, 3271.46, 4, 0.086016, False
packet, 1428, 248, 0, 3273.11, 4, 0.086016, False
packet, 1073, 124, 0, 3274.55, 6, 0.086016, False
packet, 1893, 250, 0, 3277.18, 3, 0.086016, False
packet, 1897, 82, 0, 3278.68, 3, 0.086016, False
packet, 937, 169, 0, 3283.23, 5, 0.086016, False
packet, 1900, 27, 0, 3285.83, 3, 0.086016, False
packet, 1923, 189, 0, 3291.11, 3, 0.086016, False
packet, 1691, 237, 0, 3293.14, 6, 0.086016, False
packet, 1793, 143, 0, 3294.55, 6, 0.086016, False
packet, 408, 9, 0, 3296.13, 14, 0.086016, False
packet, 1660, 284, 0, 3299.05, 6, 0.086016, False
packet, 850, 170, 0, 3303.54, 9, 0.086016, False
packet, 1191, 1, 0, 3306.99, 4, 0.086016, False
packet, 1526, 233, 0, 3308.8, 6, 0.086016, False
packet, 1828, 247, 0, 3310.27, 5, 0.086016, False
packet, 1857, 240, 0, 3315.13, 6, 0.086016, False
packet, 1544, 124, 0, 3318.05, 4, 0.086016, False
packet, 498, 287, 0, 3321.18, 8, 0.086016, False
packet, 614, 132, 0, 3323.95, 12, 0.086016, False
packet, 1918, 220, 0, 3327.57, 3, 0.086016, False
packet, 1791, 167, 0, 3332.1, 6, 0.086016, False
packet, 1850, 216, 0, 3334.32, 4, 0.086016, False
packet, 663, 113, 0, 3338.21, 14, 0.086016, False
packet, 1908, 122, 0, 3342.67, 3, 0.086016, False
packet, 1738, 256, 0, 3345.88, 8, 0.086016, False
packet, 671, 107, 0, 3350.54, 12, 0.086016, False
packet, 1538, 223, 0, 3351.93, 5, 0.086016, False
packet, 1088, 170, 0, 3355.7, 3, 0.086016, False
packet, 1437, 231, 0, 3358.33, 9, 0.086016, False
packet, 1381, 132, 0, 3360.23, 3, 0.086016, False
packet, 865, 149, 0, 3361.62, 10, 0.086016, False
packet, 511, 227, 0, 3365.1, 12, 0.086016, False
packet, 1676, 85, 0, 3367.67, 7, 0.086016, False
packet, 1813, 233, 0, 3371.71, 3, 0.086016, False
packet, 1593, 299, 0, 3378.84, 5, 0.086016, False
packet, 1747, 22, 0, 3381.09, 7, 0.086016, False
packet, 1954, 284, 0, 3388.9, 4, 0.086016, False
packet, 1925, 2, 0, 3391.75, 3, 0.086016, False
packet, 1847, 277, 0, 3393.88, 6, 0.086016, False
packet, 1035, 47, 0, 3395.25, 4, 0.086016, False
packet, 1324, 269, 0, 3397.28, 8, 0.086016, False
packet, 533, 118, 0, 3400.9, 5, 0.086016, True
packet, 1771, 117, 0, 3400.88, 7, 0.086016, True
packet, 1581, 170, 0, 3403.28, 3, 0.086016, False
packet, 1727, 93, 0, 3405.07, 6, 0.086016, False
packet, 123, 62, 0, 3406.5, 12, 0.086016, False
packet, 263, 101, 0, 3409.36, 13, 0.086016, False
packet, 1349, 271, 0, 3411.29, 10, 0.086016, False
packet, 1554, 61, 0, 3414.15, 11, 0.086016, True
packet, 1280, 149, 0, 3414.16, 3, 0.086016, True
packet, 1969, 70, 0, 3415.64, 3, 0.086016, False
packet, 1867, 121, 0, 3421.49, 5, 0.086016, False
packet, 1990, 258, 0, 3424.13, 3, 0.086016, False
packet, 1320, 169, 0, 3426.43, 4, 0.086016, False
packet, 1818, 170, 0, 3431.29, 3, 0.086016, False
packet, 1989, 237, 0, 3433.04, 3, 0.086016, False
packet, 798, 287, 0, 3435.01, 4, 0.086016, False
packet, 548, 111, 0, 3436.97, 11, 0.086016, False
packet, 2009, 70, 0, 3442.06, 3, 0.086016, False
packet, 1509, 204, 0, 3444.1, 9, 0.086016, False
packet, 1995, 277, 0, 3448.27, 3, 0.086016, False
packet, 1888, 105, 0, 3449.93, 7, 0.086016, False
packet, 1745, 65, 0, 3451.58, 8, 0.086016, False
packet, 1124, 227, 0, 3453.5, 4, 0.086016, False
packet, 1643, 290, 0, 3456.81, 9, 0.086016, False
packet, 855, 116, 0, 3462.35, 9, 0.086016, False
packet, 1976, 223, 0, 3465.27, 3, 0.086016, False
packet, 1632, 295, 0, 3467.12, 5, 0.086016, False
packet, 450, 0, 0, 3469.46, 13, 0.086016, False
packet, 881, 113, 0, 3473.72, 4, 0.086016, False
packet, 784, 0, 0, 3475.17, 3, 0.086016, False
packet, 2011, 170, 0, 3477.22, 3, 0.086016, False
packet, 878, 153, 0, 3479.52, 9, 0.086016, False
packet, 1991, 22, 0, 3482.23, 5, 0.086016, False
packet, 1209, 287, 0, 3485.98, 3, 0.086016, False
packet, 768, 131, 0, 3489.57, 11, 0.086016, False
packet, 1741, 177, 0, 3492.95, 7, 0.086016, False
packet, 1986, 290, 0, 3496.57, 3, 0.086016, False
packet, 1999, 117, 0, 3500.26, 3, 0.086016, True
packet, 1877, 97, 0, 3500.24, 5, 0.086016, True
packet, 697, 62, 0, 3503.16, 4, 0.086016, False
packet, 1987, 95, 0, 3506.35, 5, 0.086016, False
packet, 1804, 202, 0, 3508.08, 5, 0.086016, False
packet, 1690, 217, 0, 3511.0, 6, 0.086016, False
packet, 2026, 222, 0, 3513.3, 3, 0.086016, False
packet, 1520, 227, 0, 3515.75, 4, 0.086016, False
packet, 1911, 84, 0, 3519.51, 5, 0.086016, False
packet, 1831, 298, 0, 3523.71, 7, 0.086016, False
packet, 757, 74, 0, 3525.33, 10, 0.086016, False
packet, 2016, 167, 0, 3528.31, 3, 0.086016, False
packet, 1478, 113, 0, 3536.08, 3, 0.086016, False
packet, 1043, 236, 0, 3541.4, 10, 0.086016, False
packet, 1075, 103, 0, 3544.15, 10, 0.086016, False
packet, 1886, 68, 0, 3550.55, 5, 0.086016, False
packet, 117, 66, 0, 3551.99, 12, 0.086016, False
packet, 948, 191, 0, 3553.82, 9, 0.086016, False
packet, 1169, 153, 0, 3556.06, 3, 0.086016, False
packet, 181, 32, 0, 3557.89, 15, 0.086016, False
packet, 512, 42, 0, 3562.08, 11, 0.086016, False
packet, 1796, 269, 0, 3563.65, 5, 0.086016, False
packet, 260, 176, 0, 3567.37, 11, 0.086016, False
packet, 2038, 22, 0, 3575.8, 3, 0.086016, False
packet, 1967, 250, 0, 3577.2, 5, 0.086016, False
packet, 1878, 26, 0, 3579.38, 6, 0.086016, False
packet, 721, 9, 0, 3581.85, 5, 0.086016, False
packet, 791, 145, 0, 3583.76, 10, 0.086016, False
packet, 1078, 74, 0, 3586.53, 3, 0.086016, False
packet, 801, 66, 0, 3590.04, 3, 0.086016, False
packet, 1663, 1, 0, 3591.65, 6, 0.086016, False
packet, 568, 83, 0, 3595.22, 10, 0.086016, False
packet, 553, 289, 0, 3597.21, 13, 0.086016, True
packet, 2023, 237, 0, 3597.25, 4, 0.086016, True
c_packet, 1314, 6983, 84, 93.607%

sensor, 0, 42, 3, 3, 0, 0, 0, 2, 0
sensor, 1, 49, 1, 5, 0, 0, 0, 1, 0
sensor, 2, 33, 1, 6, 0, 0, 0, 5, 0
sensor, 3, 51, 5, 2, 0, 0, 0, 1, 0
sensor, 4, 35, 3, 5, 0, 0, 0, 5, 0
sensor, 5, 59, 8, 0, 0, 0, 0, 1, 0
sensor, 6, 35, 2, 5, 0, 0, 0, 6, 0
sensor, 7, 24, 1, 4, 0, 0, 0, 5, 0
sensor, 8, 27, 3, 4, 0, 0, 0, 5, 0
sensor, 9, 33, 2, 2, 0, 0, 0, 1, 0
sensor, 10, 42, 4, 2, 0, 0, 0, 2, 0
sensor, 11, 33, 2, 5, 0, 0, 0, 5, 0
sensor, 12, 35, 2, 9, 0, 0, 0, 10, 0
sensor, 13, 29, 1, 6, 0, 0, 0, 6, 0
sensor, 14, 37, 4, 2, 0, 0, 0, 3, 0
sensor, 15, 45, 1, 11, 0, 0, 0, 10, 0
sensor, 16, 29, 2, 2, 0, 0, 0, 1, 0
sensor, 17, 32, 3, 3, 0, 0, 0, 4, 0
sensor, 18, 40, 5, 0, 0, 0, 0, 1, 0
sensor, 19, 33, 3, 3, 0, 0, 0, 4, 0
sensor, 20, 41, 1, 5, 0, 0, 0, 3, 0
sensor, 21, 45, 6, 0, 0, 0, 0, 1, 0
sensor, 22, 27, 0, 8, 0, 0, 0, 8, 0
sensor, 23, 40, 2, 5, 0, 0, 0, 6, 0
sensor, 24, 39, 4, 6, 0, 0, 0, 7, 0
sensor, 25, 40, 2, 3, 0, 0, 0, 1, 0
sensor, 26, 32, 0, 10, 0, 0, 0, 9, 0
sensor, 27, 38, 1, 13, 0, 0, 0, 14, 0
sensor, 28, 36, 2, 4, 0, 0, 0, 3, 0
sensor, 29, 32, 3, 2, 0, 0, 0, 2, 0
sensor, 30, 30, 3, 1, 0, 0, 0, 1, 0
sensor, 31, 32, 3, 4, 0, 0, 0, 5, 0
sensor, 32, 38, 4, 1, 0, 0, 0, 1, 0
sensor, 33, 44, 5, 1, 0, 0, 0, 2, 0
sensor, 34, 41, 4, 2, 0, 0, 0, 2, 0
sensor, 35, 32, 1, 6, 0, 0, 0, 6, 0
sensor, 36, 28, 2, 5, 0, 0, 0, 5, 0
sensor, 37, 35, 1, 5, 0, 0, 0, 4, 0
sensor, 38, 39, 4, 4, 0, 0, 0, 5, 0
sensor, 39, 24, 1, 7, 0, 0, 0, 7, 0
sensor, 40, 34, 5, 0, 0, 0, 0, 1, 0
sensor, 41, 34, 2, 7, 0, 0, 0, 7, 0
sensor, 42, 25, 2, 2, 0, 0, 0, 2, 0
sensor, 43, 33, 1, 12, 0, 0, 0, 12, 0
sensor, 44, 30, 4, 2, 0, 0, 0, 3, 0
sensor, 45, 44, 4, 4, 0, 0, 0, 5, 0
sensor, 46, 32, 1, 6, 0, 0, 0, 6, 0
sensor, 47, 34, 2, 3, 0, 0, 0, 1, 0
sensor, 48, 38, 2, 5, 0, 0, 0, 4, 0
sensor, 49, 39, 1, 8, 0, 0, 0, 7, 0
sensor, 50, 32, 4, 1, 0, 0, 0, 2, 0
sensor, 51, 39, 3, 2, 0, 0, 0, 1, 0
sensor, 52, 45, 6, 0, 0, 0, 0, 1, 0
sensor, 53, 41, 5, 2, 0, 0, 0, 3, 0
sensor, 54, 35, 4, 1, 0, 0, 0, 1, 0
sensor, 55, 36, 5, 0, 0, 0, 0, 1, 0
sensor, 56, 31, 1, 3, 0, 0, 0, 2, 0
sensor, 57, 30, 4, 2, 0, 0, 0, 3, 0
sensor, 58, 37, 3, 2, 0, 0, 0, 2, 0
sensor, 59, 27, 2, 2, 0, 0, 0, 2, 0
sensor, 60, 49, 2, 6, 0, 0, 0, 4, 0
sensor, 61, 37, 1, 7, 0, 0, 0, 7, 0
sensor, 62, 34, 3, 2, 0, 0, 0, 1, 0
sensor, 63, 36, 2, 3, 0, 0, 0, 2, 0
sensor, 64, 33, 1, 7, 0, 0, 0, 8, 0
sensor, 65, 37, 0, 6, 0, 0, 0, 4, 0
sensor, 66, 30, 2, 2, 0, 0, 0, 1, 0
sensor, 67, 32, 2, 4, 0, 0, 0, 3, 0
sensor, 68, 39, 0, 7, 0, 0, 0, 4, 0
sensor, 69, 37, 2, 4, 0, 0, 0, 3, 0
sensor, 70, 29, 0, 7, 0, 0, 0, 6, 0
sensor, 71, 40, 2, 10, 0, 0, 0, 11, 0
sensor, 72, 40, 3, 4, 0, 0, 0, 4, 0
sensor, 73, 39, 4, 3, 0, 0, 0, 4, 0
sensor, 74, 43, 2, 5, 0, 0, 0, 3, 0
sensor, 75, 40, 1, 10, 0, 0, 0, 10, 0
sensor, 76, 33, 2, 5, 0, 0, 0, 5, 0
sensor, 77, 28, 4, 0, 0, 0, 0, 1, 0
sensor, 78, 43, 2, 9, 0, 0, 0, 9, 0
sensor, 79, 47, 6, 0, 0, 0, 0, 1, 0
sensor, 80, 40, 3, 5, 0, 0, 0, 5, 0
sensor, 81, 37, 1, 7, 0, 0, 0, 7, 0
sensor, 82, 39, 1, 11, 0, 0, 0, 11, 0
sensor, 83, 37, 3, 2, 0, 0, 0, 1, 0
sensor, 84, 40, 1, 7, 0, 0, 0, 6, 0
sensor, 85, 35, 1, 5, 0, 0, 0, 5, 0
sensor, 86, 40, 5, 0, 0, 0, 0, 1, 0
sensor, 87, 48, 5, 2, 0, 0, 0, 2, 0
sensor, 88, 33, 2, 4, 0, 0, 0, 4, 0
sensor, 89, 31, 3, 2, 0, 0, 0, 3, 0
sensor, 90, 35, 4, 1, 0, 0, 0, 2, 0
sensor, 91, 31, 2, 8, 0, 0, 0, 8, 0
sensor, 92, 29, 2, 4, 0, 0, 0, 5, 0
sensor, 93, 36, 1, 9, 0, 0, 0, 8, 0
sensor, 94, 29, 2, 3, 0, 0, 0, 2, 0
sensor, 95, 29, 1, 8, 0, 0, 0, 9, 0
sensor, 96, 43, 1, 8, 0, 0, 0, 7, 0
sensor, 97, 28, 0, 4, 0, 0, 0, 1, 0
sensor, 98, 44, 2, 9, 0, 0, 0, 9, 0
sensor, 99, 31, 4, 1, 0, 0, 0, 2, 0
sensor, 100, 37, 1, 10, 0, 0, 0, 10, 0
sensor, 101, 33, 3, 1, 0, 0, 0, 1, 0
sensor, 102, 37, 2, 6, 0, 0, 0, 5, 0
sensor, 103, 32, 1, 3, 0, 0, 0, 1, 0
sensor, 104, 36, 1, 11, 0, 0, 0, 11, 0
sensor, 105, 49, 0, 8, 0, 0, 0, 3, 0
sensor, 106, 50, 2, 6, 0, 0, 0, 6, 0
sensor, 107, 35, 3, 2, 0, 0, 0, 2, 0
sensor, 108, 26, 3, 1, 0, 0, 0, 2, 0
sensor, 109, 37, 5, 0, 0, 0, 0, 1, 0
sensor, 110, 50, 1, 7, 0, 0, 0, 5, 0
sensor, 111, 37, 4, 3, 0, 0, 0, 3, 0
sensor, 112, 39, 4, 4, 0, 0, 0, 5, 0
sensor, 113, 29, 0, 6, 0, 0, 0, 4, 0
sensor, 114, 34, 3, 4, 0, 0, 0, 5, 0
sensor, 115, 36, 2, 11, 0, 0, 0, 12, 0
sensor, 116, 43, 3, 4, 0, 0, 0, 3, 0
sensor, 117, 32, 0, 6, 0, 0, 0, 4, 0
sensor, 118, 38, 2, 4, 0, 0, 0, 3, 0
sensor, 119, 33, 3, 3, 0, 0, 0, 3, 0
sensor, 120, 42, 1, 8, 0, 0, 0, 7, 0
sensor, 121, 31, 0, 6, 0, 0, 0, 3, 0
sensor, 122, 30, 1, 7, 0, 0, 0, 6, 0
sensor, 123, 37, 4, 2, 0, 0, 0, 3, 0
sensor, 124, 36, 1, 7, 0, 0, 0, 6, 0
sensor, 125, 30, 2, 2, 0, 0, 0, 3, 0
sensor, 126, 31, 2, 3, 0, 0, 0, 2, 0
sensor, 127, 37, 5, 1, 0, 0, 0, 2, 0
sensor, 128, 28, 3, 2, 0, 0, 0, 3, 0
sensor, 129, 32, 4, 0, 0, 0, 0, 1, 0
sensor, 130, 36, 2, 5, 0, 0, 0, 5, 0
sensor, 131, 38, 4, 4, 0, 0, 0, 4, 0
sensor, 132, 29, 1, 6, 0, 0, 0, 5, 0
sensor, 133, 30, 1, 5, 0, 0, 0, 6, 0
sensor, 134, 40, 3, 3, 0, 0, 0, 2, 0
sensor, 135, 35, 4, 2, 0, 0, 0, 3, 0
sensor, 136, 40, 5, 1, 0, 0, 0, 2, 0
sensor, 137, 45, 3, 7, 0, 0, 0, 7, 0
sensor, 138, 37, 3, 3, 0, 0, 0, 2, 0
sensor, 139, 42, 2, 6, 0, 0, 0, 5, 0
sensor, 140, 39, 5, 1, 0, 0, 0, 2, 0
sensor, 141, 41, 4, 1, 0, 0, 0, 2, 0
sensor, 142, 26, 3, 1, 0, 0, 0, 2, 0
sensor, 143, 26, 1, 8, 0, 0, 0, 9, 0
sensor, 144, 33, 4, 0, 0, 0, 0, 1, 0
sensor, 145, 28, 2, 4, 0, 0, 0, 4, 0
sensor, 146, 36, 4, 4, 0, 0, 0, 5, 0
sensor, 147, 49, 3, 4, 0, 0, 0, 2, 0
sensor, 148, 34, 5, 0, 0, 0, 0, 1, 0
sensor, 149, 25, 1, 7, 0, 0, 0, 7, 0
sensor, 150, 36, 2, 4, 0, 0, 0, 2, 0
sensor, 151, 37, 3, 3, 0, 0, 0, 3, 0
sensor, 152, 33, 3, 2, 0, 0, 0, 2, 0
sensor, 153, 31, 1, 3, 0, 0, 0, 1, 0
sensor, 154, 29, 4, 0, 0, 0, 0, 1, 0
sensor, 155, 38, 4, 3, 0, 0, 0, 4, 0
sensor, 156, 35, 2, 3, 0, 0, 0, 2, 0
sensor, 157, 49, 1, 9, 0, 0, 0, 7, 0
sensor, 158, 32, 4, 2, 0, 0, 0, 3, 0
sensor, 159, 38, 5, 1, 0, 0, 0, 2, 0
sensor, 160, 37, 4, 2, 0, 0, 0, 3, 0
sensor, 161, 38, 2, 9, 0, 0, 0, 9, 0
sensor, 162, 41, 1, 4, 0, 0, 0, 1, 0
sensor, 163, 36, 5, 0, 0, 0, 0, 1, 0
sensor, 164, 29, 4, 0, 0, 0, 0, 1, 0
sensor, 165, 35, 3, 4, 0, 0, 0, 5, 0
sensor, 166, 41, 4, 2, 0, 0, 0, 2, 0
sensor, 167, 40, 1, 12, 0, 0, 0, 12, 0
sensor, 168, 37, 2, 4, 0, 0, 0, 2, 0
sensor, 169, 31, 1, 3, 0, 0, 0, 1, 0
sensor, 170, 37, 0, 10, 0, 0, 0, 7, 0
sensor, 171, 43, 3, 6, 0, 0, 0, 6, 0
sensor, 172, 42, 5, 1, 0, 0, 0, 2, 0
sensor, 173, 31, 1, 5, 0, 0, 0, 6, 0
sensor, 174, 27, 3, 4, 0, 0, 0, 5, 0
sensor, 175, 34, 1, 5, 0, 0, 0, 3, 0
sensor, 176, 37, 4, 2, 0, 0, 0, 2, 0
sensor, 177, 46, 1, 9, 0, 0, 0, 8, 0
sensor, 178, 35, 2, 5, 0, 0, 0, 6, 0
sensor, 179, 39, 5, 0, 0, 0, 0, 1, 0
sensor, 180, 30, 2, 5, 0, 0, 0, 5, 0
sensor, 181, 36, 4, 3, 0, 0, 0, 4, 0
sensor, 182, 29, 4, 2, 0, 0, 0, 3, 0
sensor, 183, 40, 5, 1, 0, 0, 0, 2, 0
sensor, 184, 39, 5, 0, 0, 0, 0, 1, 0
sensor, 185, 33, 1, 8, 0, 0, 0, 8, 0
sensor, 186, 34, 3, 8, 0, 0, 0, 9, 0
sensor, 187, 38, 5, 1, 0, 0, 0, 2, 0
sensor, 188, 48, 6, 1, 0, 0, 0, 2, 0
sensor, 189, 42, 1, 8, 0, 0, 0, 7, 0
sensor, 190, 38, 2, 10, 0, 0, 0, 11, 0
sensor, 191, 53, 4, 6, 0, 0, 0, 6, 0
sensor, 192, 32, 1, 5, 0, 0, 0, 4, 0
sensor, 193, 38, 4, 5, 0, 0, 0, 6, 0
sensor, 194, 36, 3, 5, 0, 0, 0, 6, 0
sensor, 195, 35, 4, 1, 0, 0, 0, 2, 0
sensor, 196, 35, 5, 0, 0, 0, 0, 1, 0
sensor, 197, 39, 3, 2, 0, 0, 0, 2, 0
sensor, 198, 38, 4, 1, 0, 0, 0, 2, 0
sensor, 199, 30, 2, 6, 0, 0, 0, 7, 0
sensor, 200, 41, 5, 0, 0, 0, 0, 1, 0
sensor, 201, 32, 2, 9, 0, 0, 0, 10, 0
sensor, 202, 41, 0, 5, 0, 0, 0, 1, 0
sensor, 203, 36, 3, 3, 0, 0, 0, 4, 0
sensor, 204, 34, 2, 7, 0, 0, 0, 7, 0
sensor, 205, 30, 1, 6, 0, 0, 0, 5, 0
sensor, 206, 33, 4, 1, 0, 0, 0, 2, 0
sensor, 207, 45, 6, 1, 0, 0, 0, 2, 0
sensor, 208, 35, 2, 8, 0, 0, 0, 9, 0
sensor, 209, 33, 2, 5, 0, 0, 0, 5, 0
sensor, 210, 43, 6, 0, 0, 0, 0, 1, 0
sensor, 211, 41, 1, 10, 0, 0, 0, 10, 0
sensor, 212, 31, 4, 1, 0, 0, 0, 2, 0
sensor, 213, 37, 5, 1, 0, 0, 0, 2, 0
sensor, 214, 39, 3, 2, 0, 0, 0, 2, 0
sensor, 215, 36, 3, 3, 0, 0, 0, 4, 0
sensor, 216, 34, 1, 6, 0, 0, 0, 6, 0
sensor, 217, 29, 1, 9, 0, 0, 0, 9, 0
sensor, 218, 46, 3, 6, 0, 0, 0, 6, 0
sensor, 219, 33, 2, 5, 0, 0, 0, 4, 0
sensor, 220, 41, 1, 7, 0, 0, 0, 4, 0
sensor, 221, 43, 6, 0, 0, 0, 0, 1, 0
sensor, 222, 31, 1, 8, 0, 0, 0, 7, 0
sensor, 223, 30, 1, 8, 0, 0, 0, 7, 0
sensor, 224, 29, 1, 7, 0, 0, 0, 8, 0
sensor, 225, 35, 4, 1, 0, 0, 0, 1, 0
sensor, 226, 32, 2, 3, 0, 0, 0, 2, 0
sensor, 227, 35, 1, 4, 0, 0, 0, 2, 0
sensor, 228, 44, 2, 6, 0, 0, 0, 5, 0
sensor, 229, 40, 3, 4, 0, 0, 0, 4, 0
sensor, 230, 41, 5, 1, 0, 0, 0, 2, 0
sensor, 231, 35, 1, 8, 0, 0, 0, 9, 0
sensor, 232, 37, 5, 0, 0, 0, 0, 1, 0
sensor, 233, 41, 1, 5, 0, 0, 0, 2, 0
sensor, 234, 44, 6, 1, 0, 0, 0, 2, 0
sensor, 235, 32, 2, 6, 0, 0, 0, 7, 0
sensor, 236, 29, 1, 5, 0, 0, 0, 5, 0
sensor, 237, 47, 0, 8, 0, 0, 0, 5, 0
sensor, 238, 50, 3, 4, 0, 0, 0, 3, 0
sensor, 239, 36, 5, 1, 0, 0, 0, 2, 0
sensor, 240, 44, 1, 8, 0, 0, 0, 6, 0
sensor, 241, 28, 3, 1, 0, 0, 0, 1, 0
sensor, 242, 32, 1, 8, 0, 0, 0, 8, 0
sensor, 243, 32, 2, 8, 0, 0, 0, 9, 0
sensor, 244, 45, 2, 6, 0, 0, 0, 4, 0
sensor, 245, 37, 1, 5, 0, 0, 0, 3, 0
sensor, 246, 36, 5, 1, 0, 0, 0, 2, 0
sensor, 247, 42, 0, 10, 0, 0, 0, 7, 0
sensor, 248, 36, 1, 6, 0, 0, 0, 3, 0
sensor, 249, 34, 5, 0, 0, 0, 0, 1, 0
sensor, 250, 30, 0, 12, 0, 0, 0, 12, 0
sensor, 251, 40, 1, 9, 0, 0, 0, 10, 0
sensor, 252, 39, 2, 6, 0, 0, 0, 7, 0
sensor, 253, 42, 5, 1, 0, 0, 0, 2, 0
sensor, 254, 37, 4, 2, 0, 0, 0, 3, 0
sensor, 255, 35, 4, 1, 0, 0, 0, 2, 0
sensor, 256, 30, 1, 8, 0, 0, 0, 9, 0
sensor, 257, 34, 2, 3, 0, 0, 0, 2, 0
sensor, 258, 24, 1, 11, 0, 0, 0, 12, 0
sensor, 259, 34, 5, 0, 0, 0, 0, 1, 0
sensor, 260, 23, 1, 4, 0, 0, 0, 4, 0
sensor, 261, 31, 3, 3, 0, 0, 0, 4, 0
sensor, 262, 39, 2, 8, 0, 0, 0, 8, 0
sensor, 263, 39, 5, 0, 0, 0, 0, 1, 0
sensor, 264, 38, 2, 7, 0, 0, 0, 7, 0
sensor, 265, 35, 2, 6, 0, 0, 0, 6, 0
sensor, 266, 42, 2, 7, 0, 0, 0, 6, 0
sensor, 267, 35, 5, 0, 0, 0, 0, 1, 0
sensor, 268, 30, 4, 0, 0, 0, 0, 1, 0
sensor, 269, 38, 0, 5, 0, 0, 0, 2, 0
sensor, 270, 34, 1, 4, 0, 0, 0, 3, 0
sensor, 271, 38, 2, 3, 0, 0, 0, 1, 0
sensor, 272, 32, 1, 8, 0, 0, 0, 8, 0
sensor, 273, 26, 2, 5, 0, 0, 0, 5, 0
sensor, 274, 29, 2, 3, 0, 0, 0, 3, 0
sensor, 275, 31, 3, 4, 0, 0, 0, 5, 0
sensor, 276, 40, 2, 3, 0, 0, 0, 3, 0
sensor, 277, 36, 1, 8, 0, 0, 0, 8, 0
sensor, 278, 34, 2, 5, 0, 0, 0, 6, 0
sensor, 279, 34, 2, 5, 0, 0, 0, 5, 0
sensor, 280, 35, 1, 7, 0, 0, 0, 8, 0
sensor, 281, 40, 3, 2, 0, 0, 0, 2, 0
sensor, 282, 41, 5, 0, 0, 0, 0, 1, 0
sensor, 283, 40, 3, 4, 0, 0, 0, 5, 0
sensor, 284, 42, 0, 9, 0, 0, 0, 7, 0
sensor, 285, 41, 5, 1, 0, 0, 0, 2, 0
sensor, 286, 33, 1, 5, 0, 0, 0, 4, 0
sensor, 287, 40, 1, 4, 0, 0, 0, 1, 0
sensor, 288, 33, 4, 0, 0, 0, 0, 1, 0
sensor, 289, 47, 4, 4, 0, 0, 0, 4, 0
sensor, 290, 38, 0, 9, 0, 0, 0, 6, 0
sensor, 291, 43, 1, 7, 0, 0, 0, 5, 0
sensor, 292, 43, 5, 4, 0, 0, 0, 5, 0
sensor, 293, 54, 2, 9, 0, 0, 0, 9, 0
sensor, 294, 28, 3, 4, 0, 0, 0, 5, 0
sensor, 295, 42, 1, 10, 0, 0, 0, 8, 0
sensor, 296, 41, 1, 5, 0, 0, 0, 2, 0
sensor, 297, 39, 1, 7, 0, 0, 0, 7, 0
sensor, 298, 44, 1, 8, 0, 0, 0, 6, 0
sensor, 299, 38, 1, 5, 0, 0, 0, 2, 0
