packet, 4, 54, 0, 34.66, 3, 0.086016, False
packet, 5, 46, 0, 56.01, 3, 0.086016, False
packet, 7, 39, 0, 74.33, 3, 0.086016, False
packet, 8, 16, 0, 84.73, 3, 0.086016, False
packet, 1, 56, 0, 93.58, 3, 0.086016, False
packet, 15, 26, 0, 100.53, 3, 0.086016, False
packet, 11, 97, 0, 102.17, 3, 0.086016, False
packet, 13, 21, 0, 111.7, 3, 0.086016, False
packet, 9, 34, 0, 113.74, 3, 0.086016, False
packet, 14, 77, 0, 114.68, 3, 0.086016, False
packet, 17, 8, 0, 118.33, 3, 0.086016, False
packet, 16, 82, 0, 124.78, 3, 0.086016, False
packet, 21, 98, 0, 132.09, 3, 0.086016, False
packet, 18, 10, 0, 137.5, 3, 0.086016, False
packet, 2, 7, 0, 138.2, 3, 0.086016, False
packet, 6, 1, 0, 141.06, 4, 0.086016, False
packet, 26, 34, 0, 144.36, 3, 0.086016, False
packet, 28, 38, 0, 146.01, 3, 0.086016, False
packet, 34, 1, 0, 151.87, 3, 0.086016, False
packet, 19, 65, 0, 152.74, 3, 0.086016, False
packet, 20, 94, 0, 154.58, 3, 0.086016, False
packet, 24, 17, 0, 158.62, 3, 0.086016, False
packet, 25, 30, 0, 162.83, 3, 0.086016, False
packet, 36, 69, 0, 163.72, 3, 0.086016, False
packet, 27, 6, 0, 168.84, 3, 0.086016, False
packet, 23, 90, 0, 173.07, 3, 0.086016, False
packet, 12, 96, 0, 175.61, 4, 0.086016, False
packet, 40, 44, 0, 177.99, 3, 0.086016, False
packet, 42, 73, 0, 178.7, 3, 0.086016, False
packet, 22, 85, 0, 191.25, 3, 0.086016, False
packet, 37, 34, 0, 195.85, 3, 0.086016, False
packet, 33, 48, 0, 197.93, 3, 0.086016, False
packet, 31, 68, 0, 211.05, 3, 0.086016, False
packet, 3, 43, 0, 217.46, 5, 0.086016, False
packet, 29, 65, 0, 222.69, 3, 0.086016, False
packet, 50, 18, 0, 227.51, 3, 0.086016, False
packet, 54, 43, 0, 233.58, 3, 0.086016, False
packet, 48, 60, 0, 234.35, 3, 0.086016, False
packet, 45, 11, 0, 241.55, 3, 0.086016, False
packet, 30, 2, 0, 245.26, 5, 0.086016, False
packet, 10, 54, 0, 245.99, 5, 0.086016, False
packet, 46, 45, 0, 249.15, 3, 0.086016, False
packet, 32, 62, 0, 251.23, 4, 0.086016, False
packet, 35, 37, 0, 252.19, 3, 0.086016, False
packet, 38, 63, 0, 260.75, 5, 0.086016, False
packet, 57, 33, 0, 262.55, 3, 0.086016, False
packet, 43, 70, 0, 263.52, 3, 0.086016, False
packet, 56, 26, 0, 268.31, 3, 0.086016, False
packet, 63, 54, 0, 275.41, 3, 0.086016, False
packet, 52, 32, 0, 279.19, 3, 0.086016, False
packet, 47, 77, 0, 280.04, 5, 0.086016, False
packet, 53, 57, 0, 287.81, 4, 0.086016, False
packet, 51, 11, 0, 288.43, 3, 0.086016, False
packet, 41, 23, 0, 290.5, 4, 0.086016, False
packet, 44, 73, 0, 294.54, 5, 0.086016, False
packet, 61, 93, 0, 305.46, 3, 0.086016, False
packet, 76, 72, 0, 312.06, 3, 0.086016, False
packet, 58, 24, 0, 317.64, 3, 0.086016, False
packet, 66, 82, 0, 319.64, 3, 0.086016, False
packet, 39, 2, 0, 322.9, 3, 0.086016, False
packet, 72, 58, 0, 324.19, 3, 0.086016, False
packet, 65, 64, 0, 336.09, 3, 0.086016, False
packet, 79, 55, 0, 342.53, 3, 0.086016, False
packet, 74, 7, 0, 349.94, 3, 0.086016, False
packet, 67, 15, 0, 351.45, 3, 0.086016, False
packet, 88, 94, 0, 355.45, 3, 0.086016, False
packet, 73, 53, 0, 363.65, 3, 0.086016, False
packet, 60, 36, 0, 364.68, 3, 0.086016, False
packet, 83, 33, 0, 368.7, 3, 0.086016, False
packet, 84, 96, 0, 369.87, 3, 0.086016, False
packet, 80, 76, 0, 373.23, 3, 0.086016, False
packet, 82, 86, 0, 377.77, 3, 0.086016, False
packet, 64, 88, 0, 379.44, 3, 0.086016, False
packet, 90, 37, 0, 387.1, 3, 0.086016, False
packet, 85, 56, 0, 390.35, 3, 0.086016, False
packet, 94, 47, 0, 398.57, 3, 0.086016, False
packet, 99, 23, 0, 405.43, 3, 0.086016, False
packet, 100, 74, 0, 406.52, 3, 0.086016, False
packet, 97, 69, 0, 409.02, 3, 0.086016, False
packet, 68, 11, 0, 412.28, 5, 0.086016, False
packet, 93, 41, 0, 416.72, 3, 0.086016, False
packet, 105, 71, 0, 430.2, 3, 0.086016, False
packet, 95, 82, 0, 438.03, 3, 0.086016, False
packet, 70, 63, 0, 441.85, 3, 0.086016, False
packet, 101, 32, 0, 443.06, 3, 0.086016, False
packet, 102, 61, 0, 445.6, 3, 0.086016, False
packet, 106, 47, 0, 447.62, 3, 0.086016, False
packet, 103, 53, 0, 450.02, 3, 0.086016, False
packet, 111, 55, 0, 454.39, 3, 0.086016, False
packet, 98, 79, 0, 455.16, 3, 0.086016, False
packet, 78, 48, 0, 461.63, 4, 0.086016, False
packet, 91, 13, 0, 464.24, 5, 0.086016, False
packet, 107, 24, 0, 464.91, 3, 0.086016, False
packet, 112, 92, 0, 469.86, 3, 0.086016, False
packet, 81, 8, 0, 482.41, 5, 0.086016, False
packet, 117, 59, 0, 487.31, 3, 0.086016, False
packet, 119, 85, 0, 491.35, 3, 0.086016, False
packet, 75, 70, 0, 496.59, 4, 0.086016, False
packet, 86, 56, 0, 498.79, 4, 0.086016, False
packet, 114, 4, 0, 504.2, 3, 0.086016, False
packet, 109, 72, 0, 505.01, 5, 0.086016, False
packet, 92, 13, 0, 511.12, 3, 0.086016, False
packet, 116, 91, 0, 517.14, 3, 0.086016, False
packet, 49, 42, 0, 519.19, 3, 0.086016, False
packet, 108, 48, 0, 523.89, 3, 0.086016, False
packet, 69, 30, 0, 526.42, 5, 0.086016, True
packet, 128, 38, 0, 526.42, 3, 0.086016, True
packet, 110, 42, 0, 527.62, 3, 0.086016, False
packet, 125, 0, 0, 535.76, 3, 0.086016, False
packet, 122, 20, 0, 536.5, 3, 0.086016, False
packet, 126, 85, 0, 544.98, 3, 0.086016, False
packet, 120, 79, 0, 545.64, 3, 0.086016, False
packet, 131, 50, 0, 546.81, 3, 0.086016, False
packet, 124, 92, 0, 549.18, 3, 0.086016, False
packet, 104, 70, 0, 558.85, 3, 0.086016, False
packet, 138, 98, 0, 560.42, 3, 0.086016, False
packet, 118, 48, 0, 563.08, 3, 0.086016, False
packet, 139, 42, 0, 571.52, 3, 0.086016, False
packet, 127, 37, 0, 579.66, 3, 0.086016, False
packet, 121, 31, 0, 581.71, 4, 0.086016, False
packet, 130, 80, 0, 590.12, 3, 0.086016, False
packet, 115, 84, 0, 592.61, 4, 0.086016, False
packet, 142, 21, 0, 601.04, 3, 0.086016, False
packet, 141, 93, 0, 603.32, 3, 0.086016, False
packet, 55, 81, 0, 605.54, 6, 0.086016, False
packet, 132, 37, 0, 618.85, 3, 0.086016, False
packet, 133, 23, 0, 624.8, 4, 0.086016, False
packet, 144, 30, 0, 626.97, 3, 0.086016, False
packet, 147, 24, 0, 628.59, 3, 0.086016, False
packet, 155, 96, 0, 630.17, 3, 0.086016, False
packet, 59, 81, 0, 637.04, 3, 0.086016, False
packet, 113, 78, 0, 639.44, 5, 0.086016, False
packet, 153, 86, 0, 640.53, 3, 0.086016, False
packet, 146, 61, 0, 641.2, 3, 0.086016, False
packet, 71, 3, 0, 643.95, 6, 0.086016, False
packet, 151, 89, 0, 645.61, 3, 0.086016, False
packet, 145, 44, 0, 647.5, 3, 0.086016, False
packet, 87, 15, 0, 652.18, 6, 0.086016, False
packet, 136, 25, 0, 653.49, 3, 0.086016, False
packet, 156, 32, 0, 655.45, 3, 0.086016, False
packet, 152, 22, 0, 661.04, 3, 0.086016, False
packet, 143, 60, 0, 674.65, 3, 0.086016, False
packet, 77, 81, 0, 676.23, 3, 0.086016, False
packet, 157, 13, 0, 683.21, 3, 0.086016, False
packet, 154, 82, 0, 691.33, 3, 0.086016, False
packet, 140, 72, 0, 694.43, 5, 0.086016, False
packet, 162, 3, 0, 698.42, 3, 0.086016, False
packet, 135, 54, 0, 702.88, 5, 0.086016, False
packet, 165, 70, 0, 721.27, 3, 0.086016, False
packet, 96, 26, 0, 722.08, 5, 0.086016, False
packet, 149, 7, 0, 725.29, 5, 0.086016, False
packet, 171, 91, 0, 730.54, 3, 0.086016, False
packet, 160, 12, 0, 741.33, 3, 0.086016, False
packet, 137, 95, 0, 743.57, 5, 0.086016, False
packet, 173, 98, 0, 747.1, 3, 0.086016, False
packet, 168, 66, 0, 749.12, 3, 0.086016, False
packet, 175, 74, 0, 757.99, 3, 0.086016, False
packet, 184, 21, 0, 764.14, 3, 0.086016, False
packet, 161, 12, 0, 765.14, 3, 0.086016, False
packet, 164, 3, 0, 768.37, 3, 0.086016, False
packet, 150, 88, 0, 772.94, 4, 0.086016, False
packet, 163, 88, 0, 789.06, 3, 0.086016, False
packet, 176, 79, 0, 790.77, 3, 0.086016, False
packet, 180, 45, 0, 794.47, 3, 0.086016, False
packet, 179, 3, 0, 799.87, 3, 0.086016, False
packet, 172, 66, 0, 803.69, 3, 0.086016, False
packet, 189, 44, 0, 807.04, 3, 0.086016, False
packet, 181, 13, 0, 810.93, 4, 0.086016, False
packet, 183, 6, 0, 815.72, 3, 0.086016, False
packet, 185, 43, 0, 818.69, 3, 0.086016, False
packet, 166, 12, 0, 819.71, 3, 0.086016, False
packet, 188, 24, 0, 823.23, 3, 0.086016, False
packet, 159, 5, 0, 824.36, 3, 0.086016, False
packet, 193, 77, 0, 825.88, 3, 0.086016, False
packet, 186, 72, 0, 829.28, 3, 0.086016, False
packet, 182, 66, 0, 835.19, 3, 0.086016, False
packet, 199, 56, 0, 835.93, 3, 0.086016, False
packet, 187, 42, 0, 837.65, 3, 0.086016, False
packet, 170, 36, 0, 839.68, 5, 0.086016, False
packet, 203, 43, 0, 842.5, 3, 0.086016, False
packet, 197, 82, 0, 844.47, 3, 0.086016, False
packet, 201, 72, 0, 845.4, 3, 0.086016, False
packet, 129, 63, 0, 849.77, 5, 0.086016, False
packet, 198, 85, 0, 857.04, 3, 0.086016, False
packet, 206, 26, 0, 859.6, 3, 0.086016, False
packet, 210, 48, 0, 870.03, 3, 0.086016, False
packet, 208, 25, 0, 871.7, 3, 0.086016, False
packet, 191, 66, 0, 874.38, 3, 0.086016, False
packet, 202, 46, 0, 877.05, 3, 0.086016, False
packet, 212, 49, 0, 881.38, 3, 0.086016, False
packet, 217, 72, 0, 882.18, 3, 0.086016, False
packet, 216, 23, 0, 888.75, 3, 0.086016, False
packet, 205, 58, 0, 890.05, 3, 0.086016, False
packet, 220, 40, 0, 891.28, 3, 0.086016, False
packet, 222, 36, 0, 902.29, 3, 0.086016, False
packet, 219, 55, 0, 904.51, 4, 0.086016, False
packet, 215, 6, 0, 907.12, 3, 0.086016, False
packet, 167, 65, 0, 910.05, 5, 0.086016, False
packet, 134, 63, 0, 919.72, 3, 0.086016, False
packet, 209, 95, 0, 920.67, 3, 0.086016, False
packet, 225, 37, 0, 923.43, 3, 0.086016, False
packet, 223, 61, 0, 926.45, 3, 0.086016, False
packet, 213, 52, 0, 927.75, 4, 0.086016, False
packet, 227, 84, 0, 931.83, 3, 0.086016, False
packet, 174, 71, 0, 934.78, 5, 0.086016, False
packet, 204, 33, 0, 935.56, 4, 0.086016, False
packet, 200, 28, 0, 936.79, 5, 0.086016, False
packet, 207, 28, 0, 945.22, 3, 0.086016, False
packet, 211, 18, 0, 955.57, 3, 0.086016, False
packet, 229, 44, 0, 958.84, 3, 0.086016, False
packet, 232, 83, 0, 963.1, 3, 0.086016, False
packet, 195, 96, 0, 966.13, 5, 0.086016, False
packet, 224, 14, 0, 967.25, 3, 0.086016, False
packet, 235, 26, 0, 972.4, 3, 0.086016, False
packet, 233, 52, 0, 978.23, 3, 0.086016, False
packet, 228, 62, 0, 979.66, 3, 0.086016, False
packet, 234, 58, 0, 986.96, 3, 0.086016, False
packet, 230, 23, 0, 990.21, 3, 0.086016, False
packet, 236, 22, 0, 992.1, 3, 0.086016, False
packet, 231, 67, 0, 998.85, 3, 0.086016, False
packet, 244, 85, 0, 1000.86, 3, 0.086016, False
packet, 243, 42, 0, 1004.32, 3, 0.086016, False
packet, 242, 49, 0, 1009.07, 3, 0.086016, False
packet, 214, 0, 0, 1013.22, 4, 0.086016, False
packet, 238, 70, 0, 1014.63, 3, 0.086016, False
packet, 226, 59, 0, 1018.01, 3, 0.086016, False
packet, 252, 15, 0, 1020.32, 3, 0.086016, False
packet, 218, 98, 0, 1023.61, 4, 0.086016, False
packet, 254, 79, 0, 1025.52, 3, 0.086016, False
packet, 241, 62, 0, 1026.54, 3, 0.086016, False
packet, 248, 43, 0, 1031.22, 3, 0.086016, False
packet, 247, 68, 0, 1035.76, 3, 0.086016, False
packet, 246, 5, 0, 1041.46, 3, 0.086016, False
packet, 240, 35, 0, 1045.79, 3, 0.086016, False
packet, 245, 88, 0, 1055.5, 3, 0.086016, False
packet, 256, 59, 0, 1057.2, 3, 0.086016, False
packet, 177, 74, 0, 1058.77, 7, 0.086016, False
packet, 237, 22, 0, 1062.05, 3, 0.086016, False
packet, 260, 97, 0, 1062.85, 3, 0.086016, False
packet, 257, 80, 0, 1066.21, 3, 0.086016, False
packet, 262, 38, 0, 1067.62, 3, 0.086016, False
packet, 264, 91, 0, 1071.18, 3, 0.086016, False
packet, 266, 35, 0, 1073.36, 3, 0.086016, False
packet, 258, 89, 0, 1075.96, 3, 0.086016, False
packet, 259, 76, 0, 1076.8, 3, 0.086016, False
packet, 250, 7, 0, 1086.09, 4, 0.086016, False
packet, 251, 33, 0, 1087.59, 3, 0.086016, False
packet, 249, 5, 0, 1088.34, 3, 0.086016, False
packet, 265, 75, 0, 1096.23, 3, 0.086016, False
packet, 269, 62, 0, 1102.29, 3, 0.086016, False
packet, 273, 77, 0, 1105.1, 3, 0.086016, False
packet, 190, 74, 0, 1128.72, 3, 0.086016, False
packet, 270, 11, 0, 1136.8, 3, 0.086016, False
packet, 274, 17, 0, 1138.66, 3, 0.086016, False
packet, 276, 82, 0, 1139.71, 3, 0.086016, False
packet, 278, 51, 0, 1140.37, 3, 0.086016, False
packet, 255, 71, 0, 1141.88, 5, 0.086016, False
packet, 271, 99, 0, 1144.61, 3, 0.086016, False
packet, 263, 39, 0, 1153.79, 3, 0.086016, False
packet, 267, 34, 0, 1154.49, 3, 0.086016, False
packet, 279, 23, 0, 1156.47, 3, 0.086016, False
packet, 283, 60, 0, 1157.48, 3, 0.086016, False
packet, 282, 94, 0, 1164.0, 4, 0.086016, False
packet, 280, 42, 0, 1166.06, 3, 0.086016, False
packet, 277, 56, 0, 1167.28, 4, 0.086016, False
packet, 261, 98, 0, 1171.37, 4, 0.086016, False
packet, 272, 61, 0, 1179.38, 3, 0.086016, False
packet, 291, 14, 0, 1182.08, 3, 0.086016, False
packet, 284, 0, 0, 1186.22, 3, 0.086016, False
packet, 299, 86, 0, 1189.76, 3, 0.086016, False
packet, 297, 82, 0, 1202.13, 3, 0.086016, False
packet, 287, 60, 0, 1204.36, 3, 0.086016, False
packet, 300, 22, 0, 1206.26, 3, 0.086016, False
packet, 301, 94, 0, 1212.11, 3, 0.086016, False
packet, 296, 85, 0, 1215.93, 3, 0.086016, False
packet, 196, 21, 0, 1226.62, 7, 0.086016, False
packet, 268, 21, 0, 1227.36, 3, 0.086016, False
packet, 295, 55, 0, 1230.47, 3, 0.086016, False
packet, 293, 26, 0, 1231.3, 3, 0.086016, False
packet, 308, 99, 0, 1236.51, 3, 0.086016, False
packet, 298, 59, 0, 1242.01, 3, 0.086016, False
packet, 285, 48, 0, 1244.6, 3, 0.086016, False
packet, 292, 48, 0, 1253.03, 3, 0.086016, False
packet, 302, 89, 0, 1253.8, 3, 0.086016, False
packet, 322, 26, 0, 1262.76, 3, 0.086016, False
packet, 315, 23, 0, 1267.33, 3, 0.086016, False
packet, 305, 66, 0, 1272.41, 3, 0.086016, False
packet, 320, 76, 0, 1273.73, 3, 0.086016, False
packet, 314, 99, 0, 1275.7, 3, 0.086016, False
packet, 286, 7, 0, 1277.73, 3, 0.086016, False
packet, 290, 74, 0, 1279.67, 4, 0.086016, False
packet, 281, 49, 0, 1282.23, 5, 0.086016, False
packet, 328, 84, 0, 1293.49, 3, 0.086016, False
packet, 332, 68, 0, 1301.22, 3, 0.086016, False
packet, 311, 0, 0, 1303.77, 3, 0.086016, False
packet, 304, 43, 0, 1304.54, 4, 0.086016, False
packet, 336, 80, 0, 1307.64, 3, 0.086016, False
packet, 327, 78, 0, 1313.05, 3, 0.086016, False
packet, 318, 86, 0, 1315.29, 3, 0.086016, False
packet, 333, 16, 0, 1316.95, 3, 0.086016, False
packet, 289, 30, 0, 1318.05, 4, 0.086016, False
packet, 323, 10, 0, 1320.56, 3, 0.086016, False
packet, 288, 49, 0, 1321.42, 3, 0.086016, False
packet, 335, 15, 0, 1330.31, 3, 0.086016, False
packet, 303, 69, 0, 1333.46, 4, 0.086016, False
packet, 343, 67, 0, 1336.2, 3, 0.086016, False
packet, 345, 46, 0, 1339.64, 3, 0.086016, False
packet, 62, 29, 0, 1340.96, 8, 0.086016, True
packet, 330, 88, 0, 1340.98, 3, 0.086016, True
packet, 324, 0, 0, 1342.96, 3, 0.086016, False
packet, 334, 66, 0, 1345.51, 3, 0.086016, False
packet, 341, 47, 0, 1348.58, 3, 0.086016, False
packet, 294, 74, 0, 1349.62, 3, 0.086016, False
packet, 329, 36, 0, 1355.43, 3, 0.086016, False
packet, 317, 30, 0, 1357.24, 3, 0.086016, False
packet, 339, 91, 0, 1361.37, 3, 0.086016, False
packet, 331, 10, 0, 1367.48, 4, 0.086016, False
packet, 306, 55, 0, 1369.7, 5, 0.086016, False
packet, 325, 93, 0, 1370.94, 3, 0.086016, False
packet, 89, 29, 0, 1372.46, 3, 0.086016, False
packet, 352, 20, 0, 1374.6, 3, 0.086016, False
packet, 351, 12, 0, 1377.58, 3, 0.086016, False
packet, 342, 93, 0, 1379.37, 3, 0.086016, False
packet, 350, 88, 0, 1380.17, 3, 0.086016, False
packet, 349, 4, 0, 1388.08, 3, 0.086016, False
packet, 344, 95, 0, 1390.51, 3, 0.086016, False
packet, 355, 71, 0, 1392.33, 3, 0.086016, False
packet, 353, 49, 0, 1395.02, 3, 0.086016, False
packet, 310, 69, 0, 1395.72, 3, 0.086016, False
packet, 313, 65, 0, 1397.05, 5, 0.086016, False
packet, 340, 0, 0, 1405.22, 3, 0.086016, False
packet, 347, 98, 0, 1413.06, 3, 0.086016, False
packet, 239, 3, 0, 1418.28, 7, 0.086016, False
packet, 358, 7, 0, 1421.08, 3, 0.086016, False
packet, 337, 30, 0, 1427.19, 3, 0.086016, False
packet, 354, 59, 0, 1430.38, 3, 0.086016, False
packet, 359, 81, 0, 1434.59, 3, 0.086016, False
packet, 253, 3, 0, 1449.78, 3, 0.086016, False
packet, 346, 17, 0, 1455.65, 3, 0.086016, False
packet, 338, 13, 0, 1456.92, 4, 0.086016, False
packet, 316, 73, 0, 1459.95, 6, 0.086016, False
packet, 366, 78, 0, 1463.42, 3, 0.086016, False
packet, 356, 64, 0, 1467.5, 5, 0.086016, False
packet, 326, 55, 0, 1470.44, 4, 0.086016, False
packet, 365, 12, 0, 1473.6, 3, 0.086016, False
packet, 361, 75, 0, 1482.32, 3, 0.086016, False
packet, 123, 29, 0, 1488.58, 4, 0.086016, False
packet, 362, 89, 0, 1492.4, 3, 0.086016, False
packet, 363, 7, 0, 1495.44, 3, 0.086016, False
packet, 368, 76, 0, 1498.16, 3, 0.086016, False
packet, 375, 46, 0, 1500.78, 3, 0.086016, False
packet, 348, 60, 0, 1505.67, 5, 0.086016, False
packet, 148, 29, 0, 1512.39, 3, 0.086016, False
packet, 371, 5, 0, 1513.06, 3, 0.086016, False
packet, 370, 93, 0, 1515.35, 3, 0.086016, False
packet, 369, 19, 0, 1516.3, 3, 0.086016, False
packet, 372, 72, 0, 1526.13, 3, 0.086016, False
packet, 364, 71, 0, 1527.31, 3, 0.086016, False
packet, 374, 71, 0, 1528.05, 3, 0.086016, False
packet, 385, 31, 0, 1529.77, 3, 0.086016, False
packet, 381, 63, 0, 1532.14, 3, 0.086016, False
packet, 384, 37, 0, 1535.34, 3, 0.086016, False
packet, 382, 36, 0, 1540.54, 3, 0.086016, False
packet, 158, 29, 0, 1543.89, 3, 0.086016, False
packet, 386, 24, 0, 1545.19, 3, 0.086016, False
packet, 379, 19, 0, 1547.8, 3, 0.086016, False
packet, 380, 81, 0, 1559.9, 3, 0.086016, False
packet, 394, 94, 0, 1561.08, 3, 0.086016, False
packet, 395, 55, 0, 1568.97, 3, 0.086016, False
packet, 391, 5, 0, 1574.74, 3, 0.086016, False
packet, 393, 68, 0, 1576.43, 3, 0.086016, False
packet, 400, 23, 0, 1578.05, 3, 0.086016, False
packet, 390, 54, 0, 1582.14, 3, 0.086016, False
packet, 399, 57, 0, 1585.32, 3, 0.086016, False
packet, 396, 11, 0, 1598.31, 3, 0.086016, False
packet, 383, 19, 0, 1602.37, 3, 0.086016, False
packet, 392, 24, 0, 1605.1, 3, 0.086016, False
packet, 387, 67, 0, 1606.93, 3, 0.086016, False
packet, 401, 5, 0, 1613.93, 3, 0.086016, False
packet, 373, 99, 0, 1618.91, 5, 0.086016, False
packet, 389, 85, 0, 1625.66, 3, 0.086016, False
packet, 402, 57, 0, 1632.2, 3, 0.086016, False
packet, 408, 28, 0, 1634.99, 3, 0.086016, False
packet, 411, 61, 0, 1635.72, 3, 0.086016, False
packet, 409, 95, 0, 1644.35, 3, 0.086016, False
packet, 412, 5, 0, 1645.43, 3, 0.086016, False
packet, 407, 84, 0, 1648.29, 3, 0.086016, False
packet, 405, 47, 0, 1649.66, 3, 0.086016, False
packet, 398, 24, 0, 1651.98, 3, 0.086016, False
packet, 406, 62, 0, 1654.01, 3, 0.086016, False
packet, 378, 76, 0, 1660.46, 5, 0.086016, False
packet, 388, 50, 0, 1666.58, 3, 0.086016, False
packet, 416, 59, 0, 1670.67, 3, 0.086016, False
packet, 420, 16, 0, 1672.77, 3, 0.086016, False
packet, 169, 29, 0, 1675.39, 4, 0.086016, False
packet, 419, 66, 0, 1676.94, 3, 0.086016, False
packet, 424, 49, 0, 1678.58, 3, 0.086016, False
packet, 319, 56, 0, 1680.0, 7, 0.086016, False
packet, 415, 19, 0, 1682.49, 3, 0.086016, False
packet, 423, 51, 0, 1684.13, 3, 0.086016, False
packet, 421, 59, 0, 1686.79, 3, 0.086016, False
packet, 377, 15, 0, 1689.72, 4, 0.086016, False
packet, 414, 50, 0, 1698.08, 3, 0.086016, False
packet, 431, 87, 0, 1700.46, 3, 0.086016, False
packet, 417, 63, 0, 1702.11, 3, 0.086016, False
packet, 439, 61, 0, 1705.17, 3, 0.086016, False
packet, 427, 95, 0, 1709.55, 3, 0.086016, False
packet, 425, 15, 0, 1721.22, 3, 0.086016, False
packet, 192, 45, 0, 1725.74, 8, 0.086016, False
packet, 444, 99, 0, 1727.34, 3, 0.086016, False
packet, 434, 10, 0, 1728.6, 3, 0.086016, False
packet, 441, 61, 0, 1738.02, 3, 0.086016, False
packet, 433, 27, 0, 1740.53, 3, 0.086016, False
packet, 410, 35, 0, 1742.05, 5, 0.086016, False
packet, 418, 33, 0, 1744.86, 5, 0.086016, False
packet, 435, 89, 0, 1746.06, 3, 0.086016, False
packet, 445, 93, 0, 1756.73, 3, 0.086016, False
packet, 443, 83, 0, 1757.74, 3, 0.086016, False
packet, 397, 69, 0, 1767.89, 4, 0.086016, False
packet, 451, 50, 0, 1770.44, 3, 0.086016, False
packet, 436, 53, 0, 1771.17, 3, 0.086016, False
packet, 449, 93, 0, 1772.85, 3, 0.086016, False
packet, 428, 88, 0, 1774.55, 5, 0.086016, False
packet, 458, 39, 0, 1780.7, 3, 0.086016, False
packet, 438, 46, 0, 1781.46, 3, 0.086016, False
packet, 457, 60, 0, 1782.45, 3, 0.086016, False
packet, 448, 45, 0, 1788.04, 4, 0.086016, False
packet, 422, 96, 0, 1798.67, 3, 0.086016, False
packet, 456, 19, 0, 1800.82, 3, 0.086016, False
packet, 430, 73, 0, 1802.37, 4, 0.086016, False
packet, 450, 42, 0, 1804.48, 3, 0.086016, False
packet, 413, 18, 0, 1810.44, 6, 0.086016, False
packet, 426, 35, 0, 1819.77, 5, 0.086016, False
packet, 454, 62, 0, 1821.91, 4, 0.086016, False
packet, 464, 99, 0, 1825.21, 3, 0.086016, False
packet, 459, 95, 0, 1834.75, 3, 0.086016, False
packet, 466, 53, 0, 1841.68, 3, 0.086016, False
packet, 468, 79, 0, 1846.48, 3, 0.086016, False
packet, 470, 71, 0, 1848.54, 3, 0.086016, False
packet, 465, 34, 0, 1856.83, 3, 0.086016, False
packet, 460, 98, 0, 1862.94, 3, 0.086016, False
packet, 478, 18, 0, 1868.42, 3, 0.086016, False
packet, 453, 78, 0, 1870.98, 5, 0.086016, False
packet, 473, 99, 0, 1877.12, 3, 0.086016, False
packet, 469, 32, 0, 1878.23, 3, 0.086016, False
packet, 312, 8, 0, 1880.54, 6, 0.086016, False
packet, 360, 8, 0, 1881.28, 3, 0.086016, False
packet, 477, 16, 0, 1891.17, 3, 0.086016, False
packet, 479, 98, 0, 1894.44, 3, 0.086016, False
packet, 463, 89, 0, 1896.34, 3, 0.086016, False
packet, 442, 69, 0, 1899.44, 5, 0.086016, False
packet, 462, 51, 0, 1903.86, 3, 0.086016, False
packet, 440, 6, 0, 1905.85, 4, 0.086016, False
packet, 481, 77, 0, 1913.57, 3, 0.086016, False
packet, 480, 58, 0, 1914.27, 3, 0.086016, False
packet, 474, 99, 0, 1916.31, 3, 0.086016, False
packet, 482, 38, 0, 1928.0, 3, 0.086016, False
packet, 483, 83, 0, 1928.68, 3, 0.086016, False
packet, 452, 96, 0, 1930.21, 5, 0.086016, False
packet, 485, 39, 0, 1934.46, 3, 0.086016, False
packet, 489, 95, 0, 1937.85, 3, 0.086016, False
packet, 486, 21, 0, 1940.19, 3, 0.086016, False
packet, 376, 8, 0, 1943.54, 3, 0.086016, False
packet, 491, 0, 0, 1946.44, 3, 0.086016, False
packet, 500, 95, 0, 1948.76, 3, 0.086016, False
packet, 494, 87, 0, 1952.21, 3, 0.086016, False
packet, 484, 19, 0, 1955.45, 5, 0.086016, False
packet, 461, 36, 0, 1957.33, 5, 0.086016, False
packet, 404, 8, 0, 1959.66, 3, 0.086016, False
packet, 493, 38, 0, 1967.19, 3, 0.086016, False
packet, 496, 89, 0, 1968.26, 3, 0.086016, False
packet, 492, 14, 0, 1972.62, 3, 0.086016, False
packet, 487, 41, 0, 1973.53, 3, 0.086016, False
packet, 497, 78, 0, 1980.38, 3, 0.086016, False
packet, 502, 25, 0, 1985.19, 3, 0.086016, False
packet, 504, 97, 0, 1987.68, 3, 0.086016, False
packet, 508, 6, 0, 2005.96, 3, 0.086016, False
packet, 510, 64, 0, 2010.52, 3, 0.086016, False
packet, 499, 78, 0, 2011.88, 3, 0.086016, False
packet, 505, 96, 0, 2021.1, 3, 0.086016, False
packet, 498, 47, 0, 2022.76, 3, 0.086016, False
packet, 503, 8, 0, 2046.77, 3, 0.086016, False
packet, 512, 4, 0, 2055.16, 3, 0.086016, False
packet, 446, 65, 0, 2065.21, 6, 0.086016, False
packet, 472, 67, 0, 2076.36, 6, 0.086016, False
packet, 515, 22, 0, 2078.29, 3, 0.086016, False
packet, 501, 86, 0, 2080.96, 3, 0.086016, False
packet, 514, 69, 0, 2090.64, 3, 0.086016, False
packet, 506, 92, 0, 2093.11, 4, 0.086016, False
packet, 516, 87, 0, 2097.46, 3, 0.086016, False
packet, 519, 58, 0, 2098.61, 3, 0.086016, False
packet, 455, 76, 0, 2106.75, 8, 0.086016, False
packet, 522, 26, 0, 2117.22, 3, 0.086016, False
packet, 521, 18, 0, 2121.32, 3, 0.086016, False
packet, 523, 31, 0, 2131.07, 3, 0.086016, False
packet, 518, 32, 0, 2133.13, 3, 0.086016, False
packet, 513, 65, 0, 2135.16, 3, 0.086016, False
packet, 520, 17, 0, 2139.55, 3, 0.086016, False
packet, 529, 48, 0, 2156.25, 3, 0.086016, False
packet, 528, 84, 0, 2158.53, 3, 0.086016, False
packet, 536, 4, 0, 2164.98, 3, 0.086016, False
packet, 534, 44, 0, 2165.92, 3, 0.086016, False
packet, 517, 87, 0, 2167.41, 3, 0.086016, False
packet, 531, 6, 0, 2169.97, 3, 0.086016, False
packet, 532, 38, 0, 2172.35, 3, 0.086016, False
packet, 533, 67, 0, 2173.13, 3, 0.086016, False
packet, 527, 74, 0, 2177.69, 3, 0.086016, False
packet, 535, 46, 0, 2180.13, 3, 0.086016, False
packet, 476, 50, 0, 2181.48, 6, 0.086016, False
packet, 539, 18, 0, 2210.93, 3, 0.086016, False
packet, 542, 84, 0, 2225.16, 3, 0.086016, False
packet, 540, 28, 0, 2227.27, 3, 0.086016, False
packet, 545, 34, 0, 2229.78, 3, 0.086016, False
packet, 543, 80, 0, 2234.01, 3, 0.086016, False
packet, 541, 19, 0, 2237.98, 3, 0.086016, False
packet, 546, 10, 0, 2241.02, 3, 0.086016, False
packet, 556, 58, 0, 2244.97, 3, 0.086016, False
packet, 555, 86, 0, 2249.49, 3, 0.086016, False
packet, 557, 53, 0, 2269.01, 3, 0.086016, False
packet, 550, 44, 0, 2276.25, 3, 0.086016, False
packet, 544, 41, 0, 2280.78, 3, 0.086016, False
packet, 524, 78, 0, 2283.17, 4, 0.086016, False
packet, 551, 1, 0, 2288.62, 3, 0.086016, False
packet, 221, 90, 0, 2292.82, 10, 0.086016, False
packet, 547, 32, 0, 2310.45, 5, 0.086016, False
packet, 562, 33, 0, 2317.39, 3, 0.086016, False
packet, 525, 83, 0, 2319.25, 5, 0.086016, False
packet, 552, 47, 0, 2326.64, 3, 0.086016, False
packet, 567, 62, 0, 2332.36, 3, 0.086016, False
packet, 561, 10, 0, 2337.82, 3, 0.086016, False
packet, 568, 16, 0, 2351.42, 3, 0.086016, False
packet, 566, 64, 0, 2356.97, 3, 0.086016, False
packet, 563, 94, 0, 2360.6, 3, 0.086016, False
packet, 570, 68, 0, 2363.23, 3, 0.086016, False
packet, 565, 87, 0, 2364.8, 3, 0.086016, False
packet, 275, 90, 0, 2370.46, 3, 0.086016, False
packet, 576, 2, 0, 2372.0, 3, 0.086016, False
packet, 572, 28, 0, 2375.87, 3, 0.086016, False
packet, 559, 58, 0, 2379.79, 5, 0.086016, False
packet, 579, 11, 0, 2389.18, 3, 0.086016, False
packet, 571, 41, 0, 2390.07, 3, 0.086016, False
packet, 581, 12, 0, 2394.8, 3, 0.086016, False
packet, 584, 36, 0, 2398.95, 3, 0.086016, False
packet, 488, 90, 0, 2401.96, 3, 0.086016, False
packet, 586, 10, 0, 2405.42, 3, 0.086016, False
packet, 591, 47, 0, 2417.58, 3, 0.086016, False
packet, 583, 14, 0, 2420.14, 3, 0.086016, False
packet, 585, 54, 0, 2424.72, 3, 0.086016, False
packet, 577, 18, 0, 2426.89, 3, 0.086016, False
packet, 590, 38, 0, 2430.85, 3, 0.086016, False
packet, 587, 32, 0, 2432.96, 3, 0.086016, False
packet, 574, 87, 0, 2434.75, 3, 0.086016, False
packet, 588, 37, 0, 2436.5, 3, 0.086016, False
packet, 582, 91, 0, 2441.54, 4, 0.086016, False
packet, 554, 9, 0, 2449.07, 4, 0.086016, False
packet, 593, 1, 0, 2457.78, 3, 0.086016, False
packet, 560, 9, 0, 2465.19, 3, 0.086016, False
packet, 575, 87, 0, 2466.25, 3, 0.086016, False
packet, 495, 90, 0, 2471.91, 3, 0.086016, False
packet, 594, 20, 0, 2478.0, 3, 0.086016, False
packet, 509, 90, 0, 2480.34, 3, 0.086016, False
packet, 592, 33, 0, 2493.85, 3, 0.086016, False
packet, 600, 53, 0, 2500.1, 3, 0.086016, False
packet, 596, 10, 0, 2503.9, 3, 0.086016, False
packet, 530, 60, 0, 2511.42, 6, 0.086016, False
packet, 595, 17, 0, 2512.84, 3, 0.086016, False
packet, 601, 27, 0, 2524.3, 3, 0.086016, False
packet, 599, 94, 0, 2531.45, 3, 0.086016, False
packet, 580, 40, 0, 2533.28, 5, 0.086016, False
packet, 603, 11, 0, 2550.45, 3, 0.086016, False
packet, 604, 52, 0, 2554.82, 3, 0.086016, False
packet, 569, 44, 0, 2564.06, 4, 0.086016, False
packet, 602, 58, 0, 2572.93, 3, 0.086016, False
packet, 598, 68, 0, 2582.26, 5, 0.086016, False
packet, 614, 64, 0, 2584.55, 3, 0.086016, False
packet, 609, 17, 0, 2599.38, 3, 0.086016, False
packet, 607, 44, 0, 2603.25, 3, 0.086016, False
packet, 611, 28, 0, 2604.6, 3, 0.086016, False
packet, 619, 79, 0, 2627.67, 3, 0.086016, False
packet, 618, 70, 0, 2642.65, 3, 0.086016, False
packet, 615, 14, 0, 2645.49, 3, 0.086016, False
packet, 616, 73, 0, 2661.31, 4, 0.086016, False
packet, 631, 6, 0, 2670.72, 3, 0.086016, False
packet, 626, 46, 0, 2677.49, 3, 0.086016, False
packet, 622, 83, 0, 2680.99, 3, 0.086016, False
packet, 632, 41, 0, 2688.32, 3, 0.086016, False
packet, 629, 51, 0, 2691.22, 3, 0.086016, False
packet, 628, 64, 0, 2702.79, 3, 0.086016, False
packet, 625, 97, 0, 2706.96, 3, 0.086016, False
packet, 633, 39, 0, 2720.64, 3, 0.086016, False
packet, 617, 75, 0, 2727.79, 5, 0.086016, False
packet, 634, 51, 0, 2750.23, 3, 0.086016, False
packet, 640, 25, 0, 2764.29, 3, 0.086016, False
packet, 637, 20, 0, 2766.48, 3, 0.086016, False
packet, 613, 31, 0, 2772.75, 5, 0.086016, False
packet, 636, 79, 0, 2782.24, 3, 0.086016, False
packet, 630, 52, 0, 2792.23, 5, 0.086016, False
packet, 643, 22, 0, 2795.38, 3, 0.086016, False
packet, 644, 94, 0, 2797.51, 3, 0.086016, False
packet, 646, 17, 0, 2814.59, 3, 0.086016, False
packet, 645, 6, 0, 2818.01, 3, 0.086016, False
packet, 648, 12, 0, 2822.74, 3, 0.086016, False
packet, 638, 14, 0, 2828.1, 3, 0.086016, False
packet, 642, 86, 0, 2833.54, 3, 0.086016, False
packet, 650, 67, 0, 2842.71, 3, 0.086016, False
packet, 655, 52, 0, 2845.92, 3, 0.086016, False
packet, 653, 22, 0, 2848.46, 3, 0.086016, False
packet, 639, 14, 0, 2851.91, 3, 0.086016, False
packet, 658, 57, 0, 2855.69, 3, 0.086016, False
packet, 659, 52, 0, 2862.04, 3, 0.086016, False
packet, 656, 20, 0, 2863.8, 3, 0.086016, True
packet, 654, 64, 0, 2863.84, 3, 0.086016, True
packet, 657, 54, 0, 2868.24, 3, 0.086016, False
packet, 649, 31, 0, 2868.98, 3, 0.086016, False
packet, 652, 77, 0, 2877.34, 3, 0.086016, False
packet, 651, 35, 0, 2884.88, 5, 0.086016, False
packet, 665, 16, 0, 2901.51, 3, 0.086016, False
packet, 666, 77, 0, 2912.43, 3, 0.086016, False
packet, 641, 80, 0, 2915.6, 5, 0.086016, False
packet, 661, 70, 0, 2935.75, 3, 0.086016, False
packet, 663, 35, 0, 2939.45, 3, 0.086016, False
packet, 668, 64, 0, 2940.16, 3, 0.086016, False
packet, 669, 49, 0, 2946.02, 3, 0.086016, False
packet, 667, 34, 0, 2952.46, 3, 0.086016, False
packet, 671, 27, 0, 2957.41, 3, 0.086016, False
packet, 673, 45, 0, 2974.64, 3, 0.086016, False
packet, 676, 57, 0, 2978.25, 3, 0.086016, False
packet, 662, 52, 0, 2983.77, 3, 0.086016, False
packet, 647, 9, 0, 2984.77, 4, 0.086016, False
packet, 664, 83, 0, 3020.27, 5, 0.086016, False
packet, 675, 30, 0, 3028.33, 3, 0.086016, False
packet, 672, 83, 0, 3044.08, 3, 0.086016, False
packet, 679, 84, 0, 3055.76, 3, 0.086016, False
packet, 670, 75, 0, 3093.97, 6, 0.086016, False
packet, 687, 97, 0, 3102.51, 3, 0.086016, False
packet, 680, 70, 0, 3103.81, 3, 0.086016, False
packet, 682, 28, 0, 3109.56, 3, 0.086016, False
packet, 681, 63, 0, 3122.4, 3, 0.086016, False
packet, 686, 77, 0, 3127.64, 3, 0.086016, False
packet, 683, 13, 0, 3133.08, 3, 0.086016, False
packet, 685, 45, 0, 3138.07, 3, 0.086016, False
packet, 693, 11, 0, 3169.58, 3, 0.086016, False
packet, 695, 13, 0, 3204.01, 3, 0.086016, False
packet, 684, 75, 0, 3225.52, 5, 0.086016, False
packet, 701, 4, 0, 3254.43, 3, 0.086016, False
packet, 702, 2, 0, 3260.11, 3, 0.086016, False
packet, 692, 32, 0, 3269.1, 3, 0.086016, False
packet, 703, 68, 0, 3297.77, 3, 0.086016, False
packet, 707, 49, 0, 3304.74, 3, 0.086016, False
packet, 704, 2, 0, 3314.68, 3, 0.086016, False
packet, 708, 91, 0, 3336.73, 3, 0.086016, False
packet, 705, 51, 0, 3342.26, 3, 0.086016, False
packet, 710, 73, 0, 3343.36, 3, 0.086016, False
packet, 697, 39, 0, 3348.75, 4, 0.086016, False
packet, 709, 20, 0, 3357.99, 3, 0.086016, False
packet, 706, 57, 0, 3365.66, 3, 0.086016, False
packet, 714, 16, 0, 3398.34, 3, 0.086016, False
packet, 712, 67, 0, 3401.37, 3, 0.086016, False
packet, 715, 2, 0, 3414.54, 3, 0.086016, False
packet, 711, 80, 0, 3443.62, 3, 0.086016, False
packet, 716, 75, 0, 3450.11, 3, 0.086016, False
packet, 718, 50, 0, 3452.29, 3, 0.086016, False
packet, 719, 9, 0, 3476.33, 3, 0.086016, False
packet, 720, 57, 0, 3501.31, 3, 0.086016, False
packet, 722, 91, 0, 3516.22, 3, 0.086016, False
packet, 723, 81, 0, 3533.69, 3, 0.086016, False
packet, 725, 68, 0, 3540.12, 3, 0.086016, False
packet, 726, 28, 0, 3567.2, 3, 0.086016, False
packet, 728, 50, 0, 3578.1, 3, 0.086016, False
c_packet, 669, 2227, 6, 99.103%

sensor, 0, 7, 0, 7, 0, 0, 0, 0, 0, live
sensor, 1, 4, 0, 4, 0, 0, 0, 0, 0, live
sensor, 2, 6, 0, 6, 0, 0, 0, 0, 0, live
sensor, 3, 7, 1, 6, 0, 0, 0, 0, 0, dead
sensor, 4, 5, 0, 5, 0, 0, 0, 0, 0, live
sensor, 5, 7, 0, 7, 0, 0, 0, 0, 0, dead
sensor, 6, 9, 1, 8, 0, 0, 0, 0, 0, dead
sensor, 7, 8, 1, 7, 0, 0, 0, 0, 0, dead
sensor, 8, 8, 1, 7, 0, 0, 0, 0, 0, dead
sensor, 9, 4, 0, 4, 0, 0, 0, 0, 0, live
sensor, 10, 9, 1, 8, 0, 0, 0, 0, 0, dead
sensor, 11, 9, 1, 8, 0, 0, 0, 0, 0, dead
sensor, 12, 7, 0, 7, 0, 0, 0, 0, 0, dead
sensor, 13, 8, 1, 7, 0, 0, 0, 0, 0, dead
sensor, 14, 7, 0, 7, 0, 0, 0, 0, 0, dead
sensor, 15, 7, 1, 6, 0, 0, 0, 0, 0, dead
sensor, 16, 7, 0, 7, 0, 0, 0, 0, 0, dead
sensor, 17, 7, 0, 7, 0, 0, 0, 0, 0, dead
sensor, 18, 8, 1, 7, 0, 0, 0, 0, 0, dead
sensor, 19, 7, 0, 7, 0, 0, 0, 0, 0, live
sensor, 20, 6, 0, 6, 0, 0, 0, 0, 0, live
sensor, 21, 7, 1, 6, 0, 0, 0, 0, 0, dead
sensor, 22, 7, 0, 7, 0, 0, 0, 0, 0, dead
sensor, 23, 9, 1, 8, 0, 0, 0, 0, 0, dead
sensor, 24, 7, 0, 7, 0, 0, 0, 0, 0, dead
sensor, 25, 4, 0, 4, 0, 0, 0, 0, 0, live
sensor, 26, 9, 1, 8, 0, 0, 0, 0, 0, dead
sensor, 27, 3, 0, 3, 0, 0, 0, 0, 0, live
sensor, 28, 8, 0, 8, 0, 0, 0, 0, 0, live
sensor, 29, 10, 4, 6, 0, 0, 0, 0, 0, dead
sensor, 30, 8, 1, 7, 0, 0, 0, 0, 0, dead
sensor, 31, 5, 0, 5, 0, 0, 0, 0, 0, live
sensor, 32, 9, 1, 8, 0, 0, 0, 0, 0, dead
sensor, 33, 8, 1, 7, 0, 0, 0, 0, 0, dead
sensor, 34, 7, 0, 7, 0, 0, 0, 0, 0, dead
sensor, 35, 7, 1, 6, 0, 0, 0, 0, 0, dead
sensor, 36, 8, 1, 7, 0, 0, 0, 0, 0, dead
sensor, 37, 7, 0, 7, 0, 0, 0, 0, 0, dead
sensor, 38, 7, 0, 7, 0, 0, 0, 0, 0, dead
sensor, 39, 6, 0, 6, 0, 0, 0, 0, 0, live
sensor, 40, 2, 0, 2, 0, 0, 0, 0, 0, live
sensor, 41, 5, 0, 5, 0, 0, 0, 0, 0, live
sensor, 42, 7, 0, 7, 0, 0, 0, 0, 0, dead
sensor, 43, 9, 3, 6, 0, 0, 0, 0, 0, dead
sensor, 44, 9, 1, 8, 0, 0, 0, 0, 0, dead
sensor, 45, 7, 1, 6, 0, 0, 0, 0, 0, dead
sensor, 46, 7, 0, 7, 0, 0, 0, 0, 0, dead
sensor, 47, 7, 0, 7, 0, 0, 0, 0, 0, dead
sensor, 48, 9, 1, 8, 0, 0, 0, 0, 0, dead
sensor, 49, 9, 1, 8, 0, 0, 0, 0, 0, dead
sensor, 50, 7, 0, 7, 0, 0, 0, 0, 0, live
sensor, 51, 7, 1, 6, 0, 0, 0, 0, 0, live
sensor, 52, 8, 1, 7, 0, 0, 0, 0, 0, dead
sensor, 53, 6, 0, 6, 0, 0, 0, 0, 0, live
sensor, 54, 8, 1, 7, 0, 0, 0, 0, 0, dead
sensor, 55, 8, 1, 7, 0, 0, 0, 0, 0, dead
sensor, 56, 7, 1, 6, 0, 0, 0, 0, 0, dead
sensor, 57, 7, 0, 7, 0, 0, 0, 0, 0, live
sensor, 58, 10, 2, 8, 0, 0, 0, 0, 0, dead
sensor, 59, 7, 0, 7, 0, 0, 0, 0, 0, dead
sensor, 60, 9, 2, 7, 0, 0, 0, 0, 0, dead
sensor, 61, 7, 0, 7, 0, 0, 0, 0, 0, dead
sensor, 62, 8, 1, 7, 0, 0, 0, 0, 0, dead
sensor, 63, 7, 0, 7, 0, 0, 0, 0, 0, live
sensor, 64, 9, 1, 8, 0, 0, 0, 0, 0, dead
sensor, 65, 7, 1, 6, 0, 0, 0, 0, 0, dead
sensor, 66, 7, 0, 7, 0, 0, 0, 0, 0, dead
sensor, 67, 7, 0, 7, 0, 0, 0, 0, 0, live
sensor, 68, 8, 0, 8, 0, 0, 0, 0, 0, live
sensor, 69, 8, 1, 7, 0, 0, 0, 0, 0, dead
sensor, 70, 9, 1, 8, 0, 0, 0, 0, 0, dead
sensor, 71, 8, 1, 7, 0, 0, 0, 0, 0, dead
sensor, 72, 8, 1, 7, 0, 0, 0, 0, 0, dead
sensor, 73, 7, 1, 6, 0, 0, 0, 0, 0, dead
sensor, 74, 8, 1, 7, 0, 0, 0, 0, 0, dead
sensor, 75, 7, 1, 6, 0, 0, 0, 0, 0, dead
sensor, 76, 8, 2, 6, 0, 0, 0, 0, 0, dead
sensor, 77, 9, 1, 8, 0, 0, 0, 0, 0, dead
sensor, 78, 8, 1, 7, 0, 0, 0, 0, 0, dead
sensor, 79, 7, 0, 7, 0, 0, 0, 0, 0, dead
sensor, 80, 6, 0, 6, 0, 0, 0, 0, 0, live
sensor, 81, 7, 1, 6, 0, 0, 0, 0, 0, live
sensor, 82, 7, 0, 7, 0, 0, 0, 0, 0, dead
sensor, 83, 8, 1, 7, 0, 0, 0, 0, 0, dead
sensor, 84, 7, 0, 7, 0, 0, 0, 0, 0, live
sensor, 85, 7, 0, 7, 0, 0, 0, 0, 0, dead
sensor, 86, 7, 0, 7, 0, 0, 0, 0, 0, dead
sensor, 87, 7, 0, 7, 0, 0, 0, 0, 0, dead
sensor, 88, 9, 2, 7, 0, 0, 0, 0, 0, dead
sensor, 89, 7, 0, 7, 0, 0, 0, 0, 0, dead
sensor, 90, 8, 2, 6, 0, 0, 0, 0, 0, dead
sensor, 91, 7, 0, 7, 0, 0, 0, 0, 0, live
sensor, 92, 3, 0, 3, 0, 0, 0, 0, 0, live
sensor, 93, 7, 0, 7, 0, 0, 0, 0, 0, dead
sensor, 94, 9, 1, 8, 0, 0, 0, 0, 0, dead
sensor, 95, 9, 1, 8, 0, 0, 0, 0, 0, dead
sensor, 96, 8, 1, 7, 0, 0, 0, 0, 0, dead
sensor, 97, 5, 0, 5, 0, 0, 0, 0, 0, live
sensor, 98, 9, 1, 8, 0, 0, 0, 0, 0, dead
sensor, 99, 9, 1, 8, 0, 0, 0, 0, 0, dead
